arduino/data/1_on.vcd
$timescale 1 ns $end
$scope module top $end
$var wire 1 ! Channel_0 $end
$upscope $end
$enddefinitions $end
#0
1!
#208541
0!
#494041
1!
#733000
0!
#1008708
1!
#1246291
0!
#2552041
1!
#2790125
0!
#4086125
1!
#4324666
0!
#4611333
1!
#4848541
0!
#6144541
1!
#6382333
0!
#6668750
1!
#6905833
0!
#7184750
1!
#7423083
0!
#8738916
1!
#8976666
0!
#10272875
1!
#10511583
0!
#10798250
1!
#11036083
0!
#11313083
1!
#11550166
0!
#12855416
1!
#13091250
0!
#14388750
1!
#14625458
0!
#14913833
1!
#15151541
0!
#16447208
1!
#16684500
0!
#16971208
1!
#17210041
0!
#18504875
1!
#18742541
0!
#19030000
1!
#19267666
0!
#19544791
1!
#19783291
0!
#21087875
1!
#21325875
0!
#21603333
1!
#21841000
0!
#23144916
1!
#23381291
0!
#23660791
1!
#23897541
0!
#25216208
1!
#25453583
0!
#26747250
1!
#26985333
0!
#27271666
1!
#27510000
0!
#27787458
1!
#28024625
0!
#29330208
1!
#29569500
0!
#30865916
1!
#31103541
0!
#31389833
1!
#31628416
0!
#32923250
1!
#33159750
0!
#33449208
1!
#33684625
0!
#33963208
1!
#34201250
0!
#35508166
1!
#35744875
0!
#36021208
1!
#36259958
0!
#37566041
1!
#37802041
0!
#38081791
1!
#38320041
0!
#39624750
1!
#39861916
0!
#41160333
1!
#41398250
0!
#41696208
1!
#41933500
0!
#43230166
1!
#43466916
0!
#43756000
1!
#43991875
0!
#44271250
1!
#44507875
0!
#45814416
1!
#46049916
0!
#46329875
1!
#46566208
0!
#47872125
1!
#48108791
0!
#49406541
1!
#49642708
0!
#49931166
1!
#50166625
0!
#50446333
1!
#50682666
0!
#51989375
1!
#52227041
0!
#52504041
1!
#52742333
0!
#54047083
1!
#54282791
0!
#54562125
1!
#54796958
0!
#56103625
1!
#56340083
0!
#56618791
1!
#56855125
0!
#58150958
1!
#58384791
0!
#67747958
1!
#67985375
0!
#70588208
1!
#70827791
0!
#71103625
1!
#71341625
0!
#72645833
1!
#72883916
0!
#74179083
1!
#74417750
0!
#74703833
1!
#74940083
0!
#76236000
1!
#76474750
0!
#76759750
1!
#76997708
0!
#78293375
1!
#78531375
0!
#78817708
1!
#79056000
0!
#79333125
1!
#79570583
0!
#80876625
1!
#81116000
0!
#82409750
1!
#82648083
0!
#82935500
1!
#83172833
0!
#84469500
1!
#84708958
0!
#84994958
1!
#85231416
0!
#85511833
1!
#85749208
0!
#87063625
1!
#87300750
0!
#88597791
1!
#88833583
0!
#89122458
1!
#89359166
0!
#89637625
1!
#89874750
0!
#91181208
1!
#91418833
0!
#92716041
1!
#92954750
0!
#93240916
1!
#93478875
0!
#94776458
1!
#95013166
0!
#95302833
1!
#95540500
0!
#96834250
1!
#97071333
0!
#97359416
1!
#97595833
0!
#97873958
1!
#98112083
0!
#99417375
1!
#99654791
0!
#99933250
1!
#100172833
0!
#101475875
1!
#101712375
0!
#101992000
1!
#102228166
0!
#103545000
1!
#103781375
0!
#105079708
1!
#105316041
0!
#105604958
1!
#105841291
0!
#106117583
1!
#106353416
0!
#107659791
1!
#107896333
0!
#109194375
1!
#109430791
0!
#109719875
1!
#109957166
0!
#111255125
1!
#111491750
0!
#111779458
1!
#112016458
0!
#112296250
1!
#112532166
0!
#113840500
1!
#114077833
0!
#114356208
1!
#114591333
0!
#115901125
1!
#116136833
0!
#116415458
1!
#116652916
0!
#117958583
1!
#118196166
0!
#119493666
1!
#119730958
0!
#120029583
1!
#120266791
0!
#121564583
1!
#121800875
0!
#122089583
1!
#122326958
0!
#122605375
1!
#122840750
0!
#124150416
1!
#124386458
0!
#124665875
1!
#124903833
0!
#126209333
1!
#126444500
0!
#127745458
1!
#127982208
0!
#128269208
1!
#128505750
0!
#128785625
1!
#129022125
0!
#130331333
1!
#130568916
0!
#130846958
1!
#131083958
0!
#132390500
1!
#132626750
0!
#132905958
1!
#133141083
0!
#134448666
1!
#134683625
0!
#134964791
1!
#135202833
0!
#136498791
1!
#136730458
0!
#146106250
1!
#146343750
0!
#148947416
1!
#149186083
0!
#149461916
1!
#149699708
0!
#151007666
1!
#151247125
0!
#152542583
1!
#152782291
0!
#153066666
1!
#153305875
0!
#154602625
1!
#154841708
0!
#155128333
1!
#155368625
0!
#156661083
1!
#156900708
0!
#157186875
1!
#157426166
0!
#157701625
1!
#157940291
0!
#159245916
1!
#159484000
0!
#160780833
1!
#161020833
0!
#161305875
1!
#161545875
0!
#162842166
1!
#163081166
0!
#163366375
1!
#163604625
0!
#163883291
1!
#164121166
0!
#165439375
1!
#165677541
0!
#166971708
1!
#167209875
0!
#167496791
1!
#167734791
0!
#168011791
1!
#168250041
0!
#169556250
1!
#169791416
0!
#171091958
1!
#171328916
0!
#171616000
1!
#171853791
0!
#173151875
1!
#173388166
0!
#173677000
1!
#173915083
0!
#175213875
1!
#175451500
0!
#175738166
1!
#175973333
0!
#176252708
1!
#176491541
0!
#177796708
1!
#178035083
0!
#178312833
1!
#178550291
0!
#179857625
1!
#180097541
0!
#180372958
1!
#180610750
0!
#181929333
1!
#182166875
0!
#183465250
1!
#183702791
0!
#183989500
1!
#184228791
0!
#184506875
1!
#184744833
0!
#186050833
1!
#186288791
0!
#187585291
1!
#187822916
0!
#188110083
1!
#188347500
0!
#189645000
1!
#189882125
0!
#190170708
1!
#190407666
0!
#190686791
1!
#190922708
0!
#192229666
1!
#192465500
0!
#192745208
1!
#192983083
0!
#194289166
1!
#194526916
0!
#194804750
1!
#195040583
0!
#196347958
1!
#196585125
0!
#197882416
1!
#198117875
0!
#198418875
1!
#198656416
0!
#199954291
1!
#200193333
0!
#200479250
1!
#200715250
0!
#200995791
1!
#201232416
0!
#202540000
1!
#202777708
0!
#203055708
1!
#203292916
0!
#204600000
1!
#204836250
0!
#206134625
1!
#206369833
0!
#206659125
1!
#206896541
0!
#207175375
1!
#207413916
0!
#208718333
1!
#208955000
0!
#209235291
1!
#209472041
0!
#210780083
1!
#211017125
0!
#211295291
1!
#211532416
0!
#212841916
1!
#213079416
0!
#213356958
1!
#213594458
0!
#214893458
1!
#215126375
0!
#224504125
1!
#224742583
0!
#227348416
1!
#227587333
0!
#227865500
1!
#228103041
0!
#229410125
1!
#229649916
0!
#230946250
1!
#231184791
0!
#231471583
1!
#231710125
0!
#233006416
1!
#233245166
0!
#233531916
1!
#233770000
0!
#235067708
1!
#235308500
0!
#235594875
1!
#235834416
0!
#236108791
1!
#236347166
0!
#237654166
1!
#237894541
0!
#239190666
1!
#239429833
0!
#239716583
1!
#239956333
0!
#241253708
1!
#241493458
0!
#241779166
1!
#242018375
0!
#242296250
1!
#242534875
0!
#243853333
1!
#244092166
0!
#245389875
1!
#245627833
0!
#245915291
1!
#246153000
0!
#246430291
1!
#246667375
0!
#247975583
1!
#248213708
0!
#249512833
1!
#249752500
0!
#250038333
1!
#250277291
0!
#251575583
1!
#251815291
0!
#252101458
1!
#252340166
0!
#253637666
1!
#253874458
0!
#254163875
1!
#254401916
0!
#254679750
1!
#254917000
0!
#256224750
1!
#256461250
0!
#256741125
1!
#256980375
0!
#258285833
1!
#258523916
0!
#258802708
1!
#259040166
0!
#260359208
1!
#260598000
0!
#261894625
1!
#262133041
0!
#262420291
1!
#262658625
0!
#262936458
1!
#263175083
0!
#264481250
1!
#264720000
0!
#266017541
1!
#266255333
0!
#266542541
1!
#266780333
0!
#268078375
1!
#268317000
0!
#268603833
1!
#268843291
0!
#269120083
1!
#269357166
0!
#270665666
1!
#270903291
0!
#271182750
1!
#271419583
0!
#272727333
1!
#272964416
0!
#273243250
1!
#273481500
0!
#274789583
1!
#275026875
0!
#276325250
1!
#276562166
0!
#276861333
1!
#277098708
0!
#278398166
1!
#278636000
0!
#278923791
1!
#279160875
0!
#279440458
1!
#279677000
0!
#280985625
1!
#281223750
0!
#281502375
1!
#281738208
0!
#283047416
1!
#283284833
0!
#284583541
1!
#284823500
0!
#285108958
1!
#285347541
0!
#285627125
1!
#285864458
0!
#287169541
1!
#287406750
0!
#287685958
1!
#287922166
0!
#289229666
1!
#289468750
0!
#289745583
1!
#289983125
0!
#291291750
1!
#291528833
0!
#291807625
1!
#292046208
0!
#293343458
1!
#293576666
0!
#302956666
1!
#303194791
0!
#305804000
1!
#306044708
0!
#306318291
1!
#306557500
0!
#307864166
1!
#308102083
0!
#309400416
1!
#309638500
0!
#309926583
1!
#310164666
0!
#311463333
1!
#311702666
0!
#311988458
1!
#312227166
0!
#313526125
1!
#313763375
0!
#314051125
1!
#314289791
0!
#314567291
1!
#314805916
0!
#316113833
1!
#316351375
0!
#317648958
1!
#317888250
0!
#318174583
1!
#318413166
0!
#318413208
1!
#318413291
0!
#319712375
1!
#319951666
0!
#320237708
1!
#320476583
0!
#320754250
1!
#320991125
0!
#322310416
1!
#322549750
0!
#323846083
1!
#324085458
0!
#324371500
1!
#324610000
0!
#324888333
1!
#325127250
0!
#326433708
1!
#326672166
0!
#327970541
1!
#328207125
0!
#328495833
1!
#328734041
0!
#330033458
1!
#330271500
0!
#330559500
1!
#330795500
0!
#332096208
1!
#332334458
0!
#332621708
1!
#332858750
0!
#333139083
1!
#333376416
0!
#334684208
1!
#334923583
0!
#335201125
1!
#335439375
0!
#336746166
1!
#336984500
0!
#337261875
1!
#337501250
0!
#338819208
1!
#339056041
0!
#340355041
1!
#340594541
0!
#340879541
1!
#341118291
0!
#341396250
1!
#341633041
0!
#342941125
1!
#343179583
0!
#344476458
1!
#344713625
0!
#345001833
1!
#345239958
0!
#346536958
1!
#346774458
0!
#347061625
1!
#347298958
0!
#347578041
1!
#347815083
0!
#349122041
1!
#349359708
0!
#349638083
1!
#349875083
0!
#351182958
1!
#351420125
0!
#351698333
1!
#351934583
0!
#353242375
1!
#353478750
0!
#354777708
1!
#355015625
0!
#355314666
1!
#355551791
0!
#356848416
1!
#357086041
0!
#357372875
1!
#357611208
0!
#357889208
1!
#358126291
0!
#359434000
1!
#359671666
0!
#359950208
1!
#360187916
0!
#361495916
1!
#361733208
0!
#363033166
1!
#363270083
0!
#363557833
1!
#363794833
0!
#364074958
1!
#364311125
0!
#365621416
1!
#365857875
0!
#366135458
1!
#366370875
0!
#367680666
1!
#367919083
0!
#368196166
1!
#368433833
0!
#369741500
1!
#369976750
0!
#370259625
1!
#370495291
0!
#371795375
1!
#372028791
0!
#381408541
1!
#381645750
0!
#384251666
1!
#384491833
0!
#384767000
1!
#385006791
0!
#386311875
1!
#386549166
0!
#387847458
1!
#388084958
0!
#388372750
1!
#388609875
0!
#389909083
1!
#390147708
0!
#390434250
1!
#390673333
0!
#391969333
1!
#392208250
0!
#392494750
1!
#392733125
0!
#393010958
1!
#393251750
0!
#394555666
1!
#394795500
0!
#396092083
1!
#396330458
0!
#396615916
1!
#396854416
0!
#398151458
1!
#398389375
0!
#398676416
1!
#398916041
0!
#399192291
1!
#399431166
0!
#400749458
1!
#400986666
0!
#402284958
1!
#402523625
0!
#402809833
1!
#403046916
0!
#403326625
1!
#403566375
0!
#404870625
1!
#405110000
0!
#406407500
1!
#406643833
0!
#406931583
1!
#407170708
0!
#408467458
1!
#408703541
0!
#408993208
1!
#409231625
0!
#410529791
1!
#410767083
0!
#411055000
1!
#411292833
0!
#411571458
1!
#411808375
0!
#413116833
1!
#413353708
0!
#413633166
1!
#413872041
0!
#415178666
1!
#415416916
0!
#415696250
1!
#415934583
0!
#417251375
1!
#417488625
0!
#418788583
1!
#419025791
0!
#419312625
1!
#419549875
0!
#419829500
1!
#420066875
0!
#421375500
1!
#421612916
0!
#422911208
1!
#423150625
0!
#423436708
1!
#423674166
0!
#424973208
1!
#425210541
0!
#425499416
1!
#425737958
0!
#426015666
1!
#426252458
0!
#427559500
1!
#427798416
0!
#428075416
1!
#428313083
0!
#429622333
1!
#429858416
0!
#430138416
1!
#430374958
0!
#431684125
1!
#431921375
0!
#433220375
1!
#433456916
0!
#433756625
1!
#433993791
0!
#435294291
1!
#435530541
0!
#435821500
1!
#436055458
0!
#436334500
1!
#436571750
0!
#437879541
1!
#438115666
0!
#438394583
1!
#438630666
0!
#439940291
1!
#440177500
0!
#441477625
1!
#441715166
0!
#442002791
1!
#442240333
0!
#442519625
1!
#442755916
0!
#444064625
1!
#444302333
0!
#444580916
1!
#444816125
0!
#446126750
1!
#446362625
0!
#446641791
1!
#446880083
0!
#448187583
1!
#448422666
0!
#448704708
1!
#448941000
0!
#450241916
1!
#450474583
0!
#459856458
1!
#460095791
0!
#462702375
1!
#462943541
0!
#463219000
1!
#463459000
0!
#464764666
1!
#465004666
0!
#466301708
1!
#466541291
0!
#466826666
1!
#467066666
0!
#468362708
1!
#468601291
0!
#468888958
1!
#469126916
0!
#470425833
1!
#470664500
0!
#470952208
1!
#471189791
0!
#471468458
1!
#471707500
0!
#473013208
1!
#473252166
0!
#474549791
1!
#474788875
0!
#475075375
1!
#475313125
0!
#476611750
1!
#476849958
0!
#477137291
1!
#477376333
0!
#477653208
1!
#477891458
0!
#479210083
1!
#479447166
0!
#480748083
1!
#480987291
0!
#481273125
1!
#481510041
0!
#481790666
1!
#482027916
0!
#483335583
1!
#483572625
0!
#484872916
1!
#485109833
0!
#485399500
1!
#485637583
0!
#486934958
1!
#487172666
0!
#487460125
1!
#487696916
0!
#488997416
1!
#489235125
0!
#489522291
1!
#489760125
0!
#490038958
1!
#490275833
0!
#491585541
1!
#491822416
0!
#492101083
1!
#492339208
0!
#493646458
1!
#493883500
0!
#494163083
1!
#494402125
0!
#495721291
1!
#495958500
0!
#497255458
1!
#497491750
0!
#497780916
1!
#498019750
0!
#498296541
1!
#498535583
0!
#499842375
1!
#500081583
0!
#501379916
1!
#501618041
0!
#501904916
1!
#502143583
0!
#503442416
1!
#503678041
0!
#503968000
1!
#504205958
0!
#504484375
1!
#504720666
0!
#506032208
1!
#506267416
0!
#506546500
1!
#506785250
0!
#508091875
1!
#508330208
0!
#508609250
1!
#508846708
0!
#510155666
1!
#510393291
0!
#511691458
1!
#511928250
0!
#512228541
1!
#512465791
0!
#513765750
1!
#514002208
0!
#514291500
1!
#514528791
0!
#514808833
1!
#515045750
0!
#516354458
1!
#516592833
0!
#516871375
1!
#517106250
0!
#518417208
1!
#518653916
0!
#519953541
1!
#520190541
0!
#520479583
1!
#520715666
0!
#520995541
1!
#521231750
0!
#522541000
1!
#522776166
0!
#523057833
1!
#523292708
0!
#524603041
1!
#524840666
0!
#525119916
1!
#525355166
0!
#526666166
1!
#526902125
0!
#527181583
1!
#527419083
0!
#528718416
1!
#528951458
0!
#538338416
1!
#538576666
0!
#541185291
1!
#541425458
0!
#541701666
1!
#541940125
0!
#543248041
1!
#543486750
0!
#544784000
1!
#545022250
0!
#545309875
1!
#545549666
0!
#546847333
1!
#547085208
0!
#547373041
1!
#547611125
0!
#548911083
1!
#549148875
0!
#549436375
1!
#549675541
0!
#549952958
1!
#550190166
0!
#551500041
1!
#551738916
0!
#553037625
1!
#553275875
0!
#553563416
1!
#553801333
0!
#555100833
1!
#555338708
0!
#555627291
1!
#555865458
0!
#556144291
1!
#556381416
0!
#557698791
1!
#557936750
0!
#559235375
1!
#559472916
0!
#559761083
1!
#559999166
0!
#560278541
1!
#560516625
0!
#561823416
1!
#562061666
0!
#563360458
1!
#563598666
0!
#563886000
1!
#564123541
0!
#565422541
1!
#565661375
0!
#565948416
1!
#566186875
0!
#567482166
1!
#567721000
0!
#568007666
1!
#568243708
0!
#568525000
1!
#568763333
0!
#570069791
1!
#570308916
0!
#570586875
1!
#570824375
0!
#572133333
1!
#572370125
0!
#572649833
1!
#572887375
0!
#574205916
1!
#574441791
0!
#575744500
1!
#575981750
0!
#576267916
1!
#576505750
0!
#576784416
1!
#577021958
0!
#578329083
1!
#578568000
0!
#579864083
1!
#580102083
0!
#580390458
1!
#580629958
0!
#581927666
1!
#582164791
0!
#582452708
1!
#582690708
0!
#582969375
1!
#583206583
0!
#584514541
1!
#584752916
0!
#585031833
1!
#585267416
0!
#586576083
1!
#586813708
0!
#587092541
1!
#587328750
0!
#588637458
1!
#588874583
0!
#590173708
1!
#590411083
0!
#590710375
1!
#590946916
0!
#592247416
1!
#592484250
0!
#592772083
1!
#593009500
0!
#593288333
1!
#593525125
0!
#594833291
1!
#595069000
0!
#595349250
1!
#595587041
0!
#596892291
1!
#597128958
0!
#598428875
1!
#598666791
0!
#598953416
1!
#599191541
0!
#599469958
1!
#599707625
0!
#601015958
1!
#601254583
0!
#601531375
1!
#601768750
0!
#603078458
1!
#603316750
0!
#603594625
1!
#603833375
0!
#605140000
1!
#605377291
0!
#605658458
1!
#605896708
0!
#607192791
1!
#607428375
0!
#616806583
1!
#617044666
0!
#619651625
1!
#619893375
0!
#620168500
1!
#620408708
0!
#621713291
1!
#621953083
0!
#623249791
1!
#623489791
0!
#623774791
1!
#624014708
0!
#625310708
1!
#625548500
0!
#625837666
1!
#626076291
0!
#627371583
1!
#627608916
0!
#627897333
1!
#628136208
0!
#628413000
1!
#628651958
0!
#629958625
1!
#630197208
0!
#631495250
1!
#631733666
0!
#632019333
1!
#632258833
0!
#633555458
1!
#633794166
0!
#634081291
1!
#634319083
0!
#634597125
1!
#634834250
0!
#636154958
1!
#636393541
0!
#637689000
1!
#637927791
0!
#638214250
1!
#638452541
0!
#638730250
1!
#638968791
0!
#640275750
1!
#640516208
0!
#641810541
1!
#642049666
0!
#642336000
1!
#642573708
0!
#643872250
1!
#644111625
0!
#644396375
1!
#644634916
0!
#645933583
1!
#646173000
0!
#646457416
1!
#646694958
0!
#646972833
1!
#647210666
0!
#648517541
1!
#648755791
0!
#649033833
1!
#649272125
0!
#650580291
1!
#650818583
0!
#651096250
1!
#651333041
0!
#652652125
1!
#652888875
0!
#654187875
1!
#654425541
0!
#654712541
1!
#654949041
0!
#655228708
1!
#655465333
0!
#656774083
1!
#657010833
0!
#658310291
1!
#658549166
0!
#658835750
1!
#659073750
0!
#660372791
1!
#660611333
0!
#660898083
1!
#661135791
0!
#661415083
1!
#661652875
0!
#662960041
1!
#663197916
0!
#663476000
1!
#663712083
0!
#665022166
1!
#665259208
0!
#665538958
1!
#665775875
0!
#667082916
1!
#667318958
0!
#668618833
1!
#668856416
0!
#669155916
1!
#669392000
0!
#670692250
1!
#670932083
0!
#671218458
1!
#671456375
0!
#671733958
1!
#671969375
0!
#673278416
1!
#673513333
0!
#673794125
1!
#674032416
0!
#675339416
1!
#675576583
0!
#676875750
1!
#677113541
0!
#677400791
1!
#677640166
0!
#677917208
1!
#678155791
0!
#679463625
1!
#679702791
0!
#679980125
1!
#680219291
0!
#681526583
1!
#681765916
0!
#682043666
1!
#682281625
0!
#683589750
1!
#683830208
0!
#684105750
1!
#684344958
0!
#685644666
1!
#685878416
0!
#695261875
1!
#695502208
0!
#698107333
1!
#698347333
0!
#698623875
1!
#698865125
0!
#700170416
1!
#700411166
0!
#701707916
1!
#701946625
0!
#702233708
1!
#702475333
0!
#703770500
1!
#704010833
0!
#704296666
1!
#704535208
0!
#705834750
1!
#706074125
0!
#706359625
1!
#706597083
0!
#706875125
1!
#707114750
0!
#708421083
1!
#708662375
0!
#709959041
1!
#710198041
0!
#710486375
1!
#710723916
0!
#712023083
1!
#712261500
0!
#712548166
1!
#712786166
0!
#713065583
1!
#713304916
0!
#714623541
1!
#714861291
0!
#716162708
1!
#716399666
0!
#716687250
1!
#716925916
0!
#717202958
1!
#717442041
0!
#718749833
1!
#718987583
0!
#720288750
1!
#720525625
0!
#720813583
1!
#721050583
0!
#722351166
1!
#722589666
0!
#722876750
1!
#723114916
0!
#724413833
1!
#724650541
0!
#724939916
1!
#725178458
0!
#725456333
1!
#725694083
0!
#727002208
1!
#727240250
0!
#727518416
1!
#727756708
0!
#729064833
1!
#729302375
0!
#729582125
1!
#729818916
0!
#731140333
1!
#731377750
0!
#732678208
1!
#732915333
0!
#733203458
1!
#733441083
0!
#733719708
1!
#733956958
0!
#735264416
1!
#735501458
0!
#736800208
1!
#737037750
0!
#737325041
1!
#737563208
0!
#738861208
1!
#739100000
0!
#739387041
1!
#739623250
0!
#739902875
1!
#740141041
0!
#741447125
1!
#741685125
0!
#741964250
1!
#742202291
0!
#743509125
1!
#743747583
0!
#744024583
1!
#744261291
0!
#745569000
1!
#745807041
0!
#747104250
1!
#747341125
0!
#747640750
1!
#747880125
0!
#749178083
1!
#749415208
0!
#749703250
1!
#749941208
0!
#750221500
1!
#750458333
0!
#751767375
1!
#752004416
0!
#752283375
1!
#752520083
0!
#753829000
1!
#754066083
0!
#755365125
1!
#755601791
0!
#755893250
1!
#756127125
0!
#756406791
1!
#756643416
0!
#757950916
1!
#758186083
0!
#758467875
1!
#758704250
0!
#760013375
1!
#760249958
0!
#760529125
1!
#760765625
0!
#762076166
1!
#762311500
0!
#762591458
1!
#762829541
0!
#764129083
1!
#764362791
0!
#773743625
1!
#773981458
0!
#776589166
1!
#776828875
0!
#777104583
1!
#777344291
0!
#778649583
1!
#778889458
0!
#780187333
1!
#780428833
0!
#780712958
1!
#780953375
0!
#782250791
1!
#782490083
0!
#782776541
1!
#783015375
0!
#784312875
1!
#784552708
0!
#784838958
1!
#785078333
0!
#785355333
1!
#785591458
0!
#786900333
1!
#787138875
0!
#788437291
1!
#788675125
0!
#788962916
1!
#789201541
0!
#790500625
1!
#790738916
0!
#791025833
1!
#791264875
0!
#791541500
1!
#791779375
0!
#793097666
1!
#793336000
0!
#794633333
1!
#794873583
0!
#794873625
1!
#794873666
0!
#795159041
1!
#795396958
0!
#795676958
1!
#795915666
0!
#797219833
1!
#797459333
0!
#798756250
1!
#798994708
0!
#799281250
1!
#799519500
0!
#800817333
1!
#801057583
0!
#801342666
1!
#801581666
0!
#802877875
1!
#803116875
0!
#803402916
1!
#803642375
0!
#803918958
1!
#804158416
0!
#805463958
1!
#805703500
0!
#805980958
1!
#806219833
0!
#807524291
1!
#807762583
0!
#808040875
1!
#808279625
0!
#809596833
1!
#809834500
0!
#811134583
1!
#811372458
0!
#811659458
1!
#811897750
0!
#812175333
1!
#812413375
0!
#813721750
1!
#813958875
0!
#815257041
1!
#815497166
0!
#815784125
1!
#816021708
0!
#817319375
1!
#817559250
0!
#817844333
1!
#818084208
0!
#818361625
1!
#818599250
0!
#819908125
1!
#820145916
0!
#820424375
1!
#820661083
0!
#821971916
1!
#822209208
0!
#822487416
1!
#822723333
0!
#824033250
1!
#824271416
0!
#825570875
1!
#825808375
0!
#826108791
1!
#826345791
0!
#827643291
1!
#827880125
0!
#828170083
1!
#828406083
0!
#828685791
1!
#828923208
0!
#830232416
1!
#830470625
0!
#830751000
1!
#830987708
0!
#832296666
1!
#832534791
0!
#833833500
1!
#834072125
0!
#834359625
1!
#834596791
0!
#834875750
1!
#835115375
0!
#836423041
1!
#836658375
0!
#836936583
1!
#837174458
0!
#838481708
1!
#838720833
0!
#838999041
1!
#839236583
0!
#840544916
1!
#840783833
0!
#841061833
1!
#841298333
0!
#842599208
1!
#842833625
0!
#852217458
1!
#852453416
0!
#855062041
1!
#855301666
0!
#855578625
1!
#855817583
0!
#857123291
1!
#857363208
0!
#858659000
1!
#858896208
0!
#859184375
1!
#859423375
0!
#860719791
1!
#860959291
0!
#861245750
1!
#861485375
0!
#862782416
1!
#863024000
0!
#863308041
1!
#863547500
0!
#863824458
1!
#864063333
0!
#865369541
1!
#865609083
0!
#866906083
1!
#867145416
0!
#867431083
1!
#867671625
0!
#868966250
1!
#869206833
0!
#869491958
1!
#869729666
0!
#870008708
1!
#870245750
0!
#871564791
1!
#871803375
0!
#873099833
1!
#873340500
0!
#873626583
1!
#873864833
0!
#874141916
1!
#874380500
0!
#875686875
1!
#875927125
0!
#877224416
1!
#877463000
0!
#877748708
1!
#877988125
0!
#879285083
1!
#879522916
0!
#879810166
1!
#880050250
0!
#881346500
1!
#881584416
0!
#881872625
1!
#882110750
0!
#882387916
1!
#882624500
0!
#883933083
1!
#884171833
0!
#884450250
1!
#884688416
0!
#885995875
1!
#886230833
0!
#886512291
1!
#886748291
0!
#888067416
1!
#888305625
0!
#889603000
1!
#889840875
0!
#890128958
1!
#890366000
0!
#890645291
1!
#890882125
0!
#892190958
1!
#892427208
0!
#893727958
1!
#893965333
0!
#894252583
1!
#894488333
0!
#895789250
1!
#896026208
0!
#896315583
1!
#896551458
0!
#896828375
1!
#897066166
0!
#898372958
1!
#898611916
0!
#898889541
1!
#899127875
0!
#900434708
1!
#900673000
0!
#900951583
1!
#901189583
0!
#902496500
1!
#902735583
0!
#904032208
1!
#904269791
0!
#904569125
1!
#904806791
0!
#906106250
1!
#906344291
0!
#906630166
1!
#906866125
0!
#907146416
1!
#907383083
0!
#908691125
1!
#908927916
0!
#909207541
1!
#909444541
0!
#910754125
1!
#910992791
0!
#912289333
1!
#912525875
0!
#912814916
1!
#913051166
0!
#913330833
1!
#913568791
0!
#914876416
1!
#915112291
0!
#915392958
1!
#915628666
0!
#916937375
1!
#917175166
0!
#917453666
1!
#917691208
0!
#919000291
1!
#919237750
0!
#919515791
1!
#919752250
0!
#921053125
1!
#921285833
0!
#930671333
1!
#930908875
0!
#933518166
1!
#933758125
0!
#934034125
1!
#934273333
0!
#935580458
1!
#935820125
0!
#937117375
1!
#937357125
0!
#937643125
1!
#937881333
0!
#939179083
1!
#939419833
0!
#939704583
1!
#939943750
0!
#941242375
1!
#941481750
0!
#941767333
1!
#942006375
0!
#942283625
1!
#942520750
0!
#943829666
1!
#944066500
0!
#945364791
1!
#945605166
0!
#945891791
1!
#946129208
0!
#947427083
1!
#947664791
0!
#947950583
1!
#948187666
0!
#948467791
1!
#948704541
0!
#950024166
1!
#950265125
0!
#951562083
1!
#951800833
0!
#952088375
1!
#952326458
0!
#952603708
1!
#952842666
0!
#954149416
1!
#954388416
0!
#955686375
1!
#955926208
0!
#956213625
1!
#956451833
0!
#957747833
1!
#957986500
0!
#958273458
1!
#958511125
0!
#959809291
1!
#960049166
0!
#960334791
1!
#960573083
0!
#960851083
1!
#961090750
0!
#962395625
1!
#962635958
0!
#962912958
1!
#963149125
0!
#964458666
1!
#964695375
0!
#964974000
1!
#965210750
0!
#966532583
1!
#966769083
0!
#968065666
1!
#968305416
0!
#968590791
1!
#968828416
0!
#969107791
1!
#969345625
0!
#970653833
1!
#970891375
0!
#972190250
1!
#972427833
0!
#972716000
1!
#972953208
0!
#974251416
1!
#974490000
0!
#974776375
1!
#975012666
0!
#975292375
1!
#975531083
0!
#976837916
1!
#977074041
0!
#977353375
1!
#977590750
0!
#978898541
1!
#979136416
0!
#979414833
1!
#979652500
0!
#980960333
1!
#981197750
0!
#982497375
1!
#982735458
0!
#983033166
1!
#983270958
0!
#984569666
1!
#984808291
0!
#985094916
1!
#985334833
0!
#985610333
1!
#985848000
0!
#987156166
1!
#987393291
0!
#987671666
1!
#987908250
0!
#989217000
1!
#989455291
0!
#990755500
1!
#990993666
0!
#991280208
1!
#991516625
0!
#991796833
1!
#992033750
0!
#993341958
1!
#993579791
0!
#993857958
1!
#994095625
0!
#995403500
1!
#995641291
0!
#995920000
1!
#996156458
0!
#997463916
1!
#997700416
0!
#997980500
1!
#998217958
0!
#999515833
1!
#999748250
0!
#1009134250
1!
#1009372250
0!
#1011981416
1!
#1012221208
0!
#1012498208
1!
#1012737125
0!
#1014044041
1!
#1014282041
0!
#1015581416
1!
#1015819250
0!
#1016108541
1!
#1016347416
0!
#1017642500
1!
#1017881541
0!
#1018168166
1!
#1018408333
0!
#1019704833
1!
#1019944791
0!
#1020230791
1!
#1020468166
0!
#1020747625
1!
#1020987208
0!
#1022294583
1!
#1022533791
0!
#1023832791
1!
#1024069916
0!
#1024357375
1!
#1024597000
0!
#1025895500
1!
#1026135291
0!
#1026422583
1!
#1026661958
0!
#1026937083
1!
#1027177208
0!
#1028493583
1!
#1028733666
0!
#1030032166
1!
#1030270708
0!
#1030557666
1!
#1030794833
0!
#1031074708
1!
#1031312125
0!
#1032620666
1!
#1032858333
0!
#1034156750
1!
#1034397125
0!
#1034682666
1!
#1034920875
0!
#1036220958
1!
#1036459166
0!
#1036744666
1!
#1036985291
0!
#1038281416
1!
#1038520375
0!
#1038808083
1!
#1039047083
0!
#1039323291
1!
#1039562541
0!
#1040870166
1!
#1041108708
0!
#1041386083
1!
#1041623833
0!
#1042932250
1!
#1043171125
0!
#1043448958
1!
#1043686458
0!
#1045006250
1!
#1045244458
0!
#1046544916
1!
#1046782250
0!
#1047069500
1!
#1047306000
0!
#1047585333
1!
#1047823875
0!
#1049132375
1!
#1049370000
0!
#1050671125
1!
#1050908125
0!
#1051196208
1!
#1051434750
0!
#1052734291
1!
#1052970958
0!
#1053259666
1!
#1053494750
0!
#1053775666
1!
#1054011125
0!
#1055322291
1!
#1055559916
0!
#1055838708
1!
#1056076750
0!
#1057383583
1!
#1057620166
0!
#1057900166
1!
#1058138166
0!
#1059445375
1!
#1059683000
0!
#1060983166
1!
#1061219875
0!
#1061519125
1!
#1061757625
0!
#1063056708
1!
#1063294125
0!
#1063582250
1!
#1063818083
0!
#1064099833
1!
#1064335916
0!
#1065645500
1!
#1065882458
0!
#1066162791
1!
#1066399583
0!
#1067708250
1!
#1067944083
0!
#1069245458
1!
#1069483708
0!
#1069770833
1!
#1070007375
0!
#1070288208
1!
#1070525666
0!
#1071835250
1!
#1072073208
0!
#1072351333
1!
#1072589291
0!
#1073897625
1!
#1074136125
0!
#1074413750
1!
#1074652500
0!
#1075961916
1!
#1076200291
0!
#1076479583
1!
#1076716916
0!
#1078012750
1!
#1078247833
0!
#1087632958
1!
#1087871541
0!
#1090480750
1!
#1090720375
0!
#1090996791
1!
#1091236125
0!
#1092543500
1!
#1092781583
0!
#1094080083
1!
#1094318833
0!
#1094604916
1!
#1094843875
0!
