arduino/data/2_on.vcd
$timescale 1 ns $end
$scope module top $end
$var wire 1 ! Channel_0 $end
$upscope $end
$enddefinitions $end
#0
0!
#1286625
1!
#1525291
0!
#1810291
1!
#2048875
0!
#3344875
1!
#3582750
0!
#3869833
1!
#4107875
0!
#5404208
1!
#5641875
0!
#5929791
1!
#6167208
0!
#6445375
1!
#6682875
0!
#7989166
1!
#8226958
0!
#9523083
1!
#9759833
0!
#10047250
1!
#10283125
0!
#11582625
1!
#11820166
0!
#12107166
1!
#12345291
0!
#12623166
1!
#12859291
0!
#14177833
1!
#14414458
0!
#15711875
1!
#15946875
0!
#16235583
1!
#16471708
0!
#16752500
1!
#16990416
0!
#18297041
1!
#18532083
0!
#19827958
1!
#20065583
0!
#20352833
1!
#20589000
0!
#21886416
1!
#22122541
0!
#22411250
1!
#22648291
0!
#23945958
1!
#24182625
0!
#24470083
1!
#24705666
0!
#24985208
1!
#25222458
0!
#26527708
1!
#26763083
0!
#27043500
1!
#27279875
0!
#28588750
1!
#28823416
0!
#29102333
1!
#29338458
0!
#30656208
1!
#30893666
0!
#32191625
1!
#32427958
0!
#32716541
1!
#32953000
0!
#33232041
1!
#33469000
0!
#34774708
1!
#35010666
0!
#36309083
1!
#36547500
0!
#36833916
1!
#37071750
0!
#38371375
1!
#38606833
0!
#38895541
1!
#39132750
0!
#39408625
1!
#39646041
0!
#40951958
1!
#41190000
0!
#41468250
1!
#41703583
0!
#43011833
1!
#43248416
0!
#43527666
1!
#43763750
0!
#45070958
1!
#45310083
0!
#46605708
1!
#46843500
0!
#47142833
1!
#47378833
0!
#48679958
1!
#48917458
0!
#49201708
1!
#49437708
0!
#49717125
1!
#49955916
0!
#51260291
1!
#51497375
0!
#51776625
1!
#52014416
0!
#53321583
1!
#53558333
0!
#54855583
1!
#55091750
0!
#55380708
1!
#55618166
0!
#55896125
1!
#56132166
0!
#57440375
1!
#57677375
0!
#57955291
1!
#58192916
0!
#59499166
1!
#59735791
0!
#60015083
1!
#60252416
0!
#61557958
1!
#61791208
0!
#63093333
1!
#63330208
0!
#63608333
1!
#63842041
0!
#73209166
1!
#73446000
0!
#76048166
1!
#76287791
0!
#76563458
1!
#76801833
0!
#78109750
1!
#78346458
0!
#79641250
1!
#79880916
0!
#80166458
1!
#80405166
0!
#81701708
1!
#81940791
0!
#82226541
1!
#82465500
0!
#83763041
1!
#84001291
0!
#84286666
1!
#84526250
0!
#84803583
1!
#85042458
0!
#86347500
1!
#86586333
0!
#87882125
1!
#88119000
0!
#88410375
1!
#88647875
0!
#89941750
1!
#90180083
0!
#90466791
1!
#90704416
0!
#90982291
1!
#91220500
0!
#92538083
1!
#92776291
0!
#94070708
1!
#94308958
0!
#94594541
1!
#94833916
0!
#95109625
1!
#95346750
0!
#96651291
1!
#96889333
0!
#98184125
1!
#98421666
0!
#98708333
1!
#98944166
0!
#100237875
1!
#100475208
0!
#100761333
1!
#100999333
0!
#102294291
1!
#102533333
0!
#102817958
1!
#103054666
0!
#103333541
1!
#103571083
0!
#104874250
1!
#105111375
0!
#105388625
1!
#105625583
0!
#106931125
1!
#107167125
0!
#107445708
1!
#107680333
0!
#108997125
1!
#109233833
0!
#110527750
1!
#110766250
0!
#111051958
1!
#111288458
0!
#111566416
1!
#111802875
0!
#113106916
1!
#113342458
0!
#114638208
1!
#114874750
0!
#115161333
1!
#115398416
0!
#116692333
1!
#116928750
0!
#117216875
1!
#117453916
0!
#117731333
1!
#117968041
0!
#119272000
1!
#119507833
0!
#119786041
1!
#120023083
0!
#121326250
1!
#121562458
0!
#121841041
1!
#122078625
0!
#123382000
1!
#123619208
0!
#124914375
1!
#125151041
0!
#125449250
1!
#125686791
0!
#126979750
1!
#127215708
0!
#127503958
1!
#127739666
0!
#128019291
1!
#128254875
0!
#129557833
1!
#129794083
0!
#130072291
1!
#130308041
0!
#131612833
1!
#131848916
0!
#133145208
1!
#133382208
0!
#133668458
1!
#133905541
0!
#134182916
1!
#134420083
0!
#135723250
1!
#135959958
0!
#136237958
1!
#136474083
0!
#137777791
1!
#138014208
0!
#138294083
1!
#138528500
0!
#139832375
1!
#140068916
0!
#141363541
1!
#141599750
0!
#141878583
1!
#142110291
0!
#151460333
1!
#151696791
0!
#154297166
1!
#154536791
0!
#154811458
1!
#155049916
0!
#156351458
1!
#156589791
0!
#157882500
1!
#158121791
0!
#158407000
1!
#158643333
0!
#159937041
1!
#160174708
0!
#160459666
1!
#160697541
0!
#161991625
1!
#162227875
0!
#162514500
1!
#162753500
0!
#163029875
1!
#163267250
0!
#164570541
1!
#164807750
0!
#166101708
1!
#166338583
0!
#166626250
1!
#166863958
0!
#168158583
1!
#168395875
0!
#168682500
1!
#168917208
0!
#169194916
1!
#169433708
0!
#170746250
1!
#170983708
0!
#172278000
1!
#172515208
0!
#172801833
1!
#173039250
0!
#173317083
1!
#173553875
0!
#174858208
1!
#175095458
0!
#176387916
1!
#176624791
0!
#176912583
1!
#177148916
0!
#178444166
1!
#178679666
0!
#178965791
1!
#179202250
0!
#180496041
1!
#180733500
0!
#181018958
1!
#181255416
0!
#181533958
1!
#181770583
0!
#183073708
1!
#183310583
0!
#183589208
1!
#183825500
0!
#185127875
1!
#185364625
0!
#185643541
1!
#185880166
0!
#187193875
1!
#187431375
0!
#188726166
1!
#188959791
0!
#189248375
1!
#189482833
0!
#189761833
1!
#189998041
0!
#191301958
1!
#191538000
0!
#192833416
1!
#193070208
0!
#193356250
1!
#193592875
0!
#194888041
1!
#195126000
0!
#195411500
1!
#195647708
0!
#195926333
1!
#196161500
0!
#197466708
1!
#197703125
0!
#197982916
1!
#198218958
0!
#199521333
1!
#199758041
0!
#200035541
1!
#200270416
0!
#201575666
1!
#201812375
0!
#203106625
1!
#203343041
0!
#203641833
1!
#203877166
0!
#205172500
1!
#205407791
0!
#205695916
1!
#205931875
0!
#206210458
1!
#206444875
0!
#207749958
1!
#207985875
0!
#208266916
1!
#208502125
0!
#209804625
1!
#210040291
0!
#211335541
1!
#211572000
0!
#211859125
1!
#212094875
0!
#212373458
1!
#212609916
0!
#213914708
1!
#214148875
0!
#214428958
1!
#214662833
0!
#215968041
1!
#216202791
0!
#216483333
1!
#216718750
0!
#218024291
1!
#218260166
0!
#219554416
1!
#219789708
0!
#220068708
1!
#220301833
0!
#229652958
1!
#229891125
0!
#232489916
1!
#232729541
0!
#233005000
1!
#233242958
0!
#234546416
1!
#234784083
0!
#236077000
1!
#236315750
0!
#236601750
1!
#236838000
0!
#238133625
1!
#238371625
0!
#238657416
1!
#238892625
0!
#240187000
1!
#240425958
0!
#240710541
1!
#240947250
0!
#241224541
1!
#241461916
0!
#242764083
1!
#243000875
0!
#244294000
1!
#244531958
0!
#244816916
1!
#245054708
0!
#246347958
1!
#246585250
0!
#246871125
1!
#247106958
0!
#247385000
1!
#247621708
0!
#248936041
1!
#249172333
0!
#250465166
1!
#250701583
0!
#250989000
1!
#251225083
0!
#251503250
1!
#251740958
0!
#253043458
1!
#253279291
0!
#254574000
1!
#254809916
0!
#255097083
1!
#255332833
0!
#256627625
1!
#256864166
0!
#257150833
1!
#257387416
0!
#258682916
1!
#258917708
0!
#259203958
1!
#259441125
0!
#259717875
1!
#259954000
0!
#261259000
1!
#261495166
0!
#261772916
1!
#262008583
0!
#263313166
1!
#263549458
0!
#263828125
1!
#264063750
0!
#265379458
1!
#265615000
0!
#266911833
1!
#267148708
0!
#267435625
1!
#267671541
0!
#267951083
1!
#268188750
0!
#269491208
1!
#269728208
0!
#271022250
1!
#271257375
0!
#271546791
1!
#271782583
0!
#273078375
1!
#273313833
0!
#273602875
1!
#273838750
0!
#274117583
1!
#274353791
0!
#275658708
1!
#275894875
0!
#276173916
1!
#276408708
0!
#277713500
1!
#277949125
0!
#278230541
1!
#278464291
0!
#279767500
1!
#280002625
0!
#281298458
1!
#281535000
0!
#281833125
1!
#282069500
0!
#283364625
1!
#283599583
0!
#283888458
1!
#284123458
0!
#284402500
1!
#284638250
0!
#285943083
1!
#286177583
0!
#286457166
1!
#286692416
0!
#287998208
1!
#288233083
0!
#289528125
1!
#289763541
0!
#290051208
1!
#290287041
0!
#290566916
1!
#290802375
0!
#292108166
1!
#292343291
0!
#292622666
1!
#292857333
0!
#294163958
1!
#294399583
0!
#294678250
1!
#294913541
0!
#296219041
1!
#296453208
0!
#297750583
1!
#297986083
0!
#298266250
1!
#298498250
0!
#307850458
1!
#308088083
0!
#310687708
1!
#310925166
0!
#311203583
1!
#311441125
0!
#312745000
1!
#312982250
0!
#314278250
1!
#314515541
0!
#314801625
1!
#315038333
0!
#316334750
1!
#316572833
0!
#316858583
1!
#317095458
0!
#318392000
1!
#318629875
0!
#318916041
1!
#319152166
0!
#319430166
1!
#319667333
0!
#320971000
1!
#321208458
0!
#322504583
1!
#322742458
0!
#323028708
1!
#323267666
0!
#324562458
1!
#324799375
0!
#325086583
1!
#325324000
0!
#325601250
1!
#325837708
0!
#327153791
1!
#327390083
0!
#328684875
1!
#328921000
0!
#329208916
1!
#329445875
0!
#329723416
1!
#329961458
0!
#331264750
1!
#331500958
0!
#332797250
1!
#333033375
0!
#333320583
1!
#333556916
0!
#334852916
1!
#335088125
0!
#335375708
1!
#335612125
0!
#336908375
1!
#337145250
0!
#337432458
1!
#337669041
0!
#337947916
1!
#338181791
0!
#339487291
1!
#339722666
0!
#340001333
1!
#340237125
0!
#341542500
1!
#341779083
0!
#342056625
1!
#342293875
0!
#343609666
1!
#343845041
0!
#345142875
1!
#345378666
0!
#345666666
1!
#345901583
0!
#346181250
1!
#346416208
0!
#347723291
1!
#347960416
0!
#349255541
1!
#349491500
0!
#349779583
1!
#350014416
0!
#351312250
1!
#351548791
0!
#351836791
1!
#352072125
0!
#352352291
1!
#352587750
0!
#353894791
1!
#354129833
0!
#354410458
1!
#354645958
0!
#355951250
1!
#356187000
0!
#356467083
1!
#356701333
0!
#358010416
1!
#358247291
0!
#359540875
1!
#359776208
0!
#360076083
1!
#360311958
0!
#361608375
1!
#361844291
0!
#362132541
1!
#362367041
0!
#362647750
1!
#362883375
0!
#364188750
1!
#364423416
0!
#364704166
1!
#364938708
0!
#366244750
1!
#366479500
0!
#367777166
1!
#368012333
0!
#368302000
1!
#368537416
0!
#368815333
1!
#369049291
0!
#370356208
1!
#370591625
0!
#370870875
1!
#371105791
0!
#372412291
1!
#372646458
0!
#372927083
1!
#373162500
0!
#374467625
1!
#374703458
0!
#376000125
1!
#376236166
0!
#376514375
1!
#376746583
0!
#386103750
1!
#386338083
0!
#388938833
1!
#389176250
0!
#389453625
1!
#389690250
0!
#390994083
1!
#391231958
0!
#392526625
1!
#392763541
0!
#393051000
1!
#393288000
0!
#394582500
1!
#394819750
0!
#395106750
1!
#395343291
0!
#396639666
1!
#396876166
0!
#397163291
1!
#397400708
0!
#397678291
1!
#397917416
0!
#399219333
1!
#399454666
0!
#400751291
1!
#400988250
0!
#401274583
1!
#401511750
0!
#402807541
1!
#403045833
0!
#403332250
1!
#403569208
0!
#403846958
1!
#404083250
0!
#405399750
1!
#405634250
0!
#406931208
1!
#407167166
0!
#407454875
1!
#407689666
0!
#407970916
1!
#408208958
0!
#409510333
1!
#409746625
0!
#411043666
1!
#411280625
0!
#411567625
1!
#411804708
0!
#413101333
1!
#413337708
0!
#413625750
1!
#413861791
0!
#415157500
1!
#415392666
0!
#415682083
1!
#415918000
0!
#416197083
1!
#416433166
0!
#417739625
1!
#417978333
0!
#418255666
1!
#418491625
0!
#419796166
1!
#420032250
0!
#420311500
1!
#420547625
0!
#421864875
1!
#422100958
0!
#423398541
1!
#423634250
0!
#423922916
1!
#424158125
0!
#424437625
1!
#424672750
0!
#425980083
1!
#426217083
0!
#427512625
1!
#427746583
0!
#428039125
1!
#428273166
0!
#429569083
1!
#429805250
0!
#430092708
1!
#430327916
0!
#430607916
1!
#430843750
0!
#432148750
1!
#432384958
0!
#432664166
1!
#432898500
0!
#434204583
1!
#434441375
0!
#434719958
1!
#434954916
0!
#436261875
1!
#436497125
0!
#437794791
1!
#438030791
0!
#438331000
1!
#438564791
0!
#439861208
1!
#440097666
0!
#440385333
1!
#440621208
0!
#440900625
1!
#441135708
0!
#442442291
1!
#442678833
0!
#442957541
1!
#443190791
0!
#444498666
1!
#444734291
0!
#446032166
1!
#446267541
0!
#446556291
1!
#446790708
0!
#447070916
1!
#447307875
0!
#448613875
1!
#448849458
0!
#449129166
1!
#449364291
0!
#450670375
1!
#450906083
0!
#451186083
1!
#451420916
0!
#452729791
1!
#452964666
0!
#454262375
1!
#454496541
0!
#454777541
1!
#455009666
0!
#464374791
1!
#464609875
0!
#467214375
1!
#467451625
0!
#467730625
1!
#467968625
0!
#469272416
1!
#469509666
0!
#470805583
1!
#471042416
0!
#471329625
1!
#471566666
0!
#472863583
1!
#473102375
0!
#473387916
1!
#473624750
0!
#474922041
1!
#475159666
0!
#475445666
1!
#475684625
0!
#475961500
1!
#476199250
0!
#477504875
1!
#477741750
0!
#479037333
1!
#479273375
0!
#479562416
1!
#479799125
0!
#481096166
1!
#481334583
0!
#481621375
1!
#481857500
0!
#482137375
1!
#482374250
0!
#483692083
1!
#483927875
0!
#485226541
1!
#485464375
0!
#485750791
1!
#485988958
0!
#486266041
1!
#486501500
0!
#487810458
1!
#488046916
0!
#489341750
1!
#489577125
0!
#489866625
1!
#490102750
0!
#491399750
1!
#491636750
0!
#491924166
1!
#492159250
0!
#493457791
1!
#493695208
0!
#493982625
1!
#494218166
0!
#494497958
1!
#494733125
0!
#496040333
1!
#496277166
0!
#496555916
1!
#496791541
0!
#498101166
1!
#498336875
0!
#498614208
1!
#498849416
0!
#500167875
1!
#500403625
0!
#501702041
1!
#501938416
0!
#502226583
1!
#502462875
0!
#502743041
1!
#502979125
0!
#504285666
1!
#504522125
0!
#505820333
1!
#506056000
0!
#506344791
1!
#506579708
0!
#507880333
1!
#508115083
0!
#508405500
1!
#508637583
0!
#508918500
1!
#509152958
0!
#510459875
1!
#510696375
0!
#510975833
1!
#511211791
0!
#512518791
1!
#512755541
0!
#513034208
1!
#513269791
0!
#514577500
1!
#514814166
0!
#516110083
1!
#516345375
0!
#516645583
1!
#516880500
0!
#518180500
1!
#518417541
0!
#518702250
1!
#518938500
0!
#519218000
1!
#519454291
0!
#520759250
1!
#520995041
0!
#521274666
1!
#521510000
0!
#522818375
1!
#523054041
0!
#524351458
1!
#524587666
0!
#524876916
1!
#525114000
0!
#525391416
1!
#525626833
0!
#526934208
1!
#527169208
0!
#527449416
1!
#527685083
0!
#528990333
1!
#529226416
0!
#529505916
1!
#529741625
0!
#531047958
1!
#531282541
0!
#532581375
1!
#532817208
0!
#533096458
1!
#533327916
0!
#542688666
1!
#542925541
0!
#545526708
1!
#545765791
0!
#546043041
1!
#546279666
0!
#547584750
1!
#547824041
0!
#549117083
1!
#549353166
0!
#549641291
1!
#549877208
0!
#551174500
1!
#551411958
0!
#551698791
1!
#551935166
0!
#553232416
1!
#553471041
0!
#553756958
1!
#553993000
0!
#554271916
1!
#554508375
0!
#555814375
1!
#556051833
0!
#557347833
1!
#557584500
0!
#557873833
1!
#558109541
0!
#559403958
1!
#559640916
0!
#559928791
1!
#560165750
0!
#560443250
1!
#560680541
0!
#561996500
1!
#562232208
0!
#563529708
1!
#563765625
0!
#564053541
1!
#564290291
0!
#564569291
1!
#564805708
0!
#566111625
1!
#566348083
0!
#567644958
1!
#567883083
0!
#568172250
1!
#568408291
0!
#569702375
1!
#569939041
0!
#570227083
1!
#570464125
0!
#571761416
1!
#571998791
0!
#572285375
1!
#572522041
0!
#572802000
1!
#573037708
0!
#574344500
1!
#574580250
0!
#574859250
1!
#575094916
0!
#576402000
1!
#576639416
0!
#576916916
1!
#577152041
0!
#578470458
1!
#578705708
0!
#580001375
1!
#580239708
0!
#580525875
1!
#580762125
0!
#581041583
1!
#581277541
0!
#582584375
1!
#582821541
0!
#584121083
1!
#584358166
0!
#584645708
1!
#584884000
0!
#586181958
1!
#586417750
0!
#586706875
1!
#586944250
0!
#587223000
1!
#587458833
0!
#588768666
1!
#589005000
0!
#589285000
1!
#589520833
0!
#590829250
1!
#591064375
0!
#591346041
1!
#591582708
0!
#592891666
1!
#593128500
0!
#594427791
1!
#594663958
0!
#594964958
1!
#595200708
0!
#596500833
1!
#596735833
0!
#597026041
1!
#597261958
0!
#597542333
1!
#597778375
0!
#599086541
1!
#599320708
0!
#599603125
1!
#599838291
0!
#601147791
1!
#601385750
0!
#602683583
1!
#602918375
0!
#603209083
1!
#603446125
0!
#603724375
1!
#603959583
0!
#605269916
1!
#605506166
0!
#605785750
1!
#606021291
0!
#607329958
1!
#607564041
0!
#607848666
1!
#608083833
0!
#609390416
1!
#609625125
0!
#610925708
1!
#611161000
0!
#611441625
1!
#611675166
0!
#621047458
1!
#621283166
0!
#623891458
1!
#624129958
0!
#624407458
1!
#624644916
0!
#625952666
1!
#626189291
0!
#627488833
1!
#627725833
0!
#628015041
1!
#628250333
0!
#629548250
1!
#629785250
0!
#630072750
1!
#630309041
0!
#631607083
1!
#631843875
0!
#632132291
1!
#632370583
0!
#632648041
1!
#632885250
0!
#634192000
1!
#634429000
0!
#635727000
1!
#635964791
0!
#636252125
1!
#636488416
0!
#637789416
1!
#638027208
0!
#638313791
1!
#638548583
0!
#638828458
1!
#639065750
0!
#640383416
1!
#640622208
0!
#641918458
1!
#642156208
0!
#642444416
1!
#642681000
0!
#642960333
1!
#643198250
0!
#644504125
1!
#644741500
0!
#646040250
1!
#646278291
0!
#646564708
1!
#646801833
0!
#648101750
1!
#648337833
0!
#648624458
1!
#648860958
0!
#650158833
1!
#650395083
0!
#650684000
1!
#650920458
0!
#651199708
1!
#651436833
0!
#652744875
1!
#652980041
0!
#653259916
1!
#653496208
0!
#654803250
1!
#655040416
0!
#655319666
1!
#655556958
0!
#656874125
1!
#657111958
0!
#658408750
1!
#658644833
0!
#658933875
1!
#659170625
0!
#659448958
1!
#659685750
0!
#660992916
1!
#661228125
0!
#662529458
1!
#662766625
0!
#663053666
1!
#663289875
0!
#664590166
1!
#664826166
0!
#665115208
1!
#665351166
0!
#665631208
1!
#665866458
0!
#667175833
1!
#667412000
0!
#667692750
1!
#667928875
0!
#669236041
1!
#669472458
0!
#669752041
1!
#669990125
0!
#671296583
1!
#671532125
0!
#672833333
1!
#673069125
0!
#673369541
1!
#673606625
0!
#674904916
1!
#675140166
0!
#675430833
1!
#675667041
0!
#675946291
1!
#676183708
0!
#677490291
1!
#677727375
0!
#678008791
1!
#678244708
0!
#679550791
1!
#679788458
0!
#681086250
1!
#681323166
0!
#681611250
1!
#681848458
0!
#682127375
1!
#682364583
0!
#683672541
1!
#683908666
0!
#684189125
1!
#684425750
0!
#685732625
1!
#685969416
0!
#686249375
1!
#686485916
0!
#687795708
1!
#688031541
0!
#689329291
1!
#689567250
0!
#689846000
1!
#690079625
0!
#699454583
1!
#699691250
0!
#702296625
1!
#702536500
0!
#702812125
1!
#703049333
0!
#704357125
1!
#704593791
0!
#705891833
1!
#706130750
0!
#706417375
1!
#706654125
0!
#707954750
1!
#708192291
0!
#708477791
1!
#708714750
0!
#710012625
1!
#710251333
0!
#710537041
1!
#710774583
0!
#711053583
1!
#711290500
0!
#712598791
1!
#712835583
0!
#714131791
1!
#714368583
0!
#714657166
1!
#714894250
0!
#716191875
1!
#716430875
0!
#716716625
1!
#716953666
0!
#717232541
1!
#717469958
0!
#718787083
1!
#719024666
0!
#720320333
1!
#720558208
0!
#720845500
1!
#721081416
0!
#721360708
1!
#721598291
0!
#722905208
1!
#723142125
0!
#724439833
1!
#724676500
0!
#724963666
1!
#725201375
0!
#726499333
1!
#726737458
0!
#727023875
1!
#727261000
0!
#728558708
1!
#728795041
0!
#729082708
1!
#729320416
0!
#729598708
1!
#729834291
0!
#731143791
1!
#731380958
0!
#731659083
1!
#731896208
0!
#733203500
1!
#733440125
0!
#733719750
1!
#733957041
0!
#735274666
1!
#735510625
0!
#736810250
1!
#737046000
0!
#737334875
1!
#737572291
0!
#737852750
1!
#738087250
0!
#739394416
1!
#739630541
0!
#740929791
1!
#741165916
0!
#741454625
1!
#741690500
0!
#742990208
1!
#743226333
0!
#743514791
1!
#743752083
0!
#744031708
1!
#744266583
0!
#745575041
1!
#745812291
0!
#746090625
1!
#746327166
0!
#747637125
1!
#747873125
0!
#748152958
1!
#748387333
0!
#749694750
1!
#749931250
0!
#751230083
1!
#751466458
0!
#751765666
1!
#752001583
0!
#753301375
1!
#753537250
0!
#753826041
1!
#754061291
0!
#754341875
1!
#754578125
0!
#755886583
1!
#756122958
0!
#756401958
1!
#756638125
0!
#757948500
1!
#758183541
0!
#759481125
1!
#759716041
0!
#760005625
1!
#760241583
0!
#760520958
1!
#760756125
0!
#762064416
1!
#762300791
0!
#762580250
1!
#762816208
0!
#764124500
1!
#764359916
0!
#764639875
1!
#764876833
0!
#766184458
1!
#766421375
0!
#767721500
1!
#767958458
0!
#768237125
1!
#768468666
0!
#777848541
1!
#778085708
0!
#780690208
1!
#780929541
0!
#781206375
1!
#781442333
0!
#782751000
1!
#782990791
0!
#784285166
1!
#784524333
0!
#784810166
1!
#785047541
0!
#786344083
1!
#786585250
0!
#786868250
1!
#787106333
0!
#788403083
1!
#788640958
0!
#788926625
1!
#789164625
0!
#789442375
1!
#789680083
0!
#790985541
1!
#791223791
0!
#792520708
1!
#792758708
0!
#793045500
1!
#793282708
0!
#794579041
1!
#794816875
0!
#795103833
1!
#795342166
0!
#795342208
1!
#795342250
0!
#795619625
1!
#795858250
0!
#797174000
1!
#797410166
0!
#798707666
1!
#798946083
0!
#799231250
1!
#799468958
0!
#799745875
1!
#799982708
0!
#801289166
1!
#801527166
0!
#802823791
1!
#803060083
0!
#803348333
1!
#803584750
0!
#804882333
1!
#805119708
0!
#805407291
1!
#805643000
0!
#806941458
1!
#807179083
0!
#807465875
1!
#807703250
0!
#807984416
1!
#808220583
0!
#809523083
1!
#809759625
0!
#810038833
1!
#810273791
0!
#811581416
1!
#811819708
0!
#812096500
1!
#812332041
0!
#813649750
1!
#813885666
0!
#815181916
1!
#815419666
0!
#815706500
1!
#815942166
0!
#816221833
1!
#816458208
0!
#817765083
1!
#818000583
0!
#819296458
1!
#819533791
0!
#819820625
1!
#820058166
0!
#821353750
1!
#821587416
0!
#821878791
1!
#822114916
0!
#822393708
1!
#822630416
0!
#823936708
1!
#824173291
0!
#824452541
1!
#824689083
0!
#825993750
1!
#826228541
0!
#826509250
1!
#826745791
0!
#828053833
1!
#828288208
0!
#829584583
1!
#829819916
0!
#830120000
1!
#830356166
0!
#831652625
1!
#831887833
0!
#832178000
1!
#832412833
0!
#832692500
1!
#832927916
0!
#834234833
1!
#834470583
0!
#834750416
1!
#834986958
0!
#836293750
1!
#836529125
0!
#837829000
1!
#838064541
0!
#838351208
1!
#838586458
0!
#838865500
1!
#839100000
0!
#840407250
1!
#840641333
0!
#840921541
1!
#841156958
0!
#842465333
1!
#842700166
0!
#842980375
1!
#843217166
0!
#844522291
1!
#844758458
0!
#846055666
1!
#846291833
0!
#846570541
1!
#846803000
0!
#856167291
1!
#856404500
0!
#859005250
1!
#859244208
0!
#859520708
1!
#859758166
0!
#861062666
1!
#861300833
0!
#862596166
1!
#862833083
0!
#863120583
1!
#863359666
0!
#864653541
1!
#864892125
0!
#865178083
1!
#865416166
0!
#866711166
1!
#866950958
0!
#867235250
1!
#867474916
0!
#867753541
1!
#867991875
0!
#869292916
1!
#869531625
0!
#870826166
1!
#871063333
0!
#871351375
1!
#871589291
0!
#872884333
1!
#873122708
0!
#873409375
1!
#873646833
0!
#873924250
1!
#874163666
0!
#875477583
1!
#875714750
0!
#877010750
1!
#877250375
0!
#877536916
1!
#877775125
0!
#878052041
1!
#878287250
0!
#879590625
1!
#879828458
0!
#881122458
1!
#881360083
0!
#881647458
1!
#881885291
0!
#883180958
1!
#883419708
0!
#883705416
1!
#883942500
0!
#885239291
1!
#885476250
0!
#885762916
1!
#885999416
0!
#886279583
1!
#886516083
0!
#887823625
1!
#888061375
0!
#888336958
1!
#888572416
0!
#889879291
1!
#890115791
0!
#890394166
1!
#890630750
0!
#891948750
1!
#892185958
0!
#893482625
1!
#893720625
0!
#894007083
1!
#894244291
0!
#894523625
1!
#894761833
0!
#896065625
1!
#896302916
0!
#897602166
1!
#897837958
0!
#898125916
1!
#898363583
0!
#899656375
1!
#899892125
0!
#900180875
1!
#900417958
0!
#900695583
1!
#900931583
0!
#902237083
1!
#902472791
0!
#902752208
1!
#902990750
0!
#904293416
1!
#904529666
0!
#904809041
1!
#905045750
0!
#906350083
1!
#906588625
0!
#907885500
1!
#908120916
0!
#908418500
1!
#908654625
0!
#909950291
1!
#910185291
0!
#910474708
1!
#910710625
0!
#910989333
1!
#911225791
0!
#912531208
1!
#912767500
0!
#913046416
1!
#913282500
0!
#914587583
1!
#914823541
0!
#916120916
1!
#916358041
0!
#916644875
1!
#916881458
0!
#917160833
1!
#917398458
0!
#918703500
1!
#918940875
0!
#919218333
1!
#919454458
0!
#920760666
1!
#920996708
0!
#921275875
1!
#921512125
0!
#922817500
1!
#923055250
0!
#924352000
1!
#924588541
0!
#924867250
1!
#925102291
0!
#934464666
1!
#934700041
0!
#937302458
1!
#937542416
0!
#937819708
1!
#938058083
0!
#939358541
1!
#939598208
0!
#940890791
1!
#941128791
0!
#941414625
1!
#941653875
0!
#942947000
1!
#943184250
0!
#943471750
1!
#943709291
0!
#945003125
1!
#945241000
0!
#945527166
1!
#945764875
0!
#946042916
1!
#946281333
0!
#947585583
1!
#947820791
0!
#949114250
1!
#949352000
0!
#949637750
1!
#949874833
0!
#951170041
1!
#951407791
0!
#951693583
1!
#951930500
0!
#952208541
1!
#952444583
0!
#953761166
1!
#953997250
0!
#955293083
1!
#955528833
0!
#955817083
1!
#956052666
0!
#956332458
1!
#956568625
0!
#957875916
1!
#958111083
0!
#959405291
1!
#959643000
0!
#959929208
1!
#960167666
0!
#961462958
1!
#961700000
0!
#961987083
1!
#962225875
0!
#963520166
1!
#963758583
0!
#964045375
1!
#964282791
0!
#964560541
1!
#964797333
0!
#966101875
1!
#966338958
0!
#966617791
1!
#966855000
0!
#968161166
1!
#968397541
0!
#968674583
1!
#968911416
0!
#970228708
1!
#970465333
0!
#971762375
1!
#972001041
0!
#972287875
1!
#972524791
0!
#972802791
1!
#973039083
0!
#974346333
1!
#974582750
0!
#975880375
1!
#976118000
0!
#976405166
1!
#976642083
0!
#977941375
1!
#978175916
0!
#978463583
1!
#978701541
0!
#978977791
1!
#979213291
0!
#980519208
1!
#980757458
0!
#981033583
1!
#981270458
0!
#982577083
1!
#982814041
0!
#983091208
1!
#983328250
0!
#984634000
1!
#984870333
0!
#986166833
1!
#986403541
0!
#986702208
1!
#986936875
0!
#988235291
1!
#988471125
0!
#988759000
1!
#988996375
0!
#989274458
1!
#989509125
0!
#990816583
1!
#991053458
0!
#991331416
1!
#991567750
0!
#992873916
1!
#993108333
0!
#994407583
1!
#994643000
0!
#994930916
1!
#995167833
0!
#995446583
1!
#995681916
0!
#996987833
1!
#997225208
0!
#997505500
1!
#997735916
0!
#999044041
1!
#999280208
0!
#999557333
1!
#999793458
0!
#1001099791
1!
#1001335291
0!
#1002632291
1!
#1002868375
0!
#1003147208
1!
#1003378375
0!
#1012737583
1!
#1012974708
0!
#1015577166
1!
#1015813291
0!
#1016091083
1!
#1016329666
0!
#1017636333
1!
#1017868000
0!
#1019165833
1!
#1019404208
0!
#1019690375
1!
#1019928500
0!
#1021224916
1!
#1021463041
0!
#1021749041
1!
#1021988041
0!
#1023283041
1!
#1023520750
0!
#1023807166
1!
#1024046333
0!
#1024322875
1!
#1024560958
0!
#1025865666
1!
#1026103833
0!
#1027401958
1!
#1027633416
0!
#1027927583
1!
#1028159416
0!
#1029455750
1!
#1029692791
0!
#1029978541
1!
#1030216458
0!
#1030493666
1!
#1030731666
0!
#1032047958
1!
#1032285958
0!
#1033579750
1!
#1033816458
0!
#1034104291
1!
#1034340041
0!
#1034619333
1!
#1034854250
0!
#1036161375
1!
#1036395958
0!
#1037696583
1!
#1037926916
0!
#1038217750
1!
#1038455625
0!
#1039749125
1!
#1039987833
0!
#1040273541
1!
#1040512375
0!
#1041806541
1!
#1042043958
0!
#1042331166
1!
#1042568666
0!
#1042846416
1!
#1043083666
0!
#1044388416
1!
#1044626250
0!
#1044903625
1!
#1045140791
0!
#1046447458
1!
#1046683000
0!
#1046962875
1!
#1047196625
0!
#1048514583
1!
#1048753041
0!
#1050048166
1!
#1050284166
0!
#1050572333
1!
#1050809458
0!
#1051087291
1!
#1051322583
0!
#1052631416
1!
#1052863958
0!
#1054163083
1!
#1054396458
0!
#1054688375
1!
#1054920250
0!
#1056221125
1!
#1056455833
0!
#1056745541
1!
#1056978166
0!
#1057262875
1!
#1057492416
0!
#1058801791
1!
#1059037125
0!
#1059317125
1!
#1059553041
0!
#1060859041
1!
#1061094916
0!
#1061373708
1!
#1061607875
0!
#1062916666
1!
#1063151208
0!
#1064449791
1!
#1064685208
0!
#1064984666
1!
#1065219000
0!
#1066518375
1!
#1066752750
0!
#1067041916
1!
#1067273958
0!
#1067561416
1!
#1067785583
0!
#1069099708
1!
#1069333958
0!
#1069613458
1!
#1069849000
0!
#1071155541
1!
#1071391041
0!
#1072690625
1!
#1072924541
0!
#1073215500
1!
#1073447791
0!
#1073732708
1!
#1073965458
0!
#1075276583
1!
#1075510625
0!
#1075792583
1!
#1076025250
0!
#1077339500
1!
#1077568375
0!
#1077857750
1!
#1078084083
0!
#1079397291
1!
#1079633708
0!
#1080932333
1!
#1081169250
0!
#1081447291
1!
#1081679125
0!
#1091058333
1!
#1091296500
0!
#1093902291
1!
#1094136666
0!
#1094419000
1!
