arduino/data/3_off.vcd
$timescale 1 ns $end
$scope module top $end
$var wire 1 ! Channel_0 $end
$upscope $end
$enddefinitions $end
#0
0!
#7458333
1!
#7691000
0!
#10298333
1!
#10530958
0!
#10813583
1!
#11046250
0!
#12355666
1!
#12588416
0!
#13888041
1!
#14121250
0!
#14412041
1!
#14644291
0!
#15944750
1!
#16178416
0!
#16468875
1!
#16701000
0!
#18001666
1!
#18233958
0!
#18525416
1!
#18758750
0!
#19041041
1!
#19273750
0!
#20583250
1!
#20816125
0!
#22118458
1!
#22350833
0!
#22642916
1!
#22875833
0!
#24176958
1!
#24409708
0!
#24701250
1!
#24934208
0!
#25216750
1!
#25449958
0!
#26770916
1!
#27002750
0!
#28303791
1!
#28536375
0!
#28828041
1!
#29060541
0!
#29343416
1!
#29575416
0!
#30885125
1!
#31117875
0!
#32419291
1!
#32652333
0!
#32944333
1!
#33177458
0!
#34479250
1!
#34712666
0!
#35004833
1!
#35237416
0!
#36540750
1!
#36774458
0!
#37066083
1!
#37298291
0!
#37582458
1!
#37815416
0!
#39127416
1!
#39360625
0!
#39643666
1!
#39877000
0!
#41189375
1!
#41422625
0!
#41705000
1!
#41937416
0!
#43261458
1!
#43492958
0!
#44796583
1!
#45029416
0!
#45321583
1!
#45555083
0!
#45838333
1!
#46071416
0!
#47383541
1!
#47616750
0!
#48919333
1!
#49151958
0!
#49444875
1!
#49677125
0!
#50980333
1!
#51212958
0!
#51505708
1!
#51737750
0!
#52021708
1!
#52254875
0!
#53566500
1!
#53799583
0!
#54082916
1!
#54314250
0!
#55627416
1!
#55859541
0!
#56143625
1!
#56376416
0!
#57688583
1!
#57920916
0!
#59221708
1!
#59454041
0!
#59756791
1!
#59988875
0!
#61289708
1!
#61522541
0!
#61813708
1!
#62045208
0!
#62329666
1!
#62562000
0!
#63872000
1!
#64103166
0!
#64386750
1!
#64619333
0!
#65929916
1!
#66162250
0!
#66445208
1!
#66678291
0!
#67988666
1!
#68220333
0!
#68504416
1!
#68736625
0!
#70047583
1!
#70279500
0!
#70563208
1!
#70795166
0!
#72106458
1!
#72339041
0!
#73640250
1!
#73872541
0!
#74164958
1!
#74397166
0!
#74680291
1!
#74911708
0!
#76214666
1!
#76443416
0!
#85817958
1!
#86050541
0!
#88658625
1!
#88892416
0!
#89174375
1!
#89408791
0!
#90717083
1!
#90950041
0!
#92251250
1!
#92483666
0!
#92775291
1!
#93007750
0!
#94309083
1!
#94543416
0!
#94834125
1!
#95067333
0!
#96367750
1!
#96600833
0!
#96892458
1!
#97125500
0!
#97408000
1!
#97641000
0!
#98950875
1!
#99183625
0!
#100484708
1!
#100717958
0!
#101009291
1!
#101241916
0!
#102543375
1!
#102776625
0!
#103067750
1!
#103301166
0!
#103582916
1!
#103815291
0!
#105136666
1!
#105369791
0!
#106670125
1!
#106902583
0!
#107194458
1!
#107427250
0!
#107709833
1!
#107941541
0!
#109252041
1!
#109484416
0!
#110784416
1!
#111016625
0!
#111308250
1!
#111541750
0!
#112842666
1!
#113075000
0!
#113367000
1!
#113600000
0!
#114900500
1!
#115132750
0!
#115425291
1!
#115656958
0!
#115940500
1!
#116172500
0!
#117482458
1!
#117714666
0!
#117997750
1!
#118229958
0!
#119540000
1!
#119772833
0!
#120055083
1!
#120287916
0!
#121608291
1!
#121840625
0!
#123142416
1!
#123375458
0!
#123667375
1!
#123899458
0!
#124182875
1!
#124415041
0!
#125725333
1!
#125957541
0!
#127259041
1!
#127491458
0!
#127782916
1!
#128015625
0!
#129316791
1!
#129549291
0!
#129841166
1!
#130072916
0!
#130356000
1!
#130588458
0!
#131898500
1!
#132131208
0!
#132414833
1!
#132646041
0!
#133957333
1!
#134189333
0!
#134472625
1!
#134704333
0!
#136014750
1!
#136246291
0!
#137548000
1!
#137779666
0!
#138083791
1!
#138315458
0!
#139617583
1!
#139850708
0!
#140142208
1!
#140374250
0!
#140657041
1!
#140888875
0!
#142199541
1!
#142431583
0!
#142715083
1!
#142946666
0!
#144257625
1!
#144489875
0!
#144773125
1!
#145005166
0!
#146314708
1!
#146547416
0!
#146829958
1!
#147061708
0!
#148373083
1!
#148605416
0!
#148888750
1!
#149119458
0!
#150431541
1!
#150663500
0!
#151965375
1!
#152197833
0!
#152490416
1!
#152721958
0!
#153006041
1!
#153238708
0!
#154540291
1!
#154769083
0!
#164139041
1!
#164371166
0!
#166980375
1!
#167215125
0!
#167495791
1!
#167729416
0!
#169039875
1!
#169273250
0!
#170573458
1!
#170806625
0!
#171098166
1!
#171331416
0!
#172632000
1!
#172865666
0!
#173156708
1!
#173388958
0!
#174690083
1!
#174923000
0!
#175214458
1!
#175447458
0!
#175729416
1!
#175962666
0!
#177272708
1!
#177505625
0!
#178806750
1!
#179038833
0!
#179331541
1!
#179564041
0!
#180864750
1!
#181098125
0!
#181388916
1!
#181622416
0!
#181904833
1!
#182138125
0!
#183459833
1!
#183692875
0!
#184993958
1!
#185226541
0!
#185517833
1!
#185751208
0!
#186033750
1!
#186266291
0!
#187577166
1!
#187809458
0!
#189111541
1!
#189343833
0!
#189636333
1!
#189868625
0!
#191170458
1!
#191403250
0!
#191695000
1!
#191928291
0!
#193230458
1!
#193462291
0!
#193755125
1!
#193987041
0!
#194271125
1!
#194503666
0!
#195814125
1!
#196047250
0!
#196329500
1!
#196561625
0!
#197872666
1!
#198104791
0!
#198387875
1!
#198619958
0!
#199942833
1!
#200174666
0!
#201476791
1!
#201708833
0!
#202001291
1!
#202234125
0!
#202517083
1!
#202748625
0!
#204060458
1!
#204293416
0!
#205594458
1!
#205826916
0!
#206119166
1!
#206351666
0!
#207653166
1!
#207885833
0!
#208178291
1!
#208410458
0!
#208694083
1!
#208926750
0!
#210237083
1!
#210470500
0!
#210752750
1!
#210985500
0!
#212296458
1!
#212529166
0!
#212812250
1!
#213044916
0!
#214355166
1!
#214587291
0!
#215888875
1!
#216122166
0!
#216424875
1!
#216656583
0!
#217958875
1!
#218191375
0!
#218483041
1!
#218715541
0!
#218998333
1!
#219229875
0!
#220540791
1!
#220773208
0!
#221055916
1!
#221288791
0!
#222599375
1!
#222831083
0!
#223115041
1!
#223346333
0!
#224657458
1!
#224888875
0!
#225172708
1!
#225403750
0!
#226715166
1!
#226946666
0!
#227230500
1!
#227462500
0!
#228773541
1!
#229005583
0!
#230307500
1!
#230539958
0!
#230832750
1!
#231064583
0!
#231347833
1!
#231578833
0!
#232881125
1!
#233109375
0!
#242484541
1!
#242716750
0!
#245324625
1!
#245557125
0!
#245839875
1!
#246072041
0!
#247382666
1!
#247615958
0!
#248915208
1!
#249148375
0!
#249439958
1!
#249673708
0!
#250973750
1!
#251205791
0!
#251498000
1!
#251731333
0!
#253032750
1!
#253266083
0!
#253557208
1!
#253790125
0!
#254072666
1!
#254305166
0!
#255615666
1!
#255848500
0!
#257149333
1!
#257381500
0!
#257673500
1!
#257906666
0!
#259206541
1!
#259439458
0!
#259731250
1!
#259964458
0!
#260246083
1!
#260478625
0!
#261798750
1!
#262031250
0!
#263332500
1!
#263564458
0!
#263856708
1!
#264089000
0!
#264371791
1!
#264603833
0!
#265913000
1!
#266144708
0!
#267445833
1!
#267678791
0!
#267970125
1!
#268202333
0!
#269503291
1!
#269736750
0!
#270027875
1!
#270260708
0!
#271560583
1!
#271793875
0!
#272084708
1!
#272316708
0!
#272600666
1!
#272832791
0!
#274142458
1!
#274373916
0!
#274657250
1!
#274889541
0!
#276199166
1!
#276432083
0!
#276714333
1!
#276946333
0!
#278267416
1!
#278499291
0!
#279799625
1!
#280031541
0!
#280323333
1!
#280555208
0!
#280838791
1!
#281071083
0!
#282380833
1!
#282612791
0!
#283914708
1!
#284146583
0!
#284438625
1!
#284671625
0!
#285971291
1!
#286203791
0!
#286496083
1!
#286728208
0!
#287011291
1!
#287242000
0!
#288553333
1!
#288785958
0!
#289068500
1!
#289300458
0!
#290612583
1!
#290845041
0!
#291128291
1!
#291360166
0!
#292671625
1!
#292904000
0!
#294206791
1!
#294438541
0!
#294742208
1!
#294973833
0!
#296275541
1!
#296507666
0!
#296800250
1!
#297032583
0!
#297315500
1!
#297547791
0!
#298858666
1!
#299090041
0!
#299374291
1!
#299605625
0!
#300917333
1!
#301149791
0!
#301432791
1!
#301664791
0!
#302976500
1!
#303207833
0!
#303491958
1!
#303724416
0!
#305034541
1!
#305266875
0!
#305549541
1!
#305781875
0!
#307091791
1!
#307324416
0!
#308626375
1!
#308858875
0!
#309150666
1!
#309382750
0!
#309666416
1!
#309897833
0!
#311198916
1!
#311428500
0!
#320806916
1!
#321038500
0!
#323650125
1!
#323883916
0!
#324165875
1!
#324399125
0!
#325709208
1!
#325942041
0!
#327243541
1!
#327476958
0!
#327768125
1!
#328001250
0!
#329302666
1!
#329536750
0!
#329827250
1!
#330060875
0!
#331361958
1!
#331595541
0!
#331886541
1!
#332120041
0!
#332402500
1!
#332635416
0!
#333946791
1!
#334178416
0!
#335481583
1!
#335714958
0!
#336006250
1!
#336239541
0!
#337540666
1!
#337774291
0!
#338065833
1!
#338298500
0!
#338581791
1!
#338814125
0!
#340137333
1!
#340370708
0!
#341672208
1!
#341905375
0!
#342197875
1!
#342430083
0!
#342713583
1!
#342946125
0!
#344257333
1!
#344489041
0!
#345792250
1!
#346024916
0!
#346317583
1!
#346550750
0!
#347853333
1!
#348086000
0!
#348377875
1!
#348611000
0!
#349912541
1!
#350145041
0!
#350437666
1!
#350670166
0!
#350953041
1!
#351186208
0!
#352497041
1!
#352728750
0!
#353012583
1!
#353244916
0!
#354556666
1!
#354789291
0!
#355073125
1!
#355306291
0!
#356628166
1!
#356861291
0!
#358163750
1!
#358396125
0!
#358689083
1!
#358922166
0!
#359204750
1!
#359437208
0!
#359437250
1!
#359437291
0!
#360749541
1!
#360980583
0!
#362284875
1!
#362517666
0!
#362809833
1!
#363042541
0!
#364345208
1!
#364577250
0!
#364869625
1!
#365102458
0!
#365385916
1!
#365618291
0!
#366930166
1!
#367162541
0!
#367445625
1!
#367677666
0!
#368990791
1!
#369223500
0!
#369506750
1!
#369738875
0!
#371051000
1!
#371282291
0!
#372584875
1!
#372817833
0!
#373120625
1!
#373352791
0!
#374654458
1!
#374885541
0!
#375179291
1!
#375411041
0!
#375694708
1!
#375925833
0!
#377237458
1!
#377469500
0!
#377753333
1!
#377984958
0!
#379296041
1!
#379527000
0!
#379811625
1!
#380043250
0!
#381353666
1!
#381585416
0!
#381869125
1!
#382101208
0!
#383412500
1!
#383644291
0!
#383927958
1!
#384159500
0!
#385471166
1!
#385702958
0!
#387006250
1!
#387238083
0!
#387531000
1!
#387763208
0!
#388046375
1!
#388277708
0!
#389580125
1!
#389809208
0!
#399183000
1!
#399414666
0!
#402024791
1!
#402258458
0!
#402540541
1!
#402772708
0!
#404084416
1!
#404318125
0!
#405618208
1!
#405851458
0!
#406142833
1!
#406376458
0!
#407677666
1!
#407910750
0!
#408202125
1!
#408434375
0!
#409736583
1!
#409969791
0!
#410261166
1!
#410494875
0!
#410776916
1!
#411009750
0!
#412320791
1!
#412554250
0!
#413855125
1!
#414087000
0!
#414380833
1!
#414613416
0!
#415915250
1!
#416148208
0!
#416440000
1!
#416672041
0!
#416955583
1!
#417188541
0!
#418511500
1!
#418744208
0!
#420047041
1!
#420278291
0!
#420571333
1!
#420803541
0!
#421086708
1!
#421318833
0!
#422631750
1!
#422863791
0!
#424165875
1!
#424398083
0!
#424691000
1!
#424923875
0!
#426225625
1!
#426459000
0!
#426750083
1!
#426982666
0!
#428284916
1!
#428516666
0!
#428809708
1!
#429043083
0!
#429325166
1!
#429556958
0!
#430868250
1!
#431100625
0!
#431383916
1!
#431615875
0!
#432927125
1!
#433159750
0!
#433442708
1!
#433674583
0!
#434996666
1!
#435228208
0!
#436530833
1!
#436763000
0!
#437055375
1!
#437287208
0!
#437571000
1!
#437803750
0!
#439115500
1!
#439347958
0!
#440649041
1!
#440882166
0!
#441174375
1!
#441405041
0!
#442709708
1!
#442942708
0!
#443234541
1!
#443466541
0!
#443750041
1!
#443982750
0!
#445294958
1!
#445527458
0!
#445810625
1!
#446042125
0!
#447354250
1!
#447586125
0!
#447870166
1!
#448102375
0!
#449414666
1!
#449647333
0!
#450950416
1!
#451182708
0!
#451485833
1!
#451717416
0!
#453021791
1!
#453253916
0!
#453547541
1!
#453780041
0!
#454063583
1!
#454295583
0!
#455607708
1!
#455840333
0!
#456123500
1!
#456356541
0!
#457667833
1!
#457900458
0!
#458184291
1!
#458415458
0!
#459727583
1!
#459959666
0!
#460242833
1!
#460475333
0!
#461787041
1!
#462019416
0!
#462302666
1!
#462535083
0!
#463846416
1!
#464078791
0!
#465380416
1!
#465612291
0!
#465905083
1!
#466136291
0!
#466420625
1!
#466651833
0!
#467953875
1!
#468182875
0!
#477563541
1!
#477795666
0!
#480405250
1!
#480639041
0!
#480921083
1!
#481153375
0!
#482464625
1!
#482698250
0!
#483999291
1!
#484232041
0!
#484524125
1!
#484756625
0!
#486058166
1!
#486290625
0!
#486583083
1!
#486815583
0!
#488117291
1!
#488350208
0!
#488641833
1!
#488874291
0!
#489157625
1!
#489390583
0!
#490700416
1!
#490933291
0!
#492235083
1!
#492467000
0!
#492759625
1!
#492991666
0!
#494293583
1!
#494526000
0!
#494818916
1!
#495050708
0!
#495334208
1!
#495566750
0!
#496887750
1!
#497119666
0!
#498421666
1!
#498654500
0!
#498946416
1!
#499178833
0!
#499462166
1!
#499693833
0!
#501005291
1!
#501239000
0!
#502539500
1!
#502770875
0!
#503063958
1!
#503295875
0!
#504597708
1!
#504830541
0!
#505122458
1!
#505354750
0!
#506656166
1!
#506889125
0!
#507180291
1!
#507411958
0!
#507695458
1!
#507927666
0!
#509238833
1!
#509470625
0!
#509753916
1!
#509986875
0!
#511296416
1!
#511529500
0!
#511811458
1!
#512043125
0!
#513365000
1!
#513597875
0!
#514897958
1!
#515130416
0!
#515422125
1!
#515653250
0!
#515936625
1!
#516168125
0!
#517478833
1!
#517710791
0!
#519011666
1!
#519244541
0!
#519535916
1!
#519768416
0!
#521069750
1!
#521301000
0!
#521593458
1!
#521825375
0!
#522109250
1!
#522341541
0!
#523651875
1!
#523884208
0!
#524167041
1!
#524397958
0!
#525709083
1!
#525940125
0!
#526223541
1!
#526455541
0!
#527765916
1!
#527998791
0!
#529299916
1!
#529531666
0!
#529835791
1!
#530067750
0!
#531368833
1!
#531600041
0!
#531892875
1!
#532125583
0!
#532409250
1!
#532641583
0!
#533952666
1!
#534185250
0!
#534467750
1!
#534699666
0!
#536010583
1!
#536242833
0!
#536525875
1!
#536757666
0!
#538068000
1!
#538300333
0!
#538584166
1!
#538816291
0!
#540126708
1!
#540358291
0!
#540642333
1!
#540874291
0!
#542184916
1!
#542416750
0!
#543717291
1!
#543949291
0!
#544242125
1!
#544473708
0!
#544757416
1!
#544989541
0!
#546291166
1!
#546520416
0!
#555899625
1!
#556130916
0!
#558740791
1!
#558974208
0!
#559256916
1!
#559489583
0!
#560799916
1!
#561032500
0!
#562334416
1!
#562567458
0!
#562859250
1!
#563092291
0!
#564392458
1!
#564625041
0!
#564917208
1!
#565150125
0!
#566450916
1!
#566684500
0!
#566975125
1!
#567207708
0!
#567490791
1!
#567723166
0!
#569033916
1!
#569267250
0!
#570568125
1!
#570801125
0!
#571093083
1!
#571325666
0!
#572627666
1!
#572860625
0!
#573152500
1!
#573385041
0!
#573667916
1!
#573900333
0!
#575222500
1!
#575455000
0!
#576756791
1!
#576989750
0!
#577281375
1!
#577514625
0!
#577797500
1!
#578029416
0!
#579341791
1!
#579574208
0!
#580875875
1!
#581108125
0!
#581401041
1!
#581633375
0!
#582935750
1!
#583168083
0!
#583460708
1!
#583693041
0!
#584994875
1!
#585227750
0!
#585519208
1!
#585752083
0!
#586034958
1!
#586266791
0!
#587577541
1!
#587809791
0!
#588092500
1!
#588324666
0!
#589634958
1!
#589867000
0!
#590150125
1!
#590381291
0!
#591703000
1!
#591936166
0!
#593237541
1!
#593470583
0!
#593762000
1!
#593993791
0!
#594277583
1!
#594509166
0!
#595820375
1!
#596051416
0!
#597352708
1!
#597584458
0!
#597876541
1!
#598108541
0!
#599408958
1!
#599641125
0!
#599933375
1!
#600165166
0!
#600448083
1!
#600679541
0!
#601989666
1!
#602221375
0!
#602505208
1!
#602736791
0!
#604047166
1!
#604279375
0!
#604562458
1!
#604794666
0!
#606104041
1!
#606336416
0!
#607637166
1!
#607868666
0!
#608172916
1!
#608404500
0!
#609706041
1!
#609937625
0!
#610230750
1!
#610462083
0!
#610746000
1!
#610978041
0!
#612287875
1!
#612519291
0!
#612803375
1!
#613035875
0!
#614345708
1!
#614577208
0!
#614861291
1!
#615091625
0!
#616403833
1!
#616635708
0!
#616919583
1!
#617151250
0!
#618463291
1!
#618695333
0!
#618978291
1!
#619209875
0!
#620521416
1!
#620753958
0!
#622055666
1!
#622288625
0!
#622580583
1!
#622812541
0!
#623096333
1!
#623327791
0!
#624629416
1!
#624857625
0!
#634234750
1!
#634466333
0!
#637079125
1!
#637311333
0!
#637594541
1!
#637828291
0!
#639139500
1!
#639372583
0!
#640675458
1!
#640909500
0!
#641201041
1!
#641433333
0!
#642736833
1!
#642970041
0!
#643262250
1!
#643494916
0!
#644798625
1!
#645031500
0!
#645325041
1!
#645558166
0!
#645841333
1!
#646075041
0!
#647387500
1!
#647621583
0!
#648925750
1!
#649159333
0!
#649451333
1!
#649685750
0!
#650988500
1!
#651222791
0!
#651514416
1!
#651748000
0!
#652030791
1!
#652263875
0!
#653588250
1!
#653821291
0!
#655125291
1!
#655358250
0!
#655650833
1!
#655883708
0!
#656166500
1!
#656400125
0!
#657712458
1!
#657945166
0!
#659249583
1!
#659481875
0!
#659775083
1!
#660007416
0!
#661311125
1!
#661544791
0!
#661836666
1!
#662069708
0!
#663374125
1!
#663607208
0!
#663899291
1!
#664131833
0!
#664416166
1!
#664649166
0!
#665961791
1!
#666194500
0!
#666477791
1!
#666710833
0!
#668024083
1!
#668256833
0!
#668540166
1!
#668772833
0!
#670097166
1!
#670329583
0!
#670329625
1!
#670329666
0!
#671634166
1!
#671866375
0!
#672160208
1!
#672392375
0!
#672677083
1!
#672909666
0!
#674223166
1!
#674455750
0!
#675758750
1!
#675991208
0!
#676284166
1!
#676516583
0!
#677820791
1!
#678053666
0!
#678346458
1!
#678579541
0!
#678862916
1!
#679094916
0!
#680408083
1!
#680640291
0!
#680923916
1!
#681156625
0!
#682469750
1!
#682702583
0!
#682985625
1!
#683218708
0!
#684530500
1!
#684763541
0!
#686066958
1!
#686299708
0!
#686603125
1!
#686834791
0!
#688139125
1!
#688371958
0!
#688664750
1!
#688897833
0!
#689180958
1!
#689412958
0!
#690726041
1!
#690958375
0!
#691242333
1!
#691473666
0!
#692787250
1!
#693018375
0!
#693303208
1!
#693536083
0!
#694848166
1!
#695080500
0!
#695362958
1!
#695594333
0!
#696906041
1!
#697138750
0!
#697421625
1!
#697653500
0!
#698964333
1!
#699195708
0!
#700497958
1!
#700730208
0!
#701022708
1!
#701254750
0!
#701538166
1!
#701770041
0!
#703073125
1!
#703302041
0!
#712680041
1!
#712911708
0!
#715520250
1!
#715753458
0!
#716035666
1!
#716268541
0!
#717578000
1!
#717810833
0!
#719112291
1!
#719345375
0!
#719636375
1!
#719869541
0!
#721169791
1!
#721401791
0!
#721693833
1!
#721926583
0!
#723226916
1!
#723459583
0!
#723751458
1!
#723984375
0!
#724266791
1!
#724498833
0!
#725809083
1!
#726041916
0!
#727342833
1!
#727575250
0!
#727867375
1!
#728100541
0!
#729401750
1!
#729634666
0!
#729926166
1!
#730158500
0!
#730441666
1!
#730673500
0!
#731996250
1!
#732229583
0!
#733531708
1!
#733764375
0!
#734056666
1!
#734289708
0!
#734572000
1!
#734804000
0!
#736115125
1!
#736348500
0!
#737649875
1!
#737882708
0!
#738173833
1!
#738406458
0!
#739707375
1!
#739939166
0!
#740232166
1!
#740464541
0!
#741766208
1!
#741998333
0!
#742290875
1!
#742524583
0!
#742806375
1!
#743039541
0!
#744350750
1!
#744582791
0!
#744866083
1!
#745098041
0!
#746409125
1!
#746641916
0!
#746925333
1!
#747157875
0!
#748480208
1!
#748713500
0!
#750013708
1!
#750246375
0!
#750538208
1!
#750770458
0!
#751053708
1!
#751285291
0!
#752596583
1!
#752829041
0!
#754130541
1!
#754362416
0!
#754655000
1!
#754886958
0!
#756188833
1!
#756421625
0!
#756713083
1!
#756946083
0!
#757228041
1!
#757460208
0!
#758771000
1!
#759002833
0!
#759286833
1!
#759517916
0!
#760828708
1!
#761061333
0!
#761344250
1!
#761576166
0!
#762887750
1!
#763119833
0!
#764421875
1!
#764654791
0!
#764957625
1!
#765189083
0!
#766490958
1!
#766722916
0!
#767015625
1!
#767248208
0!
#767530500
1!
#767761750
0!
#769073416
1!
#769305208
0!
#769589166
1!
#769820708
0!
#771131625
1!
#771363333
0!
#771647291
1!
#771878375
0!
#773190125
1!
#773422041
0!
#773706083
1!
#773936875
0!
#775248333
1!
#775479791
0!
#775763291
1!
#775995250
0!
#777306125
1!
#777537916
0!
#778840333
1!
#779072958
0!
#779365125
1!
#779597625
0!
#779881333
1!
#780112750
0!
#781413541
1!
#781642458
0!
#791027583
1!
#791260416
0!
#793873583
1!
#794107083
0!
#794389791
1!
#794623583
0!
#795934541
1!
#796167791
0!
#797470916
1!
#797705041
0!
#797996166
1!
#798230208
0!
#799532833
1!
#799766708
0!
#800058250
1!
#800292291
0!
#801594875
1!
#801829541
0!
#802120958
1!
#802354000
0!
#802636916
1!
#802870250
0!
#804183833
1!
#804417750
0!
#805719875
1!
#805953833
0!
#806245166
1!
#806479041
0!
#807782083
1!
#808015166
0!
#808307791
1!
#808540291
0!
#808824000
1!
#809057333
0!
#810380333
1!
#810612833
0!
#811915250
1!
#812148208
0!
#812441000
1!
#812672958
0!
#812956416
1!
#813190208
0!
#814501000
1!
#814733791
0!
#816035458
1!
#816267833
0!
#816560541
1!
#816793208
0!
#818095875
1!
#818328291
0!
#818621583
1!
#818854583
0!
#820157208
1!
#820390625
0!
#820682791
1!
#820914541
0!
#821198416
1!
#821431375
0!
#822743041
1!
#822976208
0!
#823259750
1!
#823493416
0!
#824805916
1!
#825038958
0!
#825322041
1!
#825554958
0!
#826879000
1!
#827112166
0!
#828415083
1!
#828648541
0!
#828939958
1!
#829172625
0!
#829456250
1!
#829690125
0!
#831001125
1!
#831235083
0!
#832537250
1!
#832770250
0!
#833063041
1!
#833295041
0!
#834599125
1!
#834830708
0!
#835124166
1!
#835356875
0!
#835640458
1!
#835873750
0!
#837185666
1!
#837418708
0!
#837701625
1!
#837934208
0!
#839246458
1!
#839479750
0!
#839762916
1!
#839995708
0!
#841307500
1!
#841540083
0!
#842843791
1!
#843077333
0!
#843380083
1!
#843612666
0!
#844915333
1!
#845146833
0!
#845439500
1!
#845671291
0!
#845955125
1!
#846187250
0!
#847497125
1!
#847729500
0!
#848012166
1!
#848244208
0!
#849555125
1!
#849786916
0!
#850070375
1!
#850302083
0!
#851612333
1!
#851844500
0!
#852128708
1!
#852361416
0!
#853672458
1!
#853904458
0!
#854187833
1!
#854419958
0!
#855731041
1!
#855962833
0!
#857264833
1!
#857497708
0!
#857789583
1!
#858021791
0!
#858304708
1!
#858537500
0!
#859838375
1!
#860067958
0!
#869443625
1!
#869676666
0!
#872285500
1!
#872519541
0!
#872801750
1!
#873034791
0!
#874344458
1!
#874576958
0!
#875879125
1!
#876111583
0!
#876403000
1!
#876637083
0!
#877937041
1!
#878170541
0!
#878461958
1!
#878695125
0!
#879995875
1!
#880228958
0!
#880520625
1!
#880753000
0!
#881035750
1!
#881268208
0!
#882579333
1!
#882812125
0!
#884113208
1!
#884346083
0!
#884637583
1!
#884870666
0!
#886172000
1!
#886405041
0!
#886696791
1!
#886930000
0!
#887211583
1!
#887445291
0!
#888765250
1!
#888997750
0!
#890298958
1!
#890531833
0!
#890823458
1!
#891056375
0!
#891338750
1!
#891571333
0!
#892881750
1!
#893114750
0!
#894415833
1!
#894648041
0!
#894940125
1!
#895173291
0!
#896473791
1!
#896705791
0!
#896998208
1!
#897230458
0!
#898532208
1!
#898765166
0!
#899056958
1!
#899290875
0!
#899573083
1!
#899806333
0!
#901115750
1!
#901348750
0!
#901630958
1!
#901864250
0!
#903174500
1!
#903407041
0!
#903690041
1!
#903922333
0!
#905244041
1!
#905476708
0!
#906777833
1!
#907011083
0!
#907302291
1!
#907535541
0!
#907818125
1!
#908050250
0!
#909361666
1!
#909594208
0!
#910895541
1!
#911128000
0!
#911419666
1!
#911652750
0!
#912954750
1!
#913186791
0!
#913479625
1!
#913711625
0!
#913995541
1!
#914228666
0!
#915538708
1!
#915771166
0!
#916054208
1!
#916286250
0!
#917597541
1!
#917829541
0!
#918113208
1!
#918345083
0!
#919656625
1!
#919889958
0!
#921191583
1!
#921424625
0!
#921727958
1!
#921960375
0!
#923262583
1!
#923495541
0!
#923787041
1!
#924020000
0!
#924303208
1!
#924535333
0!
#925845416
1!
#926078791
0!
#926361083
1!
#926592791
0!
#927903750
1!
#928137125
0!
#928419375
1!
#928651291
0!
#929961666
1!
#930195166
0!
#930476875
1!
#930709541
0!
#932020208
1!
#932252041
0!
#932535666
1!
#932767125
0!
#934079041
1!
#934311000
0!
#935613458
1!
#935846458
0!
#936137833
1!
#936370291
0!
#936654166
1!
#936886500
0!
#938188666
1!
#938417166
0!
#947793291
1!
#948025666
0!
#950634375
1!
#950866958
0!
#951149208
1!
#951382791
0!
#952691958
1!
#952925625
0!
#954225875
1!
#954459166
0!
#954750250
1!
#954983166
0!
#956283208
1!
#956516625
0!
#956808000
1!
#957041125
0!
#958340791
1!
#958574291
0!
#958865416
1!
#959099083
0!
#959380708
1!
#959613375
0!
#960924125
1!
#961157750
0!
#962458125
1!
#962691416
0!
#962982375
1!
#963215333
0!
#964517250
1!
#964749666
0!
#965041541
1!
#965274166
0!
#965557083
1!
#965789541
0!
#967111500
1!
#967344083
0!
#968645125
1!
#968877875
0!
#969169791
1!
#969402375
0!
#969685375
1!
#969917833
0!
#971228375
1!
#971461958
0!
#972764041
1!
#972996166
0!
#973288375
1!
#973522416
0!
#974823833
1!
#975056083
0!
#975348208
1!
#975580875
0!
#976882833
1!
#977115750
0!
#977407625
1!
#977640583
0!
#977923208
1!
#978155416
0!
#979465750
1!
#979698083
0!
#979981208
1!
#980213333
0!
#981523750
1!
#981756791
0!
#982039500
1!
#982271625
0!
#983594083
1!
#983826000
0!
#985127166
1!
#985360000
0!
#985651458
1!
#985884041
0!
#986166875
1!
#986399750
0!
#987709541
1!
#987943125
0!
#989244833
1!
#989476916
0!
#989768916
1!
#990002208
0!
#991303208
1!
#991535125
0!
#991827833
1!
#992060250
0!
#992343833
1!
#992576125
0!
#993887583
1!
#994120166
0!
#994403000
1!
#994635166
0!
#995946750
1!
#996178583
0!
#996461708
1!
#996693666
0!
#998004375
1!
#998236083
0!
#999539750
1!
#999772000
0!
#1000075291
1!
#1000307458
0!
#1001609041
1!
#1001842291
0!
#1002134708
1!
#1002366041
0!
#1002650250
1!
#1002883250
0!
#1004194416
1!
#1004426250
0!
#1004710458
1!
#1004943208
0!
#1006254666
1!
#1006487541
0!
#1006770416
1!
#1007003000
0!
#1008314541
1!
#1008548125
0!
#1008829791
1!
#1009061750
0!
#1010373583
1!
#1010606375
0!
#1010889333
1!
#1011120875
0!
#1012433125
1!
#1012665166
0!
#1013967208
1!
#1014200458
0!
#1014491750
1!
#1014723666
0!
#1015007458
1!
#1015239708
0!
#1016541625
1!
#1016772333
0!
#1026153833
1!
#1026386375
0!
#1028997500
1!
#1029231583
0!
#1029513750
1!
#1029747833
0!
#1031057791
1!
#1031291250
0!
#1032593833
1!
#1032827375
0!
#1033118583
1!
#1033352000
0!
#1034654041
1!
#1034887291
0!
#1035178916
1!
#1035412833
0!
#1036714708
1!
#1036948041
0!
#1037240291
1!
#1037473500
0!
#1037755625
1!
#1037988708
0!
#1039300458
1!
#1039533166
0!
#1040835541
1!
#1041069375
0!
#1041360125
1!
#1041593125
0!
#1042895125
1!
#1043129250
0!
#1043420083
1!
#1043653500
0!
#1043935541
1!
#1044169416
0!
#1045490291
1!
#1045723250
0!
#1047024583
1!
#1047257791
0!
#1047549500
1!
#1047782125
0!
#1048065500
1!
#1048298500
0!
#1049608416
1!
#1049841250
0!
#1051142750
1!
#1051375458
0!
#1051667041
1!
#1051899958
0!
#1053200291
1!
#1053433000
0!
#1053724875
1!
#1053958916
0!
#1055259375
1!
#1055492625
0!
#1055783625
1!
#1056016583
0!
#1056299125
1!
#1056532666
0!
#1057842208
1!
#1058074666
0!
#1058358000
1!
#1058590208
0!
#1059900958
1!
#1060133916
0!
#1060416083
1!
#1060648666
0!
#1061969458
1!
#1062202500
0!
#1063504000
1!
#1063736625
0!
#1064028541
1!
#1064261541
0!
#1064544708
1!
#1064777041
0!
#1066086958
1!
#1066319625
0!
#1067620666
1!
#1067852708
0!
#1068145291
1!
#1068377583
0!
#1069678666
1!
#1069911500
0!
#1070203250
1!
#1070436083
0!
#1070718833
1!
#1070951416
0!
#1072262541
1!
#1072494541
0!
#1072778500
1!
#1073009416
0!
#1074320791
1!
#1074553708
0!
#1074836708
1!
#1075069000
0!
#1076379541
1!
#1076611750
0!
#1077913416
1!
#1078145541
0!
#1078449583
1!
#1078681041
0!
#1079983708
1!
#1080216083
0!
#1080508625
1!
#1080741083
0!
#1081023833
1!
#1081255458
0!
#1082567750
1!
#1082800583
0!
#1083083875
1!
#1083317166
0!
#1084628375
1!
#1084860666
0!
#1085144125
1!
#1085376250
0!
#1086687750
1!
#1086919791
0!
#1087203041
1!
#1087435375
0!
#1088747166
1!
#1088980166
0!
#1089263000
1!
#1089496250
0!
#1090806458
1!
#1091038791
0!
#1092340916
1!
