arduino/data/3_on.vcd
$timescale 1 ns $end
$scope module top $end
$var wire 1 ! Channel_0 $end
$upscope $end
$enddefinitions $end
#0
1!
#8000
0!
#1307125
1!
#1540916
0!
#1831375
1!
#2064416
0!
#2346291
1!
#2579541
0!
#3888250
1!
#4123000
0!
#5421541
1!
#5656041
0!
#5946583
1!
#6181583
0!
#7479541
1!
#7712625
0!
#8003500
1!
#8237583
0!
#9535750
1!
#9770166
0!
#10060125
1!
#10293666
0!
#10575750
1!
#10809541
0!
#12117458
1!
#12349541
0!
#12632041
1!
#12865166
0!
#14173875
1!
#14407958
0!
#14688208
1!
#14923041
0!
#16241791
1!
#16475541
0!
#17774458
1!
#18009041
0!
#18298041
1!
#18531791
0!
#18813416
1!
#19046958
0!
#20356375
1!
#20590958
0!
#21890541
1!
#22123333
0!
#22414250
1!
#22648416
0!
#23947166
1!
#24180708
0!
#24472125
1!
#24705458
0!
#24986833
1!
#25220916
0!
#26528958
1!
#26762125
0!
#27044083
1!
#27276791
0!
#28585541
1!
#28819250
0!
#29101166
1!
#29334000
0!
#30641875
1!
#30875291
0!
#32174500
1!
#32407625
0!
#32709833
1!
#32942916
0!
#34241416
1!
#34475000
0!
#34765666
1!
#34999041
0!
#35280208
1!
#35513583
0!
#36822166
1!
#37055250
0!
#37336000
1!
#37569333
0!
#38876458
1!
#39108916
0!
#40408708
1!
#40641875
0!
#40932416
1!
#41164791
0!
#41446750
1!
#41678750
0!
#42987250
1!
#43220666
0!
#43500833
1!
#43734041
0!
#45041541
1!
#45274750
0!
#46572041
1!
#46805291
0!
#47096208
1!
#47329708
0!
#47611000
1!
#47843875
0!
#49142375
1!
#49372291
0!
#58737041
1!
#58970250
0!
#61576250
1!
#61811500
0!
#62091125
1!
#62324833
0!
#63630833
1!
#63866083
0!
#65163000
1!
#65398291
0!
#65686791
1!
#65921208
0!
#67219000
1!
#67452791
0!
#67742416
1!
#67976416
0!
#69274125
1!
#69508000
0!
#69798625
1!
#70032666
0!
#70312791
1!
#70546541
0!
#71853833
1!
#72087333
0!
#73383500
1!
#73618000
0!
#73906958
1!
#74140958
0!
#75439291
1!
#75673708
0!
#75962333
1!
#76196500
0!
#76477833
1!
#76711833
0!
#78028291
1!
#78262875
0!
#79559750
1!
#79794416
0!
#80084083
1!
#80318000
0!
#80598250
1!
#80831250
0!
#82138291
1!
#82371416
0!
#83667625
1!
#83902208
0!
#84190916
1!
#84424916
0!
#85721583
1!
#85957208
0!
#86244833
1!
#86479958
0!
#87775666
1!
#88008791
0!
#88298791
1!
#88532708
0!
#88812583
1!
#89046500
0!
#90354000
1!
#90588916
0!
#90868291
1!
#91102291
0!
#92409291
1!
#92642458
0!
#92923333
1!
#93158041
0!
#94473916
1!
#94706416
0!
#96005708
1!
#96240541
0!
#96528958
1!
#96762750
0!
#97044708
1!
#97278250
0!
#98584666
1!
#98818875
0!
#100117166
1!
#100350125
0!
#100640625
1!
#100875125
0!
#102172958
1!
#102406291
0!
#102697291
1!
#102930916
0!
#103211333
1!
#103444625
0!
#104752333
1!
#104985000
0!
#105266708
1!
#105501333
0!
#106808791
1!
#107042458
0!
#107324166
1!
#107557791
0!
#108865208
1!
#109098833
0!
#110399625
1!
#110632791
0!
#110934250
1!
#111168541
0!
#112467541
1!
#112700083
0!
#112991916
1!
#113225250
0!
#113506083
1!
#113739166
0!
#115047916
1!
#115281666
0!
#115563291
1!
#115797458
0!
#117105250
1!
#117338083
0!
#118637041
1!
#118870958
0!
#119160708
1!
#119394291
0!
#119676458
1!
#119909708
0!
#121218541
1!
#121451458
0!
#121733166
1!
#121966083
0!
#123275291
1!
#123510166
0!
#124806333
1!
#125039541
0!
#125330666
1!
#125563708
0!
#125845583
1!
#126079541
0!
#127378375
1!
#127609041
0!
#136973625
1!
#137208041
0!
#139809500
1!
#140045541
0!
#140324333
1!
#140559208
0!
#141865000
1!
#142099750
0!
#143396500
1!
#143631291
0!
#143919250
1!
#144154041
0!
#145450833
1!
#145685583
0!
#145975000
1!
#146210000
0!
#147507500
1!
#147743000
0!
#148031875
1!
#148267125
0!
#148546208
1!
#148781291
0!
#150089375
1!
#150322791
0!
#151622458
1!
#151857916
0!
#152146625
1!
#152381041
0!
#153679833
1!
#153915083
0!
#154204041
1!
#154439750
0!
#154719166
1!
#154954166
0!
#156273708
1!
#156508041
0!
#157805666
1!
#158041166
0!
#158330125
1!
#158564125
0!
#158845000
1!
#159079583
0!
#160387708
1!
#160621750
0!
#161921125
1!
#162155666
0!
#162445333
1!
#162679958
0!
#163977875
1!
#164212166
0!
#164501875
1!
#164736916
0!
#166034666
1!
#166269416
0!
#166559083
1!
#166794458
0!
#167074041
1!
#167309375
0!
#168616000
1!
#168850250
0!
#169131375
1!
#169366375
0!
#170673625
1!
#170907375
0!
#171189375
1!
#171424208
0!
#172742708
1!
#172977083
0!
#174274625
1!
#174510208
0!
#174799333
1!
#175033208
0!
#175314000
1!
#175548291
0!
#176855750
1!
#177090125
0!
#178388791
1!
#178624666
0!
#178912625
1!
#179147833
0!
#180446791
1!
#180682500
0!
#180971208
1!
#181206833
0!
#181486625
1!
#181720750
0!
#183029041
1!
#183261916
0!
#183543250
1!
#183777458
0!
#185085500
1!
#185320458
0!
#185600333
1!
#185835041
0!
#187142666
1!
#187377041
0!
#188676458
1!
#188911583
0!
#189211791
1!
#189446958
0!
#190745958
1!
#190980208
0!
#191269583
1!
#191504291
0!
#191784666
1!
#192017333
0!
#193326750
1!
#193559958
0!
#193840791
1!
#194076208
0!
#195384041
1!
#195618750
0!
#196916416
1!
#197151000
0!
#197441083
1!
#197675583
0!
#197956541
1!
#198190333
0!
#199497791
1!
#199732916
0!
#200014375
1!
#200248583
0!
#201557333
1!
#201791166
0!
#203090583
1!
#203325666
0!
#203615500
1!
#203849000
0!
#204130916
1!
#204365041
0!
#205665750
1!
#205896791
0!
#215270208
1!
#215505416
0!
#218107875
1!
#218344375
0!
#218623000
1!
#218858791
0!
#220165250
1!
#220399666
0!
#221698500
1!
#221933791
0!
#222222541
1!
#222457958
0!
#223754875
1!
#223991291
0!
#224279708
1!
#224516041
0!
#225812125
1!
#226047583
0!
#226336750
1!
#226571875
0!
#226851291
1!
#227086333
0!
#228392916
1!
#228627625
0!
#229926166
1!
#230162208
0!
#230450041
1!
#230684166
0!
#231982750
1!
#232217875
0!
#232506333
1!
#232739958
0!
#233022250
1!
#233257041
0!
#234573666
1!
#234807583
0!
#236104958
1!
#236341125
0!
#236628791
1!
#236863541
0!
#237143375
1!
#237378875
0!
#238685125
1!
#238920458
0!
#240217958
1!
#240453375
0!
#240742000
1!
#240976541
0!
#242275125
1!
#242508833
0!
#242798541
1!
#243034208
0!
#244329791
1!
#244565250
0!
#244854291
1!
#245089666
0!
#245368625
1!
#245603666
0!
#246910416
1!
#247145958
0!
#247425416
1!
#247661000
0!
#248965791
1!
#249200541
0!
#249481041
1!
#249716291
0!
#251034333
1!
#251268333
0!
#252566666
1!
#252802083
0!
#253090708
1!
#253326458
0!
#253604666
1!
#253838875
0!
#255146958
1!
#255380041
0!
#256678833
1!
#256913875
0!
#257203000
1!
#257436916
0!
#258734625
1!
#258968583
0!
#259257708
1!
#259493250
0!
#259773958
1!
#260008666
0!
#261315083
1!
#261548750
0!
#261830583
1!
#262064291
0!
#263371250
1!
#263605125
0!
#263885500
1!
#264120000
0!
#265427375
1!
#265661541
0!
#266960625
1!
#267195250
0!
#267496125
1!
#267730791
0!
#269029291
1!
#269263750
0!
#269553333
1!
#269788750
0!
#270069416
1!
#270303666
0!
#271610083
1!
#271842916
0!
#272125291
1!
#272358916
0!
#273665625
1!
#273899791
0!
#275197916
1!
#275432625
0!
#275722333
1!
#275957250
0!
#276237291
1!
#276471291
0!
#277780125
1!
#278014583
0!
#278294958
1!
#278529208
0!
#279837125
1!
#280070000
0!
#281370208
1!
#281603875
0!
#281893833
1!
#282127916
0!
#282409500
1!
#282642541
0!
#283941958
1!
#284172541
0!
#293541875
1!
#293775833
0!
#296380416
1!
#296615833
0!
#296895083
1!
#297131333
0!
#298437166
1!
#298672500
0!
#299969500
1!
#300205083
0!
#300494166
1!
#300729916
0!
#302027416
1!
#302263208
0!
#302551541
1!
#302786708
0!
#304084750
1!
#304319750
0!
#304609000
1!
#304844916
0!
#305124500
1!
#305360125
0!
#306665958
1!
#306901416
0!
#308198000
1!
#308432916
0!
#308721708
1!
#308957000
0!
#310254583
1!
#310489083
0!
#310779125
1!
#311014250
0!
#311293875
1!
#311529291
0!
#312846333
1!
#313080833
0!
#314378083
1!
#314613791
0!
#314902000
1!
#315138041
0!
#315417041
1!
#315651291
0!
#316958250
1!
#317194166
0!
#318490291
1!
#318724500
0!
#319014250
1!
#319249791
0!
#320547875
1!
#320782333
0!
#321072125
1!
#321306458
0!
#322605083
1!
#322840666
0!
#323129458
1!
#323363375
0!
#323644000
1!
#323879541
0!
#325186041
1!
#325421541
0!
#325701125
1!
#325935125
0!
#327241833
1!
#327477416
0!
#327757041
1!
#327991958
0!
#329310041
1!
#329543750
0!
#330842833
1!
#331077250
0!
#331366583
1!
#331600875
0!
#331882000
1!
#332116833
0!
#333422916
1!
#333656375
0!
#334954541
1!
#335188750
0!
#335478458
1!
#335713750
0!
#337011000
1!
#337245916
0!
#337535125
1!
#337769041
0!
#338049791
1!
#338285166
0!
#339590166
1!
#339825500
0!
#340106000
1!
#340340916
0!
#341646791
1!
#341882125
0!
#342162291
1!
#342396625
0!
#343702750
1!
#343938041
0!
#345234583
1!
#345468875
0!
#345770250
1!
#346005625
0!
#347302500
1!
#347537166
0!
#347827250
1!
#348062375
0!
#348342291
1!
#348576833
0!
#349884250
1!
#350117666
0!
#350399875
1!
#350633875
0!
#351941250
1!
#352174291
0!
#353474375
1!
#353708708
0!
#353997458
1!
#354231291
0!
#354512375
1!
#354746625
0!
#356053500
1!
#356286916
0!
#356568500
1!
#356802833
0!
#358109583
1!
#358342958
0!
#359640791
1!
#359875458
0!
#360165916
1!
#360398833
0!
#360679833
1!
#360913250
0!
#362211916
1!
#362442000
0!
#371808416
1!
#372043041
0!
#374646791
1!
#374881541
0!
#375162125
1!
#375398708
0!
#376703625
1!
#376939708
0!
#378236958
1!
#378473083
0!
#378761041
1!
#378996750
0!
#380293000
1!
#380528125
0!
#380817875
1!
#381054083
0!
#382349666
1!
#382585041
0!
#382874291
1!
#383108791
0!
#383388625
1!
#383622666
0!
#384928458
1!
#385163291
0!
#386461333
1!
#386696833
0!
#386984666
1!
#387220000
0!
#388518458
1!
#388752916
0!
#389041666
1!
#389277833
0!
#389557041
1!
#389791791
0!
#391110291
1!
#391345541
0!
#392642500
1!
#392875541
0!
#393165958
1!
#393401375
0!
#393679500
1!
#393914458
0!
#395221166
1!
#395454291
0!
#396754041
1!
#396989041
0!
#397277583
1!
#397513333
0!
#398810250
1!
#399045250
0!
#399333583
1!
#399568500
0!
#400867500
1!
#401102000
0!
#401391375
1!
#401626583
0!
#401906500
1!
#402141041
0!
#403447000
1!
#403681375
0!
#403960791
1!
#404195875
0!
#405501583
1!
#405736125
0!
#406016291
1!
#406249916
0!
#407567375
1!
#407802083
0!
#409099000
1!
#409334625
0!
#409623416
1!
#409859333
0!
#410138041
1!
#410373125
0!
#411680041
1!
#411914666
0!
#413212250
1!
#413446125
0!
#413734500
1!
#413968708
0!
#415267041
1!
#415502166
0!
#415790250
1!
#416025791
0!
#416305333
1!
#416539166
0!
#417846916
1!
#418081250
0!
#418361583
1!
#418595458
0!
#419903333
1!
#420138541
0!
#420418083
1!
#420651708
0!
#421959708
1!
#422193791
0!
#423490541
1!
#423725625
0!
#424025208
1!
#424259958
0!
#425557333
1!
#425792375
0!
#426080541
1!
#426316541
0!
#426595958
1!
#426830791
0!
#428137083
1!
#428371958
0!
#428651833
1!
#428885166
0!
#430193750
1!
#430427500
0!
#431725375
1!
#431958791
0!
#431958833
1!
#431958875
0!
#432249833
1!
#432483083
0!
#432764208
1!
#432998916
0!
#434304458
1!
#434539208
0!
#434818541
1!
#435052625
0!
#436359125
1!
#436592125
0!
#437890875
1!
#438124791
0!
#438414125
1!
#438648458
0!
#438927250
1!
#439161000
0!
#440459041
1!
#440689083
0!
#450051583
1!
#450285416
0!
#452887833
1!
#453123208
0!
#453402208
1!
#453636875
0!
#454942250
1!
#455178750
0!
#456473583
1!
#456709541
0!
#456997666
1!
#457234708
0!
#458528875
1!
#458764916
0!
#459053000
1!
#459287791
0!
#460585041
1!
#460820791
0!
#461108500
1!
#461344666
0!
#461623750
1!
#461859125
0!
#463164583
1!
#463399291
0!
#464696541
1!
#464931791
0!
#465220916
1!
#465455916
0!
#466753416
1!
#466987958
0!
#467277541
1!
#467512375
0!
#467792458
1!
#468027416
0!
#469345041
1!
#469580250
0!
#470877708
1!
#471112291
0!
#471401666
1!
#471636708
0!
#471916916
1!
#472150583
0!
#473457750
1!
#473692625
0!
#474989875
1!
#475224875
0!
#475514416
1!
#475750375
0!
#477047291
1!
#477281958
0!
#477572000
1!
#477807541
0!
#479103750
1!
#479339541
0!
#479628083
1!
#479862958
0!
#480143666
1!
#480379041
0!
#481684250
1!
#481918750
0!
#482199083
1!
#482434333
0!
#483739833
1!
#483974791
0!
#484254500
1!
#484489458
0!
#485807166
1!
#486043000
0!
#487338958
1!
#487573458
0!
#487863625
1!
#488098041
0!
#488377833
1!
#488613625
0!
#489920166
1!
#490154333
0!
#491452041
1!
#491686875
0!
#491976083
1!
#492210500
0!
#493507541
1!
#493742250
0!
#494030833
1!
#494264625
0!
#494545458
1!
#494780166
0!
#496087500
1!
#496322375
0!
#496602000
1!
#496836250
0!
#498144125
1!
#498378333
0!
#498658625
1!
#498893833
0!
#500201458
1!
#500435541
0!
#501733833
1!
#501969500
0!
#502269541
1!
#502502875
0!
#503800875
1!
#504036125
0!
#504325375
1!
#504559625
0!
#504839875
1!
#505073833
0!
#506382125
1!
#506616916
0!
#506896916
1!
#507132125
0!
#508438208
1!
#508673125
0!
#509971791
1!
#510207416
0!
#510495416
1!
#510730125
0!
#511010958
1!
#511246333
0!
#512553083
1!
#512787166
0!
#513068458
1!
#513302291
0!
#514610125
1!
#514843916
0!
#516141750
1!
#516376666
0!
#516666750
1!
#516901125
0!
#517181166
1!
#517416208
0!
#518714708
1!
#518946166
0!
#528310958
1!
#528546083
0!
#531149416
1!
#531386125
0!
#531664000
1!
#531899208
0!
#533205250
1!
#533439916
0!
#534737000
1!
#534974416
0!
#535260916
1!
#535496916
0!
#536793083
1!
#537029458
0!
#537317291
1!
#537553250
0!
#538849583
1!
#539084083
0!
#539373958
1!
#539609291
0!
#539889416
1!
#540125250
0!
#541431583
1!
#541666375
0!
#542963500
1!
#543199083
0!
#543486833
1!
#543721250
0!
#545018583
1!
#545255250
0!
#545542625
1!
#545777125
0!
#546057583
1!
#546292166
0!
#547610666
1!
#547844875
0!
#549143500
1!
#549378791
0!
#549669041
1!
#549904250
0!
#550183500
1!
#550417750
0!
#551725166
1!
#551961166
0!
#553257458
1!
#553492708
0!
#553780541
1!
#554015166
0!
#555314375
1!
#555548625
0!
#555837916
1!
#556074083
0!
#557371250
1!
#557606625
0!
#557895416
1!
#558130916
0!
#558410250
1!
#558644916
0!
#559953166
1!
#560188125
0!
#560468166
1!
#560704000
0!
#562011500
1!
#562247625
0!
#562527125
1!
#562763541
0!
#564080208
1!
#564316791
0!
#565612791
1!
#565849208
0!
#566137166
1!
#566371833
0!
#566651791
1!
#566886375
0!
#568193916
1!
#568429041
0!
#569726916
1!
#569962791
0!
#570250791
1!
#570486208
0!
#571783375
1!
#572020041
0!
#572307958
1!
#572542833
0!
#572822875
1!
#573057875
0!
#574362625
1!
#574598166
0!
#574877291
1!
#575111208
0!
#576418291
1!
#576652708
0!
#576933125
1!
#577167125
0!
#578475041
1!
#578710291
0!
#580007500
1!
#580242708
0!
#580543416
1!
#580777833
0!
#582077541
1!
#582312041
0!
#582601583
1!
#582836000
0!
#583116958
1!
#583351750
0!
#584658250
1!
#584892958
0!
#585173583
1!
#585407291
0!
#586714958
1!
#586950833
0!
#588247208
1!
#588481041
0!
#588772083
1!
#589006458
0!
#589286375
1!
#589521208
0!
#590828875
1!
#591063166
0!
#591344000
1!
#591579250
0!
#592886166
1!
#593120125
0!
#594419458
1!
#594653083
0!
#594943708
1!
#595178666
0!
#595458625
1!
#595693083
0!
#596990958
1!
#597223083
0!
#606591333
1!
#606826083
0!
#609431541
1!
#609668000
0!
#609946833
1!
#610184166
0!
#611490541
1!
#611726958
0!
#613023541
1!
#613259000
0!
#613547375
1!
#613782625
0!
#615080375
1!
#615315916
0!
#615604416
1!
#615839833
0!
#617139291
1!
#617375791
0!
#617663750
1!
#617900500
0!
#618179916
1!
#618416708
0!
#619723875
1!
#619959625
0!
#621256666
1!
#621494458
0!
#621781625
1!
#622017791
0!
#623316000
1!
#623554041
0!
#623840375
1!
#624077541
0!
#624356083
1!
#624592041
0!
#625909083
1!
#626146291
0!
#627442875
1!
#627678833
0!
#627967500
1!
#628203291
0!
#628483166
1!
#628718041
0!
#630026208
1!
#630261333
0!
#631558416
1!
#631795000
0!
#632082458
1!
#632317458
0!
#633613166
1!
#633848875
0!
#634136750
1!
#634372041
0!
#635669250
1!
#635905833
0!
#636193000
1!
#636427166
0!
#636707791
1!
#636942416
0!
#638249000
1!
#638483500
0!
#638762791
1!
#638997916
0!
#640305708
1!
#640539833
0!
#640820708
1!
#641056375
0!
#642372208
1!
#642608500
0!
#643904375
1!
#644140666
0!
#644428208
1!
#644663666
0!
#644943000
1!
#645178000
0!
#646483375
1!
#646717958
0!
#648015500
1!
#648250416
0!
#648540416
1!
#648776458
0!
#650072625
1!
#650307125
0!
#650597208
1!
#650830583
0!
#651112375
1!
#651347166
0!
#652653000
1!
#652888125
0!
#653168333
1!
#653404000
0!
#654709000
1!
#654942791
0!
#655224791
1!
#655457958
0!
#656765041
1!
#657001208
0!
#658298125
1!
#658533166
0!
#658832958
1!
#659068625
0!
#660366750
1!
#660600750
0!
#660890250
1!
#661125291
0!
#661405458
1!
#661641000
0!
#662946833
1!
#663181125
0!
#663461916
1!
#663696916
0!
#665003166
1!
#665237833
0!
#666535666
1!
#666770958
0!
#667060958
1!
#667296666
0!
#667575666
1!
#667810291
0!
#669117208
1!
#669352291
0!
#669631583
1!
#669867083
0!
#671174666
1!
#671408625
0!
#672707375
1!
#672941708
0!
#673231208
1!
#673465375
0!
#673745166
1!
#673979375
0!
#675278833
1!
#675510666
0!
#684880583
1!
#685115083
0!
#687719791
1!
#687956750
0!
#688235041
1!
#688470541
0!
#689777375
1!
#690013458
0!
#691310708
1!
#691545416
0!
#691834916
1!
#692070625
0!
#693366416
1!
#693603125
0!
#693890250
1!
#694126291
0!
#695422833
1!
#695659916
0!
#695946625
1!
#696183500
0!
#696462208
1!
#696698041
0!
#698004500
1!
#698240708
0!
#699536125
1!
#699771250
0!
#700061625
1!
#700297416
0!
#701593833
1!
#701829708
0!
#702118500
1!
#702353958
0!
#702633625
1!
#702868666
0!
#704185500
1!
#704421000
0!
#705718916
1!
#705953833
0!
#706242250
1!
#706477833
0!
#706757625
1!
#706993041
0!
#708299125
1!
#708534333
0!
#709831833
1!
#710066958
0!
#710356458
1!
#710591791
0!
#711889166
1!
#712123500
0!
#712414000
1!
#712648625
0!
#713946041
1!
#714181208
0!
#714469541
1!
#714704208
0!
#714985041
1!
#715221375
0!
#716526666
1!
#716762708
0!
#717041541
1!
#717277375
0!
#718583750
1!
#718819625
0!
#719098375
1!
#719333208
0!
#720652416
1!
#720887000
0!
#722185250
1!
#722421000
0!
#722708541
1!
#722944000
0!
#723224000
1!
#723458541
0!
#724764125
1!
#724998875
0!
#726296500
1!
#726533000
0!
#726821041
1!
#727056208
0!
#728352458
1!
#728586125
0!
#728876708
1!
#729112833
0!
#729391166
1!
#729627000
0!
#730933041
1!
#731167916
0!
#731448250
1!
#731683625
0!
#732988583
1!
#733222541
0!
#733504125
1!
#733738666
0!
#735043833
1!
#735279375
0!
#736576083
1!
#736811375
0!
#737111750
1!
#737345458
0!
#738643625
1!
#738878708
0!
#739168500
1!
#739403500
0!
#739683541
1!
#739918833
0!
#741225208
1!
#741459291
0!
#741740875
1!
#741976416
0!
#743281916
1!
#743517583
0!
#744814041
1!
#745050041
0!
#745337333
1!
#745574083
0!
#745852375
1!
#746086500
0!
#747394000
1!
#747629208
0!
#747908375
1!
#748143166
0!
#749448791
1!
#749684000
0!
#750981125
1!
#751216500
0!
#751504583
1!
#751739666
0!
#752020041
1!
#752254416
0!
#753550791
1!
#753781833
0!
#763148083
1!
#763383208
0!
#765985833
1!
#766223500
0!
#766501166
1!
#766737791
0!
#768042291
1!
#768279541
0!
#769574541
1!
#769810750
0!
#770099583
1!
#770335791
0!
#771633041
1!
#771869916
0!
#772157208
1!
#772393708
0!
#773690250
1!
#773928041
0!
#774214333
1!
#774450041
0!
#774730250
1!
#774965791
0!
#776272000
1!
#776508958
0!
#777806041
1!
#778041416
0!
#778330583
1!
#778568041
0!
#779864208
1!
#780100916
0!
#780389458
1!
#780624000
0!
#780903416
1!
#781139916
0!
#782457041
1!
#782692708
0!
#783989833
1!
#784224833
0!
#784513333
1!
#784749041
0!
#785029208
1!
#785263833
0!
#786570125
1!
#786806083
0!
#788103875
1!
#788339416
0!
#788628458
1!
#788863458
0!
#790161458
1!
#790397750
0!
#790685833
1!
#790921791
0!
#792219291
1!
#792455125
0!
#792744083
1!
#792980083
0!
#793259750
1!
#793496750
0!
#794801625
1!
#795036458
0!
#795317458
1!
#795551375
0!
#796859791
1!
#797094875
0!
#797375291
1!
#797610833
0!
#798927875
1!
#799162875
0!
#800462333
1!
#800697208
0!
#800986583
1!
#801223083
0!
#801502291
1!
#801736666
0!
#803043916
1!
#803280041
0!
#804576875
1!
#804811958
0!
#805101250
1!
#805336833
0!
#806634333
1!
#806870625
0!
#807158875
1!
#807395333
0!
#807674125
1!
#807909000
0!
#809216750
1!
#809452041
0!
#809733125
1!
#809967916
0!
#811274666
1!
#811510083
0!
#811790666
1!
#812025458
0!
#813332750
1!
#813566666
0!
#814864708
1!
#815100625
0!
#815400250
1!
#815634750
0!
#816932666
1!
#817169041
0!
#817457375
1!
#817692916
0!
#817972666
1!
#818208041
0!
#819514958
1!
#819749208
0!
#820031833
1!
#820267041
0!
#821574833
1!
#821809375
0!
#823108916
1!
#823344500
0!
#823632583
1!
#823868750
0!
#824147750
1!
#824383375
0!
#825691125
1!
#825927708
0!
#826206583
1!
#826440666
0!
#827749166
1!
#827983791
0!
#829283458
1!
#829517791
0!
#829808291
1!
#830041125
0!
#830323666
1!
#830558166
0!
#831856458
1!
#832087666
0!
#841454375
1!
#841689500
0!
#844294541
1!
#844532166
0!
#844809541
1!
#845046375
0!
#846352750
1!
#846589375
0!
#847885833
1!
#848123041
0!
#848410791
1!
#848646708
0!
#849944541
1!
#850182041
0!
#850468291
1!
#850703958
0!
#852002250
1!
#852238916
0!
#852526000
1!
#852761875
0!
#853041375
1!
#853276833
0!
#854583041
1!
#854820250
0!
#856115250
1!
#856351166
0!
#856640000
1!
#856876125
0!
#858173583
1!
#858410041
0!
#858698416
1!
#858934125
0!
#859212916
1!
#859450000
0!
#860768333
1!
#861005958
0!
#862303208
1!
#862540250
0!
#862827916
1!
#863063583
0!
#863342833
1!
#863578916
0!
#864885916
1!
#865122166
0!
#866419375
1!
#866654916
0!
#866943208
1!
#867179875
0!
#868476250
1!
#868713250
0!
#868999583
1!
#869235458
0!
#870534083
1!
#870768958
0!
#871057708
1!
#871292416
0!
#871572791
1!
#871808708
0!
#873115583
1!
#873350458
0!
#873629125
1!
#873863500
0!
#875171208
1!
#875405291
0!
#875685208
1!
#875920000
0!
#877237583
1!
#877473083
0!
#878769875
1!
#879006708
0!
#879294333
1!
#879530958
0!
#879810875
1!
#880045583
0!
#881352958
1!
#881588333
0!
#882884958
1!
#883122000
0!
#883409666
1!
#883644458
0!
#884940958
1!
#885176500
0!
#885465500
1!
#885701541
0!
#885980625
1!
#886218416
0!
#887522958
1!
#887759541
0!
#888038958
1!
#888275458
0!
#889580958
1!
#889818125
0!
#890097166
1!
#890331791
0!
#891639500
1!
#891874750
0!
#893172541
1!
#893408333
0!
#893706708
1!
#893942083
0!
#895240541
1!
#895476125
0!
#895764333
1!
#895998916
0!
#896279916
1!
#896514375
0!
#897822833
1!
#898059375
0!
#898338416
1!
#898573166
0!
#899881541
1!
#900116500
0!
#901414458
1!
#901648125
0!
#901939125
1!
#902173375
0!
#902454583
1!
#902688541
0!
#903996333
1!
#904231125
0!
#904511916
1!
#904745458
0!
#906053791
1!
#906287791
0!
#907587291
1!
#907822708
0!
#908111125
1!
#908347250
0!
#908626875
1!
#908861041
0!
#910160791
1!
#910391791
0!
#919761375
1!
#919995916
0!
#922600708
1!
#922835708
0!
#923115375
1!
#923351083
0!
#924656208
1!
#924892625
0!
#926188916
1!
#926425875
0!
#926712208
1!
#926948958
0!
#928245583
1!
#928482791
0!
#928768791
1!
#929005583
0!
#930303125
1!
#930538875
0!
#930827375
1!
#931064500
0!
#931342666
1!
#931577125
0!
#932885750
1!
#933121375
0!
#933121416
1!
#933121458
0!
#934417875
1!
#934655416
0!
#934943166
1!
#935178333
0!
#936476250
1!
#936713416
0!
#937000166
1!
#937237375
0!
#937516208
1!
#937752875
0!
#939069833
1!
#939305500
0!
#940605541
1!
#940841458
0!
#941130541
1!
#941366541
0!
#941645708
1!
#941882166
0!
#943189000
1!
#943425666
0!
#944722208
1!
#944958166
0!
#945246125
1!
#945482208
0!
#946780708
1!
#947016958
0!
#947305041
1!
#947540541
0!
#948838958
1!
#949074958
0!
#949363958
1!
#949599500
0!
#949879208
1!
#950114750
0!
#951423166
1!
#951658750
0!
#951938833
1!
#952174333
0!
#953481541
1!
#953716750
0!
#953996250
1!
#954232125
0!
#955549208
1!
#955785791
0!
#957084250
1!
#957319250
0!
#957608791
1!
#957843958
0!
#958124166
1!
#958357875
0!
#959666833
1!
#959903416
0!
#961202250
1!
#961437708
0!
#961727333
1!
#961962416
0!
#963261375
1!
#963496083
0!
#963784375
1!
#964020666
0!
#964300125
1!
#964535333
0!
#965842458
1!
#966076666
0!
#966357708
1!
#966593500
0!
#967900708
1!
#968136250
0!
#968415833
1!
#968649416
0!
#969958916
1!
#970193333
0!
#971492250
1!
#971728208
0!
#972028166
1!
#972262291
0!
#973560458
1!
#973795125
0!
#974083791
1!
#974318291
0!
#974598708
1!
#974834291
0!
#976141625
1!
#976377166
0!
#976656875
1!
#976892166
0!
#978200166
1!
#978435583
0!
#979733458
1!
#979969291
0!
#979969333
1!
#979969375
0!
#980258208
1!
#980492250
0!
#980773833
1!
#981009583
0!
#982316083
1!
#982551166
0!
#982831833
1!
#983066500
0!
#984372750
1!
#984608083
0!
#985906875
1!
#986141333
0!
#986431708
1!
#986667666
0!
#986946666
1!
#987181583
0!
#988480541
1!
#988711833
0!
#998083250
1!
#998317833
0!
#1000924583
1!
#1001160083
0!
#1001440541
1!
#1001676875
0!
#1002981833
1!
#1003218208
0!
#1004514916
1!
#1004752500
0!
#1005038875
1!
#1005274333
0!
#1006572083
1!
#1006808708
0!
#1007096375
1!
#1007332333
0!
#1008629583
1!
#1008865041
0!
#1009154250
1!
#1009389416
0!
#1009669125
1!
#1009906125
0!
#1011212583
1!
#1011447375
0!
#1012747083
1!
#1012983541
0!
#1013271541
1!
#1013506125
0!
#1014804625
1!
#1015040458
0!
#1015329166
1!
#1015565750
0!
#1015844625
1!
#1016080458
0!
#1017399291
1!
#1017634791
0!
#1018933500
1!
#1019169666
0!
#1019457833
1!
#1019693916
0!
#1019974500
1!
#1020209833
0!
#1021516791
1!
#1021753833
0!
#1023051208
1!
#1023288000
0!
#1023575833
1!
#1023811750
0!
#1025107916
1!
#1025343916
0!
#1025633083
1!
#1025868125
0!
#1027165916
1!
#1027401500
0!
#1027691125
1!
#1027926958
0!
#1028207291
1!
#1028443750
0!
#1029750250
1!
#1029986083
0!
#1030266833
1!
#1030500625
0!
#1031809625
1!
#1032045500
0!
#1032325125
1!
#1032559875
0!
#1033878708
1!
#1034113416
0!
#1035411708
1!
#1035648750
0!
#1035937416
1!
#1036171791
0!
#1036452666
1!
#1036687500
0!
#1037995041
1!
#1038231000
0!
#1039529125
1!
#1039765958
0!
#1040054625
1!
#1040290541
0!
#1041589375
1!
#1041825166
0!
#1042113875
1!
#1042349000
0!
#1042629458
1!
#1042863125
0!
#1044172041
1!
#1044406333
0!
#1044686708
1!
#1044923583
0!
#1046230416
1!
#1046465041
0!
#1046745875
1!
#1046980916
0!
#1048288208
1!
#1048522458
0!
#1049823083
1!
#1050057708
0!
#1050359250
1!
#1050594208
0!
#1051892791
1!
#1052127750
0!
#1052417750
1!
#1052653000
0!
#1052932750
1!
#1053167291
0!
#1054474833
1!
#1054710958
0!
#1054990791
1!
#1055225916
0!
#1056532958
1!
#1056769041
0!
#1058067958
1!
#1058303875
0!
#1058592500
1!
#1058826958
0!
#1059106958
1!
#1059341791
0!
#1060650750
1!
#1060886208
0!
#1061166166
1!
#1061401958
0!
#1062708166
1!
#1062942625
0!
#1064241625
1!
#1064477750
0!
#1064766250
1!
#1065003125
0!
#1065281708
1!
#1065517166
0!
#1066815291
1!
#1067047583
0!
#1076423000
1!
#1076659291
0!
#1079267250
1!
#1079504791
0!
#1079784041
1!
#1080019708
0!
#1081330708
1!
#1081566458
0!
#1082867083
1!
#1083105250
0!
#1083391666
1!
#1083626875
0!
#1084926333
1!
#1085163166
0!
#1085451541
1!
#1085688208
0!
#1086986833
1!
#1087222166
0!
#1087511791
1!
#1087747916
0!
#1088026791
1!
#1088264083
0!
#1089571958
1!
#1089808041
0!
#1091107916
1!
#1091343625
0!
#1091632541
1!
