arduino/data/all_off.vcd
$timescale 1 ns $end
$scope module top $end
$var wire 1 ! Channel_0 $end
$upscope $end
$enddefinitions $end
#0
0!
#1055625
1!
#1286958
0!
#2589958
1!
#2821416
0!
#3114541
1!
#3345500
0!
#3629500
1!
#3860916
0!
#5173583
1!
#5405000
0!
#6707458
1!
#6938541
0!
#7231875
1!
#7462708
0!
#8765541
1!
#8996875
0!
#9290041
1!
#9521000
0!
#10822791
1!
#11053625
0!
#11346791
1!
#11578541
0!
#11861750
1!
#12092458
0!
#13403375
1!
#13634250
0!
#13918500
1!
#14149125
0!
#15460166
1!
#15691375
0!
#15974958
1!
#16205500
0!
#17527250
1!
#17758041
0!
#19060083
1!
#19290625
0!
#19583416
1!
#19814750
0!
#20098250
1!
#20328625
0!
#21639250
1!
#21870791
0!
#23172041
1!
#23402625
0!
#23696250
1!
#23926666
0!
#25229333
1!
#25460583
0!
#25753291
1!
#25983500
0!
#26268166
1!
#26498166
0!
#27809541
1!
#28039625
0!
#28324875
1!
#28555208
0!
#29866250
1!
#30096500
0!
#30381291
1!
#30611416
0!
#31922208
1!
#32153333
0!
#33454500
1!
#33684791
0!
#33990125
1!
#34220416
0!
#35522458
1!
#35752875
0!
#36046333
1!
#36276625
0!
#36561750
1!
#36792333
0!
#38102375
1!
#38333875
0!
#39635958
1!
#39865875
0!
#40159541
1!
#40390708
0!
#40674958
1!
#40904833
0!
#42216083
1!
#42447541
0!
#42731125
1!
#42962166
0!
#44272625
1!
#44503625
0!
#44787541
1!
#45018250
0!
#46329750
1!
#46560041
0!
#46844708
1!
#47075958
0!
#48386791
1!
#48617291
0!
#48901708
1!
#49131666
0!
#50433500
1!
#50661625
0!
#60019958
1!
#60249500
0!
#62857833
1!
#63089458
0!
#63372916
1!
#63604666
0!
#64914833
1!
#65146833
0!
#66447000
1!
#66678500
0!
#66971208
1!
#67203458
0!
#68503875
1!
#68736083
0!
#69028125
1!
#69259125
0!
#70560958
1!
#70792041
0!
#71084708
1!
#71316083
0!
#71600208
1!
#71831250
0!
#73140666
1!
#73371583
0!
#74673416
1!
#74905166
0!
#75197000
1!
#75428000
0!
#76729458
1!
#76960125
0!
#77253750
1!
#77484875
0!
#77768541
1!
#77999625
0!
#79322416
1!
#79553166
0!
#80855208
1!
#81086208
0!
#81379250
1!
#81610833
0!
#81894583
1!
#82125375
0!
#83435666
1!
#83666083
0!
#84969250
1!
#85201291
0!
#85493708
1!
#85725208
0!
#87026958
1!
#87257750
0!
#87551750
1!
#87782458
0!
#89085416
1!
#89315375
0!
#89609291
1!
#89840708
0!
#90124416
1!
#90355250
0!
#91666125
1!
#91896666
0!
#92181041
1!
#92412125
0!
#93722833
1!
#93954166
0!
#94238791
1!
#94469041
0!
#95791708
1!
#96023208
0!
#97324333
1!
#97555000
0!
#97849041
1!
#98080875
0!
#98364583
1!
#98595583
0!
#99906958
1!
#100137416
0!
#101440666
1!
#101672083
0!
#101964833
1!
#102195041
0!
#103498500
1!
#103728791
0!
#104023166
1!
#104253625
0!
#104538125
1!
#104767958
0!
#106080625
1!
#106312000
0!
#106596000
1!
#106827708
0!
#108138791
1!
#108369333
0!
#108654000
1!
#108885333
0!
#110197041
1!
#110426833
0!
#111730916
1!
#111961750
0!
#112266458
1!
#112497125
0!
#113800125
1!
#114030916
0!
#114325625
1!
#114556000
0!
#114840625
1!
#115071041
0!
#116382666
1!
#116613500
0!
#117915000
1!
#118146208
0!
#118439750
1!
#118670083
0!
#118955291
1!
#119185750
0!
#120497125
1!
#120728083
0!
#121012583
1!
#121243333
0!
#122555125
1!
#122785166
0!
#123069958
1!
#123299958
0!
#124613291
1!
#124844250
0!
#125128708
1!
#125359875
0!
#126671541
1!
#126901833
0!
#127186791
1!
#127417708
0!
#128720833
1!
#128947958
0!
#138317958
1!
#138548333
0!
#141157958
1!
#141389916
0!
#141673166
1!
#141905166
0!
#143215208
1!
#143447625
0!
#144749041
1!
#144980583
0!
#145273750
1!
#145505458
0!
#146807000
1!
#147038291
0!
#147331625
1!
#147563708
0!
#148865750
1!
#149097375
0!
#149390291
1!
#149621875
0!
#149906083
1!
#150137708
0!
#151448583
1!
#151679875
0!
#152981166
1!
#153212208
0!
#153505125
1!
#153737375
0!
#155039000
1!
#155271208
0!
#155563583
1!
#155795833
0!
#156079458
1!
#156310125
0!
#157632791
1!
#157864416
0!
#159167208
1!
#159399666
0!
#159691583
1!
#159922125
0!
#160207416
1!
#160438208
0!
#161750000
1!
#161981666
0!
#163282958
1!
#163515083
0!
#163807750
1!
#164039458
0!
#165342166
1!
#165573541
0!
#165866791
1!
#166097375
0!
#167400208
1!
#167631166
0!
#167925291
1!
#168156791
0!
#168440583
1!
#168672250
0!
#169984000
1!
#170214708
0!
#170499791
1!
#170730541
0!
#172042291
1!
#172273875
0!
#172557333
1!
#172787916
0!
#174111750
1!
#174343375
0!
#175645458
1!
#175877125
0!
#176170041
1!
#176401416
0!
#176685416
1!
#176916333
0!
#178228833
1!
#178458791
0!
#179762125
1!
#179993541
0!
#180286458
1!
#180517875
0!
#181821166
1!
#182052458
0!
#182345625
1!
#182576250
0!
#182861041
1!
#183091708
0!
#184404958
1!
#184635416
0!
#184920416
1!
#185151375
0!
#186463750
1!
#186695250
0!
#186979666
1!
#187210000
0!
#188522791
1!
#188753041
0!
#190056541
1!
#190287083
0!
#190592250
1!
#190823916
0!
#192125166
1!
#192355583
0!
#192649416
1!
#192880333
0!
#193165000
1!
#193396500
0!
#194707916
1!
#194938833
0!
#196241750
1!
#196473000
0!
#196766166
1!
#196996750
0!
#197281750
1!
#197512125
0!
#198825500
1!
#199056500
0!
#199340666
1!
#199572375
0!
#200883500
1!
#201113833
0!
#201398833
1!
#201628708
0!
#202941958
1!
#203173166
0!
#203456875
1!
#203687708
0!
#205000458
1!
#205231416
0!
#205516458
1!
#205746916
0!
#207050375
1!
#207278041
0!
#216653208
1!
#216884041
0!
#219494416
1!
#219726083
0!
#220009958
1!
#220241833
0!
#221553500
1!
#221785416
0!
#223088375
1!
#223320166
0!
#223612583
1!
#223844708
0!
#225147166
1!
#225379625
0!
#225672250
1!
#225903833
0!
#227206750
1!
#227439291
0!
#227731125
1!
#227962583
0!
#228246625
1!
#228478416
0!
#229788666
1!
#230021375
0!
#231322083
1!
#231553916
0!
#231846458
1!
#232078041
0!
#233380166
1!
#233611541
0!
#233904291
1!
#234136250
0!
#234420583
1!
#234652041
0!
#235974333
1!
#236205791
0!
#237508166
1!
#237739125
0!
#238032666
1!
#238263583
0!
#238547583
1!
#238778583
0!
#240090500
1!
#240321708
0!
#241623750
1!
#241855750
0!
#242148458
1!
#242379458
0!
#243681916
1!
#243913708
0!
#244206583
1!
#244436833
0!
#245740000
1!
#245970916
0!
#246264416
1!
#246494666
0!
#246779625
1!
#247010583
0!
#248322166
1!
#248554375
0!
#248837250
1!
#249068375
0!
#250380875
1!
#250611708
0!
#250896333
1!
#251127375
0!
#252449916
1!
#252681791
0!
#253984416
1!
#254216291
0!
#254509333
1!
#254740375
0!
#255024625
1!
#255255875
0!
#256567708
1!
#256799041
0!
#258101208
1!
#258332041
0!
#258625625
1!
#258857083
0!
#260159000
1!
#260389875
0!
#260683500
1!
#260914625
0!
#261198958
1!
#261429250
0!
#262741333
1!
#262971583
0!
#263256791
1!
#263487958
0!
#264799708
1!
#265030500
0!
#265315708
1!
#265546916
0!
#266857291
1!
#267088625
0!
#268390541
1!
#268621958
0!
#268926166
1!
#269157791
0!
#270458583
1!
#270689250
0!
#270982916
1!
#271213541
0!
#271497791
1!
#271728750
0!
#273039875
1!
#273270833
0!
#274573500
1!
#274804458
0!
#275098250
1!
#275329416
0!
#275613375
1!
#275844250
0!
#277155458
1!
#277385458
0!
#277670041
1!
#277900333
0!
#279212375
1!
#279442208
0!
#279727000
1!
#279958041
0!
#281268708
1!
#281499583
0!
#281783625
1!
#282014791
0!
#283325708
1!
#283556958
0!
#283841083
1!
#284072625
0!
#285375250
1!
#285602791
0!
#294977166
1!
#295208041
0!
#297818875
1!
#298050541
0!
#298334125
1!
#298565833
0!
#299876833
1!
#300109041
0!
#301410583
1!
#301642750
0!
#301934916
1!
#302167083
0!
#303468625
1!
#303699958
0!
#303992500
1!
#304224541
0!
#305527000
1!
#305758583
0!
#306051541
1!
#306283458
0!
#306567000
1!
#306799208
0!
#308110916
1!
#308342750
0!
#309645416
1!
#309877666
0!
#310170416
1!
#310400875
0!
#311704041
1!
#311935833
0!
#312229125
1!
#312460750
0!
#312744375
1!
#312975833
0!
#314298333
1!
#314530625
0!
#315833708
1!
#316065000
0!
#316358583
1!
#316589916
0!
#316873166
1!
#317105375
0!
#318416625
1!
#318647458
0!
#319950250
1!
#320182041
0!
#320475583
1!
#320707416
0!
#322010416
1!
#322242083
0!
#322535833
1!
#322767750
0!
#324070166
1!
#324301958
0!
#324594958
1!
#324826791
0!
#325110666
1!
#325342041
0!
#326654375
1!
#326885041
0!
#327170083
1!
#327400625
0!
#328713416
1!
#328945416
0!
#329228958
1!
#329461583
0!
#330783875
1!
#331015916
0!
#332318166
1!
#332550416
0!
#332842958
1!
#333074750
0!
#333359000
1!
#333589375
0!
#334901666
1!
#335132708
0!
#336436250
1!
#336667125
0!
#336961333
1!
#337192875
0!
#338494916
1!
#338727708
0!
#339019791
1!
#339251000
0!
#339535625
1!
#339766791
0!
#341079500
1!
#341310625
0!
#341595208
1!
#341826500
0!
#343138125
1!
#343368875
0!
#343653208
1!
#343883916
0!
#345196125
1!
#345426708
0!
#346730083
1!
#346961208
0!
#347265750
1!
#347496791
0!
#348800916
1!
#349032875
0!
#349325916
1!
#349557250
0!
#349842041
1!
#350073541
0!
#351384708
1!
#351616041
0!
#352919583
1!
#353150708
0!
#353444125
1!
#353674541
0!
#353959291
1!
#354190416
0!
#355502625
1!
#355734041
0!
#356018000
1!
#356248041
0!
#357560000
1!
#357789291
0!
#358075916
1!
#358306750
0!
#359619208
1!
#359850750
0!
#360134625
1!
#360364833
0!
#361678875
1!
#361910666
0!
#362194458
1!
#362425166
0!
#363729791
1!
#363958000
0!
#373336500
1!
#373567250
0!
#376178250
1!
#376410125
0!
#376693250
1!
#376925000
0!
#378235416
1!
#378467791
0!
#379768708
1!
#380001000
0!
#380293250
1!
#380525541
0!
#381827458
1!
#382060083
0!
#382351958
1!
#382583458
0!
#383885583
1!
#384117166
0!
#384411125
1!
#384643083
0!
#384926833
1!
#385159375
0!
#386469958
1!
#386702375
0!
#388004000
1!
#388235333
0!
#388528125
1!
#388760375
0!
#390062000
1!
#390293791
0!
#390586500
1!
#390817750
0!
#391101916
1!
#391333458
0!
#392656041
1!
#392888125
0!
#394189916
1!
#394422083
0!
#394714916
1!
#394947125
0!
#395230250
1!
#395461708
0!
#396773916
1!
#397005541
0!
#398308000
1!
#398539291
0!
#398832750
1!
#399063916
0!
#400367458
1!
#400599125
0!
#400891708
1!
#401122625
0!
#402427208
1!
#402658375
0!
#402951958
1!
#403183458
0!
#403467541
1!
#403699625
0!
#405011375
1!
#405242958
0!
#405527833
1!
#405758791
0!
#407071791
1!
#407302833
0!
#407587041
1!
#407819041
0!
#409141750
1!
#409373500
0!
#410676000
1!
#410908125
0!
#411201166
1!
#411432541
0!
#411717083
1!
#411948791
0!
#413260416
1!
#413492416
0!
#414794875
1!
#415026875
0!
#415319916
1!
#415551041
0!
#416854666
1!
#417086791
0!
#417379583
1!
#417611708
0!
#417895041
1!
#418126000
0!
#419438625
1!
#419670708
0!
#419954666
1!
#420186416
0!
#421498833
1!
#421730625
0!
#422014583
1!
#422246375
0!
#423557625
1!
#423788500
0!
#425092083
1!
#425323541
0!
#425628166
1!
#425859708
0!
#427162958
1!
#427393750
0!
#427687583
1!
#427918125
0!
#428203083
1!
#428434583
0!
#429746000
1!
#429976958
0!
#431280625
1!
#431512750
0!
#431804833
1!
#432035416
0!
#432320541
1!
#432550916
0!
#433862875
1!
#434093041
0!
#434378333
1!
#434609500
0!
#435920375
1!
#436151208
0!
#436435625
1!
#436666125
0!
#437978083
1!
#438209083
0!
#438493166
1!
#438723750
0!
#440036458
1!
#440267916
0!
#440552250
1!
#440783041
0!
#442086750
1!
#442315041
0!
#451693375
1!
#451924833
0!
#454534500
1!
#454767083
0!
#455050375
1!
#455282875
0!
#456594375
1!
#456826375
0!
#458128791
1!
#458360541
0!
#458653291
1!
#458885250
0!
#460187916
1!
#460419500
0!
#460712416
1!
#460944208
0!
#462246625
1!
#462478916
0!
#462771500
1!
#463003416
0!
#463286750
1!
#463518833
0!
#464830750
1!
#465062666
0!
#466365500
1!
#466596583
0!
#466890458
1!
#467121750
0!
#468424750
1!
#468656958
0!
#468949833
1!
#469182458
0!
#469465791
1!
#469697833
0!
#471020416
1!
#471251750
0!
#472555458
1!
#472786583
0!
#473080208
1!
#473312250
0!
#473595833
1!
#473826500
0!
#475140041
1!
#475371083
0!
#476674083
1!
#476906666
0!
#477199041
1!
#477430916
0!
#477430958
1!
#477431000
0!
#478733333
1!
#478965500
0!
#479258166
1!
#479490083
0!
#480793583
1!
#481024416
0!
#481318416
1!
#481549916
0!
#481834125
1!
#482065958
0!
#483377833
1!
#483609166
0!
#483893333
1!
#484125916
0!
#485438291
1!
#485670500
0!
#485953833
1!
#486184458
0!
#487508208
1!
#487739416
0!
#489043958
1!
#489275916
0!
#489569750
1!
#489802583
0!
#490086333
1!
#490318375
0!
#491632791
1!
#491865583
0!
#493170250
1!
#493402166
0!
#493695333
1!
#493927541
0!
#495233500
1!
#495466250
0!
#495759000
1!
#495991666
0!
#496275666
1!
#496507333
0!
#497821875
1!
#498053458
0!
#498338333
1!
#498569291
0!
#499884875
1!
#500116375
0!
#500401458
1!
#500633958
0!
#501947375
1!
#502179000
0!
#503484458
1!
#503716333
0!
#504021333
1!
#504253250
0!
#505558000
1!
#505790291
0!
#506083666
1!
#506314875
0!
#506599791
1!
#506832291
0!
#508145500
1!
#508377125
0!
#509682500
1!
#509914791
0!
#510208166
1!
#510439166
0!
#510724333
1!
#510955375
0!
#512270916
1!
#512502250
0!
#512787250
1!
#513019916
0!
#514333958
1!
#514566125
0!
#514850291
1!
#515082000
0!
#516395625
1!
#516626791
0!
#516912208
1!
#517144166
0!
#518456916
1!
#518687708
0!
#518973416
1!
#519204500
0!
#520510041
1!
#520737708
0!
#530130000
1!
#530361416
0!
#532977875
1!
#533210958
0!
#533493708
1!
#533726541
0!
#535039833
1!
#535272041
0!
#536576083
1!
#536809708
0!
#537101625
1!
#537334583
0!
#538639000
1!
#538870875
0!
#539164125
1!
#539397458
0!
#540700708
1!
#540933041
0!
#541226500
1!
#541458916
0!
#541742875
1!
#541975458
0!
#543289166
1!
#543521500
0!
#544825541
1!
#545058750
0!
#545350916
1!
#545583708
0!
#546887958
1!
#547119833
0!
#547412750
1!
#547645666
0!
#547928916
1!
#548160875
0!
#549485875
1!
#549717458
0!
#551021875
1!
#551253750
0!
#551546833
1!
#551779541
0!
#552062750
1!
#552295500
0!
#553606833
1!
#553838958
0!
#555140416
1!
#555372291
0!
#555665291
1!
#555896458
0!
#557198166
1!
#557430000
0!
#557722708
1!
#557955208
0!
#559256416
1!
#559488125
0!
#559780583
1!
#560012458
0!
#560296083
1!
#560526750
0!
#561837958
1!
#562069041
0!
#562354041
1!
#562585375
0!
#563897083
1!
#564128750
0!
#564412083
1!
#564643916
0!
#565967083
1!
#566198583
0!
#567501625
1!
#567733458
0!
#568025916
1!
#568257125
0!
#568541333
1!
#568772333
0!
#570083291
1!
#570314791
0!
#571617416
1!
#571848458
0!
#572140958
1!
#572372625
0!
#573674750
1!
#573906458
0!
#574199000
1!
#574429916
0!
#574714375
1!
#574945083
0!
#576257166
1!
#576488000
0!
#576772291
1!
#577003416
0!
#578313833
1!
#578545375
0!
#578829125
1!
#579059416
0!
#580371083
1!
#580602541
0!
#581905250
1!
#582136833
0!
#582440958
1!
#582672458
0!
#583975041
1!
#584206583
0!
#584500541
1!
#584732458
0!
#585015666
1!
#585246916
0!
#586559375
1!
#586791083
0!
#588094166
1!
#588325958
0!
#588618541
1!
#588850875
0!
#589134625
1!
#589366083
0!
#590677833
1!
#590909666
0!
#591193583
1!
#591424750
0!
#592737125
1!
#592967666
0!
#593252166
1!
#593482958
0!
#594796000
1!
#595027166
0!
#595311625
1!
#595542875
0!
#596855083
1!
#597086333
0!
#597370708
1!
#597601500
0!
#598904083
1!
#599132041
0!
#608505666
1!
#608736291
0!
#611347166
1!
#611579291
0!
#611862916
1!
#612095208
0!
#613407291
1!
#613639875
0!
#614942000
1!
#615174958
0!
#615467708
1!
#615700375
0!
#617001916
1!
#617234333
0!
#617526958
1!
#617758750
0!
#619061375
1!
#619293583
0!
#619586375
1!
#619818208
0!
#620101666
1!
#620334458
0!
#621645125
1!
#621877333
0!
#623179541
1!
#623411500
0!
#623704625
1!
#623935666
0!
#625239166
1!
#625471875
0!
#625763916
1!
#625995666
0!
#626279708
1!
#626511750
0!
#627834458
1!
#628066500
0!
#629369875
1!
#629601791
0!
#629894375
1!
#630126416
0!
#630410708
1!
#630643750
0!
#631955541
1!
#632187166
0!
#633491375
1!
#633723958
0!
#634016625
1!
#634248500
0!
#635553541
1!
#635786000
0!
#636078333
1!
#636310625
0!
#637614291
1!
#637846791
0!
#638139125
1!
#638370583
0!
#638655250
1!
#638887250
0!
#640200791
1!
#640431750
0!
#640716541
1!
#640948916
0!
#642262166
1!
#642494541
0!
#642778333
1!
#643010625
0!
#644334416
1!
#644566083
0!
#645871333
1!
#646103125
0!
#646396750
1!
#646628500
0!
#646912333
1!
#647144041
0!
#648457041
1!
#648689333
0!
#649991833
1!
#650223833
0!
#650516625
1!
#650748375
0!
#652052250
1!
#652283833
0!
#652577375
1!
#652809416
0!
#653093208
1!
#653324166
0!
#654637583
1!
#654869833
0!
#655153458
1!
#655385791
0!
#656697875
1!
#656928875
0!
#657213375
1!
#657445208
0!
#658757875
1!
#658989666
0!
#660293333
1!
#660525250
0!
#660829416
1!
#661062041
0!
#662365375
1!
#662597166
0!
#662890833
1!
#663122250
0!
#663406500
1!
#663637333
0!
#664950916
1!
#665181541
0!
#666486375
1!
#666718333
0!
#667011500
1!
#667243333
0!
#667527750
1!
#667759541
0!
#669072625
1!
#669304416
0!
#669588833
1!
#669820875
0!
#671133250
1!
#671365250
0!
#671648791
1!
#671879958
0!
#673193333
1!
#673424458
0!
#673708916
1!
#673940375
0!
#675254125
1!
#675485666
0!
#675770625
1!
#676001500
0!
#677306541
1!
#677534750
0!
#686916666
1!
#687148583
0!
#689760625
1!
#689993000
0!
#690276333
1!
#690508250
0!
#691820250
1!
#692053666
0!
#693355666
1!
#693588541
0!
#693881041
1!
#694112875
0!
#695415416
1!
#695647166
0!
#695940458
1!
#696172416
0!
#697475875
1!
#697708458
0!
#698000625
1!
#698232875
0!
#698516625
1!
#698748791
0!
#700061083
1!
#700292791
0!
#701596625
1!
#701829291
0!
#702121833
1!
#702354166
0!
#703656750
1!
#703888708
0!
#704181583
1!
#704413875
0!
#704697125
1!
#704928708
0!
#706252458
1!
#706484000
0!
#707787750
1!
#708019125
0!
#708312208
1!
#708544541
0!
#708827916
1!
#709059416
0!
#710372166
1!
#710604083
0!
#711907208
1!
#712139000
0!
#712432166
1!
#712664125
0!
#713966833
1!
#714199000
0!
#714491500
1!
#714724375
0!
#716027958
1!
#716259208
0!
#716552750
1!
#716783958
0!
#717068166
1!
#717300041
0!
#718612416
1!
#718843875
0!
#719128500
1!
#719360500
0!
#720673791
1!
#720906875
0!
#721190750
1!
#721422500
0!
#722746416
1!
#722978916
0!
#724281916
1!
#724514125
0!
#724807875
1!
#725040083
0!
#725323916
1!
#725555208
0!
#726869750
1!
#727101208
0!
#728404583
1!
#728636750
0!
#728929291
1!
#729161208
0!
#730466291
1!
#730698250
0!
#730990958
1!
#731222375
0!
#731507375
1!
#731739541
0!
#733051791
1!
#733283041
0!
#733567791
1!
#733799208
0!
#735112375
1!
#735343708
0!
#735628875
1!
#735860166
0!
#737174125
1!
#737405625
0!
#738709208
1!
#738941208
0!
#739245458
1!
#739476208
0!
#740781583
1!
#741012708
0!
#741306583
1!
#741537625
0!
#741822500
1!
#742054208
0!
#743367500
1!
#743598500
0!
#744902208
1!
#745134375
0!
#745427708
1!
#745659458
0!
#745943125
1!
#746175333
0!
#747487083
1!
#747718500
0!
#748002833
1!
#748233583
0!
#749547208
1!
#749779458
0!
#750063583
1!
#750294291
0!
#751607583
1!
#751838625
0!
#752123458
1!
#752354250
0!
#753668875
1!
#753899916
0!
#754184458
1!
#754416208
0!
#755720208
1!
#755948291
0!
#765330208
1!
#765561500
0!
#768173791
1!
#768406625
0!
#768690000
1!
#768922500
0!
#770235291
1!
#770467708
0!
#771770750
1!
#772002500
0!
#772295916
1!
#772527916
0!
#773830708
1!
#774063000
0!
#774356041
1!
#774587791
0!
#775891416
1!
#776123583
0!
#776416375
1!
#776648416
0!
#776932625
1!
#777165333
0!
#778477166
1!
#778709125
0!
#780012875
1!
#780245666
0!
#780537958
1!
#780771291
0!
#782073541
1!
#782305583
0!
#782598333
1!
#782830541
0!
#783114208
1!
#783347083
0!
#784670666
1!
#784902458
0!
#786206375
1!
#786438125
0!
#786731833
1!
#786964625
0!
#787248333
1!
#787480375
0!
#788793833
1!
#789025250
0!
#790329541
1!
#790562000
0!
#790854958
1!
#791086666
0!
#792390708
1!
#792622875
0!
#792915791
1!
#793147791
0!
#794451416
1!
#794683208
0!
#794977083
1!
#795208791
0!
#795492750
1!
#795724791
0!
#797038000
1!
#797269583
0!
#797554000
1!
#797786500
0!
#799098916
1!
#799331625
0!
#799615458
1!
#799847625
0!
#801171250
1!
#801403625
0!
#802706833
1!
#802938958
0!
#803231791
1!
#803463291
0!
#803747125
1!
#803978875
0!
#805292041
1!
#805524333
0!
#806827208
1!
#807059375
0!
#807352166
1!
#807584541
0!
#808888458
1!
#809120291
0!
#809413375
1!
#809645333
0!
#809929875
1!
#810160875
0!
#811474625
1!
#811706416
0!
#811990541
1!
#812222041
0!
#813535458
1!
#813767458
0!
#814051416
1!
#814283416
0!
#815597125
1!
#815829250
0!
#817133500
1!
#817366041
0!
#817669583
1!
#817902125
0!
#819205708
1!
#819437458
0!
#819731250
1!
#819962833
0!
#820246750
1!
#820478875
0!
#821792625
1!
#822024041
0!
#823328750
1!
#823559416
0!
#823853416
1!
#824085541
0!
#824369708
1!
#824601125
0!
#825914750
1!
#826146125
0!
#826431083
1!
#826662125
0!
#827976416
1!
#828209041
0!
#828492875
1!
#828724208
0!
#830037833
1!
#830269541
0!
#830553500
1!
#830785625
0!
#832099708
1!
#832330875
0!
#832615791
1!
#832847791
0!
#834152041
1!
#834380291
0!
#843765708
1!
#843997166
0!
#846608958
1!
#846841083
0!
#847125166
1!
#847356708
0!
#848669125
1!
#848901333
0!
#850203916
1!
#850436250
0!
#850728916
1!
#850961041
0!
#852263916
1!
#852496750
0!
#852788708
1!
#853020958
0!
#854324083
1!
#854556250
0!
#854849041
1!
#855081500
0!
#855365083
1!
#855597708
0!
#856910125
1!
#857143083
0!
#858445416
1!
#858678416
0!
#858971083
1!
#859203416
0!
#860506208
1!
#860738541
0!
#861031833
1!
#861263458
0!
#861548333
1!
#861780333
0!
#863105208
1!
#863337875
0!
#864643500
1!
#864875458
0!
#865169291
1!
#865401916
0!
#865686125
1!
#865919125
0!
#867233833
1!
#867466291
0!
#868771500
1!
#869003541
0!
#869297083
1!
#869529708
0!
#870834208
1!
#871066625
0!
#871360208
1!
#871592458
0!
#872898125
1!
#873130958
0!
#873424083
1!
#873656750
0!
#873940375
1!
#874172833
0!
#875486958
1!
#875719666
0!
#876003208
1!
#876236041
0!
#877550416
1!
#877782250
0!
#878066583
1!
#878298375
0!
#879624833
1!
#879857291
0!
#881162333
1!
#881395541
0!
#881688166
1!
#881920500
0!
#882205250
1!
#882437208
0!
#883752083
1!
#883984208
0!
#885289958
1!
#885522416
0!
#885815625
1!
#886048625
0!
#887352666
1!
#887584750
0!
#887878875
1!
#888111208
0!
#888395291
1!
#888627333
0!
#889942250
1!
#890174208
0!
#890458958
1!
#890691125
0!
#892005875
1!
#892237625
0!
#892522875
1!
#892754000
0!
#894069416
1!
#894302500
0!
#895607291
1!
#895838708
0!
#896144291
1!
#896375875
0!
#897682291
1!
#897913750
0!
#898207416
1!
#898439625
0!
#898724875
1!
#898956541
0!
#900271041
1!
#900502291
0!
#901807958
1!
#902039541
0!
#902333583
1!
#902565916
0!
#902850166
1!
#903082208
0!
#904396333
1!
#904627833
0!
#904913500
1!
#905145000
0!
#906460083
1!
#906691583
0!
#906977375
1!
#907209708
0!
#908525000
1!
#908757000
0!
#909042083
1!
#909273958
0!
#910589541
1!
#910819916
0!
#911106416
1!
#911337083
0!
#912645041
1!
#912873583
0!
#922270666
1!
#922502458
0!
#925121125
1!
#925354416
0!
#925638166
1!
#925871125
0!
#927186166
1!
#927419833
0!
#928724875
1!
#928958958
0!
#929251250
1!
#929484958
0!
#930790291
1!
#931023333
0!
#931316208
1!
#931549875
0!
#932854291
1!
#933086958
0!
#933380416
1!
#933613000
0!
#933897333
1!
#934130000
0!
#935444166
1!
#935676125
0!
#936981833
1!
#937214333
0!
#937507250
1!
#937740041
0!
#939045625
1!
#939278333
0!
#939571166
1!
#939804708
0!
#940087791
1!
#940320458
0!
#941646666
1!
#941879416
0!
#943183875
1!
#943416416
0!
#943710000
1!
#943941875
0!
#944226166
1!
#944458875
0!
#945772958
1!
#946005541
0!
#947309791
1!
#947541708
0!
#947835791
1!
#948067750
0!
#949373458
1!
#949606750
0!
#949899458
1!
#950131875
0!
#951437416
1!
#951670416
0!
#951963500
1!
#952195291
0!
#952480333
1!
#952712500
0!
#954026833
1!
#954258625
0!
#954543458
1!
#954775500
0!
#956091583
1!
#956323916
0!
#956608625
1!
#956841000
0!
#958166625
1!
#958398708
0!
#959704458
1!
#959937166
0!
#960230333
1!
#960462708
0!
#960746375
1!
#960979083
0!
#962294291
1!
#962526291
0!
#963831583
1!
#964064458
0!
#964357250
1!
#964589583
0!
#965895333
1!
#966127166
0!
#966420750
1!
#966653541
0!
#966937750
1!
#967170083
0!
#968483833
1!
#968716416
0!
#969000416
1!
#969231916
0!
#970546666
1!
#970778958
0!
#971063250
1!
#971295416
0!
#972610166
1!
#972841666
0!
#974147791
1!
#974379291
0!
#974684000
1!
#974915625
0!
#976221083
1!
#976452833
0!
#976746708
1!
#976978291
0!
#977263083
1!
#977494833
0!
#978810083
1!
#979041333
0!
#980347708
1!
#980578958
0!
#980873291
1!
#981105041
0!
#981389958
1!
#981621708
0!
#982936458
1!
#983168291
0!
#983452375
1!
#983684000
0!
#984997791
1!
#985229791
0!
#985514583
1!
#985746416
0!
#987059666
1!
#987290541
0!
#987576166
1!
#987807958
0!
#989120708
1!
#989351916
0!
#989636750
1!
#989868166
0!
#991172666
1!
#991400916
0!
#1000787000
1!
#1001018541
0!
#1003631750
1!
#1003864625
0!
#1004147708
1!
#1004380666
0!
#1005692666
1!
#1005925541
0!
#1007228541
1!
#1007461666
0!
#1007753833
1!
#1007986708
0!
#1009289458
1!
#1009521291
0!
#1009814375
1!
#1010047125
0!
#1011349666
1!
#1011581833
0!
#1011875250
1!
#1012108458
0!
#1012391375
1!
#1012623083
0!
#1013936916
1!
#1014169583
0!
#1015472541
1!
#1015705125
0!
#1015997416
1!
#1016229375
0!
#1017533666
1!
#1017766416
0!
#1018059000
1!
#1018291083
0!
#1018574708
1!
#1018806875
0!
#1020131375
1!
#1020364916
0!
#1021668333
1!
#1021900833
0!
#1022194583
1!
#1022427625
0!
#1022711500
1!
#1022943958
0!
#1024258041
1!
#1024490083
0!
#1025795458
1!
#1026027083
0!
#1026320833
1!
#1026552666
0!
#1027856875
1!
#1028089208
0!
#1028382750
1!
#1028614000
0!
#1029918833
1!
#1030151250
0!
#1030443916
1!
#1030676000
0!
#1030959916
1!
#1031192000
0!
#1032504458
1!
#1032736458
0!
#1033020333
1!
#1033252166
0!
#1034565708
1!
#1034797958
0!
#1035082083
1!
#1035314416
0!
#1036638666
1!
#1036870333
0!
#1038174458
1!
#1038406291
0!
#1038699583
1!
#1038930708
0!
#1039215500
1!
#1039446416
0!
#1040759083
1!
#1040990583
0!
#1042294750
1!
#1042526375
0!
#1042819916
1!
#1043051000
0!
#1044355166
1!
#1044586125
0!
#1044879791
1!
#1045111750
0!
#1045396375
1!
#1045628166
0!
#1046941250
1!
#1047172375
0!
#1047456250
1!
#1047687916
0!
#1049000541
1!
#1049231916
0!
#1049516458
1!
#1049748333
0!
#1051061041
1!
#1051293208
0!
#1052596958
1!
#1052828458
0!
#1053132583
1!
#1053364291
0!
#1054667500
1!
#1054899500
0!
#1055193208
1!
#1055423958
0!
#1055708708
1!
#1055941125
0!
#1057253750
1!
#1057484791
0!
#1058789041
1!
#1059021000
0!
#1059314041
1!
#1059545250
0!
#1059829750
1!
#1060060958
0!
#1061373458
1!
#1061605250
0!
#1061889125
1!
#1062119083
0!
#1063432083
1!
#1063663958
0!
#1063947375
1!
#1064178916
0!
#1065491625
1!
#1065723000
0!
#1066008000
1!
#1066238583
0!
#1067552458
1!
#1067784583
0!
#1068068250
1!
#1068299666
0!
#1069603708
1!
#1069832958
0!
#1079208625
1!
#1079440125
0!
#1082051416
1!
#1082284333
0!
#1082567708
1!
#1082800375
0!
#1084112333
1!
#1084344208
0!
#1085647833
1!
#1085880958
0!
#1086172541
1!
#1086404833
0!
#1087707583
1!
#1087940041
0!
#1088232208
1!
#1088463708
0!
#1089767041
1!
#1089998708
0!
#1090291333
1!
#1090522916
0!
#1090806291
1!
#1091038041
0!
#1092350375
1!
#1092581750
0!
#1093885250
1!
#1094117000
0!
#1094409750
1!
#1094641750
0!
#1095945250
1!
