data/1_off.vcd
$timescale 1 ns $end
$scope module top $end
$var wire 1 ! Channel_0 $end
$upscope $end
$enddefinitions $end
#0
0!
#21044666
1!
#21278833
0!
#23884666
1!
#24119833
0!
#24400416
1!
#24635875
0!
#25943500
1!
#26177958
0!
#27476750
1!
#27711875
0!
#28000583
1!
#28235875
0!
#29534333
1!
#29768500
0!
#30058083
1!
#30292833
0!
#31591583
1!
#31826333
0!
#32116208
1!
#32350083
0!
#32631750
1!
#32866666
0!
#34175083
1!
#34409000
0!
#35708750
1!
#35943250
0!
#36233583
1!
#36468375
0!
#37766500
1!
#38001458
0!
#38290500
1!
#38525041
0!
#38806125
1!
#39039958
0!
#40358958
1!
#40592333
0!
#41890958
1!
#42125000
0!
#42415375
1!
#42649041
0!
#42930666
1!
#43164458
0!
#44473583
1!
#44706625
0!
#46007250
1!
#46241291
0!
#46532083
1!
#46766125
0!
#48066291
1!
#48299958
0!
#48590375
1!
#48824166
0!
#50124500
1!
#50358791
0!
#50649166
1!
#50882125
0!
#51164000
1!
#51398375
0!
#52706708
1!
#52940500
0!
#53221833
1!
#53456750
0!
#54765125
1!
#54999083
0!
#55280875
1!
#55514125
0!
#56835125
1!
#57069125
0!
#58368875
1!
#58602916
0!
#58893416
1!
#59127166
0!
#59408583
1!
#59642291
0!
#60950916
1!
#61184500
0!
#62485750
1!
#62719416
0!
#63010083
1!
#63244208
0!
#64544500
1!
#64778000
0!
#65069833
1!
#65302166
0!
#65584666
1!
#65818250
0!
#67128916
1!
#67361750
0!
#67644166
1!
#67878000
0!
#69187666
1!
#69420666
0!
#69703500
1!
#69937041
0!
#71246000
1!
#71480250
0!
#72780458
1!
#73012958
0!
#73315833
1!
#73549208
0!
#74849666
1!
#75082083
0!
#75374000
1!
#75606583
0!
#75889041
1!
#76121875
0!
#77430958
1!
#77663666
0!
#77946125
1!
#78178458
0!
#79487916
1!
#79720500
0!
#80003291
1!
#80235416
0!
#81545625
1!
#81777958
0!
#82060541
1!
#82294291
0!
#83603083
1!
#83836250
0!
#84118083
1!
#84350916
0!
#85660958
1!
#85894000
0!
#86176083
1!
#86408708
0!
#87718125
1!
#87951541
0!
#88233958
1!
#88467041
0!
#89767250
1!
#89996875
0!
#99365125
1!
