data/1_off.vcd
$timescale 1 ns $end
$scope module top $end
$var wire 1 ! Channel_0 $end
$upscope $end
$enddefinitions $end
#0
0!
#1166375
1!
#1401666
0!
#1682083
1!
#1916083
0!
#3224708
1!
#3459208
0!
#3739583
1!
#3973833
0!
#5281625
1!
#5515583
0!
#5796666
1!
#6030291
0!
#7340000
1!
#7573458
0!
#7854833
1!
#8089791
0!
#9397541
1!
#9631208
0!
#9912458
1!
#10146291
0!
#11446000
1!
#11676750
0!
#21044666
1!
#21278833
0!
#23884666
1!
#24119833
0!
#24400416
1!
#24635875
0!
#25943500
1!
#26177958
0!
#27476750
1!
#27711875
0!
#28000583
1!
#28235875
0!
#29534333
1!
#29768500
0!
#30058083
1!
#30292833
0!
#31591583
1!
#31826333
0!
#32116208
1!
#32350083
0!
#32631750
1!
#32866666
0!
#34175083
1!
#34409000
0!
#35708750
1!
#35943250
0!
#36233583
1!
#36468375
0!
#37766500
1!
#38001458
0!
#38290500
1!
#38525041
0!
#38806125
1!
#39039958
0!
#40358958
1!
#40592333
0!
#41890958
1!
#42125000
0!
#42415375
1!
#42649041
0!
#42930666
1!
#43164458
0!
#44473583
1!
#44706625
0!
#46007250
1!
#46241291
0!
#46532083
1!
#46766125
0!
#48066291
1!
#48299958
0!
#48590375
1!
#48824166
0!
#50124500
1!
#50358791
0!
#50649166
1!
#50882125
0!
#51164000
1!
#51398375
0!
#52706708
1!
#52940500
0!
#53221833
1!
#53456750
0!
#54765125
1!
#54999083
0!
#55280875
1!
#55514125
0!
#56835125
1!
#57069125
0!
#58368875
1!
#58602916
0!
#58893416
1!
#59127166
0!
#59408583
1!
#59642291
0!
#60950916
1!
#61184500
0!
#62485750
1!
#62719416
0!
#63010083
1!
#63244208
0!
#64544500
1!
#64778000
0!
#65069833
1!
#65302166
0!
#65584666
1!
#65818250
0!
#67128916
1!
#67361750
0!
#67644166
1!
#67878000
0!
#69187666
1!
#69420666
0!
#69703500
1!
#69937041
0!
#71246000
1!
#71480250
0!
#72780458
1!
#73012958
0!
#73315833
1!
#73549208
0!
#74849666
1!
#75082083
0!
#75374000
1!
#75606583
0!
#75889041
1!
#76121875
0!
#77430958
1!
#77663666
0!
#77946125
1!
#78178458
0!
#79487916
1!
#79720500
0!
#80003291
1!
#80235416
0!
#81545625
1!
#81777958
0!
#82060541
1!
#82294291
0!
#83603083
1!
#83836250
0!
#84118083
1!
#84350916
0!
#85660958
1!
#85894000
0!
#86176083
1!
#86408708
0!
#87718125
1!
#87951541
0!
#88233958
1!
#88467041
0!
#89767250
1!
#89996875
0!
#99365125
1!
#99597791
0!
#102206000
1!
#102438541
0!
#102721333
1!
#102955583
0!
#104263583
1!
#104496416
0!
#105797791
1!
#106031458
0!
#106321583
1!
#106555500
0!
#107855750
1!
#108089875
0!
#108380583
1!
#108614500
0!
#109914541
1!
#110147750
0!
#110439208
1!
#110672666
0!
#110954416
1!
#111187458
0!
#112497166
1!
#112730083
0!
#114031833
1!
#114266208
0!
#114556416
1!
#114790333
0!
#116090875
1!
#116324375
0!
#116615416
1!
#116848333
0!
#117131333
1!
#117364958
0!
#118686416
1!
#118919708
0!
#120220791
1!
#120454458
0!
#120745875
1!
#120979375
0!
#121261291
1!
#121494583
0!
#122804791
1!
#123037833
0!
#124339333
1!
#124571875
0!
#124863791
1!
#125097333
0!
#126397875
1!
#126630958
0!
#126922500
1!
#127156000
0!
#128456083
1!
#128688958
0!
#128980416
1!
#129213791
0!
#129495583
1!
#129728583
0!
#131039416
1!
#131272916
0!
#131555250
1!
#131787583
0!
#133097500
1!
#133330125
0!
#133612458
1!
#133845791
0!
#135166708
1!
#135399333
0!
#136700166
1!
#136933583
0!
#137224416
1!
#137457250
0!
#137739791
1!
#137972583
0!
#139282625
1!
#139516208
0!
#140817208
1!
#141049875
0!
#141342041
1!
#141575000
0!
#142876083
1!
#143109625
0!
#143401125
1!
#143634875
0!
#143916958
1!
#144150666
0!
#145459666
1!
#145693125
0!
#145975666
1!
#146208750
0!
#147518458
1!
#147751541
0!
#148033625
1!
#148266000
0!
#149576791
1!
#149809708
0!
#151110625
1!
#151344166
0!
#151646041
1!
#151878583
0!
#153179958
1!
#153413125
0!
#153703833
1!
#153936458
0!
#154219166
1!
#154452041
0!
#155762458
1!
#155995000
0!
#156277500
1!
#156510291
0!
#157820208
1!
#158052041
0!
#158335500
1!
#158568458
0!
#159878250
1!
#160111125
0!
#160393916
1!
#160626000
0!
#161936166
1!
#162168291
0!
#162451875
1!
#162684583
0!
#163994708
1!
#164227250
0!
#164509833
1!
#164741708
0!
#166053041
1!
#166285125
0!
#166568791
1!
#166800958
0!
#168101875
1!
#168331083
0!
#177694625
1!
#177927666
0!
#180535833
1!
#180769208
0!
#181052166
1!
#181285208
0!
#182594666
1!
#182828916
0!
#184130208
1!
#184364666
0!
#184655166
1!
#184888833
0!
#186190208
1!
#186423625
0!
#186715500
1!
#186949333
0!
#188249541
1!
#188483666
0!
#188774833
1!
#189008000
0!
#189290958
1!
#189524541
0!
#190835375
1!
#191067750
0!
#192370375
1!
#192603083
0!
#192895083
1!
#193127708
0!
#194429416
1!
#194663000
0!
#194954541
1!
#195187000
0!
#195469958
1!
#195703958
0!
#197025166
1!
#197258125
0!
#198560583
1!
#198794541
0!
#199085625
1!
#199318958
0!
#199601458
1!
#199835291
0!
#201146541
1!
#201380125
0!
#202680916
1!
#202913916
0!
#203205500
1!
#203438666
0!
#204740291
1!
#204972791
0!
#205264833
1!
#205497916
0!
#206799958
1!
#207033375
0!
#207324750
1!
#207557500
0!
#207840208
1!
#208073000
0!
#209384375
1!
#209617833
0!
#209899416
1!
#210131833
0!
#211440833
1!
#211673708
0!
#211956083
1!
#212188708
0!
#213509833
1!
#213743458
0!
#215043458
1!
#215276250
0!
#215567958
1!
#215800291
0!
#216083166
1!
#216315916
0!
#217626416
1!
#217859416
0!
#219160208
1!
#219393208
0!
#219684791
1!
#219917791
0!
#221218333
1!
#221451333
0!
#221742583
1!
#221974958
0!
#222257958
1!
#222490000
0!
#223801000
1!
#224034166
0!
#224315958
1!
#224548958
0!
#225859041
1!
#226090916
0!
#226374458
1!
#226607125
0!
#227917416
1!
#228149541
0!
#229451458
1!
#229682958
0!
#229987000
1!
#230219791
0!
#231520666
1!
#231753583
0!
#232045041
1!
#232277791
0!
#232560291
1!
#232792458
0!
#234103000
1!
#234335625
0!
#234618708
1!
#234852125
0!
#236162000
1!
#236395250
0!
#236677750
1!
#236909750
0!
#238220458
1!
#238452625
0!
#238735791
1!
#238968208
0!
#240278958
1!
#240511458
0!
#240794416
1!
#241027375
0!
#242337250
1!
#242569583
0!
#242852916
1!
#243084500
0!
#244395833
1!
#244627750
0!
#244911666
1!
#245144750
0!
#246446125
1!
#246675125
0!
#256047541
1!
#256279458
0!
#258886583
1!
#259119125
0!
#259401416
1!
#259633541
0!
#260943500
1!
#261175625
0!
#262475500
1!
#262708750
0!
#262999458
1!
#263231708
0!
#264531500
1!
#264763916
0!
#265055583
1!
#265287750
0!
#266588375
1!
#266821083
0!
#267112500
1!
#267344416
0!
#267627375
1!
#267859458
0!
#269169166
1!
#269401666
0!
#270701416
1!
#270934750
0!
#271225458
1!
#271457500
0!
#272757541
1!
#272990416
0!
#273282041
1!
#273513541
0!
#273796666
1!
#274028958
0!
#275350125
1!
#275583166
0!
#276882333
1!
#277114833
0!
#277406625
1!
#277639250
0!
#277921750
1!
#278154625
0!
#279463458
1!
#279696541
0!
#280996166
1!
#281228458
0!
#281520375
1!
#281751500
0!
#283052625
1!
#283285000
0!
#283576583
1!
#283808083
0!
#285108333
1!
#285340833
0!
#285632208
1!
#285863750
0!
#286146916
1!
#286378791
0!
#287687375
1!
#287919833
0!
#288202000
1!
#288434250
0!
#289743375
1!
#289975291
0!
#290257041
1!
#290489708
0!
#291809041
1!
#292040750
0!
#293341416
1!
#293572708
0!
#293865041
1!
#294097125
0!
#294379666
1!
#294611000
0!
#295920916
1!
#296153166
0!
#297453333
1!
#297684791
0!
#297977666
1!
#298209583
0!
#299509791
1!
#299742250
0!
#300033500
1!
#300265625
0!
#300548583
1!
#300780916
0!
#302090000
1!
#302322000
0!
#302604791
1!
#302836416
0!
#304145750
1!
#304377666
0!
#304660500
1!
#304891791
0!
#306201958
1!
#306433750
0!
#307732541
1!
#307964208
0!
#308267708
1!
#308499041
0!
#309799166
1!
#310031125
0!
#310322416
1!
#310555333
0!
#310837458
1!
#311069125
0!
#312378666
1!
#312610041
0!
#312893250
1!
#313124416
0!
#314435750
1!
#314668666
0!
#314951000
1!
#315183083
0!
#316494500
1!
#316726500
0!
#317010208
1!
#317241791
0!
#318551875
1!
#318784166
0!
#319066666
1!
#319298708
0!
#320608041
1!
#320840750
0!
#321123291
1!
#321355416
0!
#322665000
1!
#322896833
0!
#323179750
1!
#323412041
0!
#324712625
1!
#324942458
0!
#334302125
1!
#334533291
0!
#337139416
1!
#337373166
0!
#337654666
1!
#337888125
0!
#339197166
1!
#339430500
0!
#340729958
1!
#340964166
0!
#341254833
1!
#341487708
0!
#342787083
1!
#343020250
0!
#343310541
1!
#343544041
0!
#344844250
1!
#345077041
0!
#345368125
1!
#345600750
0!
#345882875
1!
#346114791
0!
#347424458
1!
#347656750
0!
#348956541
1!
#349189666
0!
#349480791
1!
#349714125
0!
#351013083
1!
#351245125
0!
#351536666
1!
#351769416
0!
#352051875
1!
#352284041
0!
#352284083
1!
#352284125
0!
#353604375
1!
#353836000
0!
#355136458
1!
#355369583
0!
#355660916
1!
#355894125
0!
#356175208
1!
#356407416
0!
#357716958
1!
#357949416
0!
#359249791
1!
#359482875
0!
#359774583
1!
#360006666
0!
#361307416
1!
#361539958
0!
#361831541
1!
#362064583
0!
#363364250
1!
#363597458
0!
#363888833
1!
#364120625
0!
#364403708
1!
#364635625
0!
#365945333
1!
#366178083
0!
#366460541
1!
#366692500
0!
#368003333
1!
#368235583
0!
#368518375
1!
#368751166
0!
#370071250
1!
#370303500
0!
#371603625
1!
#371835000
0!
#372126916
1!
#372358208
0!
#372641375
1!
#372873166
0!
#374182333
1!
#374414458
0!
#375714541
1!
#375945833
0!
#376238541
1!
#376469583
0!
#377769666
1!
#378001083
0!
#378293458
1!
#378524583
0!
#378807541
1!
#379039333
0!
#380348250
1!
#380580333
0!
#380863125
1!
#381095166
0!
#382403166
1!
#382635083
0!
#382918083
1!
#383149666
0!
#384459666
1!
#384692333
0!
#385991916
1!
#386224083
0!
#386527291
1!
#386759208
0!
#388060541
1!
#388291666
0!
#388584791
1!
#388816958
0!
#389099958
1!
#389331583
0!
#390641875
1!
#390873083
0!
#391156541
1!
#391387583
0!
#392697791
1!
#392929458
0!
#393212333
1!
#393443250
0!
#394752916
1!
#394984708
0!
#395267875
1!
#395499541
0!
#396810541
1!
#397041708
0!
#397325750
1!
#397557833
0!
#398867208
1!
#399098916
0!
#399382250
1!
#399614541
0!
#400924916
1!
#401156625
0!
#401439708
1!
#401671666
0!
#402972166
1!
#403200833
0!
#412559750
1!
#412791208
0!
#415395708
1!
#415629500
0!
#415911000
1!
#416144041
0!
#417452166
1!
#417685041
0!
#418983958
1!
#419217416
0!
#419508000
1!
#419741000
0!
#421040458
1!
#421273166
0!
#421564708
1!
#421798166
0!
#423096958
1!
#423330291
0!
#423620666
1!
#423853500
0!
#424135583
1!
#424367541
0!
#425676500
1!
#425908958
0!
#427208666
1!
#427441458
0!
#427732791
1!
#427966000
0!
#429264375
1!
#429497250
0!
#429788500
1!
#430021291
0!
#430303208
1!
#430535291
0!
#431855666
1!
#432087875
0!
#433388041
1!
#433621041
0!
#433912333
1!
#434145083
0!
#434427416
1!
#434658916
0!
#435968791
1!
#436201125
0!
#437500666
1!
#437732916
0!
#438024458
1!
#438257500
0!
#439555791
1!
#439788375
0!
#440080000
1!
#440312458
0!
#441611291
1!
#441844125
0!
#442134875
1!
#442367666
0!
#442649833
1!
#442881833
0!
#444191833
1!
#444425250
0!
#444706791
1!
#444939083
0!
#446248666
1!
#446481666
0!
#446763333
1!
#446995416
0!
#448315250
1!
#448547541
0!
#449847083
1!
#450079666
0!
#450370500
1!
#450602083
0!
#450885250
1!
#451116833
0!
#452425875
1!
#452658208
0!
#453957583
1!
#454189916
0!
#454481166
1!
#454712750
0!
#456012083
1!
#456244208
0!
#456536000
1!
#456768416
0!
#457050625
1!
#457282958
0!
#458591500
1!
#458823125
0!
#459106625
1!
#459338125
0!
#460647125
1!
#460879625
0!
#461162166
1!
#461393791
0!
#462702625
1!
#462935875
0!
#464234458
1!
#464467291
0!
#464769666
1!
#465000375
0!
#466300750
1!
#466533416
0!
#466823541
1!
#467055375
0!
#467338916
1!
#467570958
0!
#468879458
1!
#469111541
0!
#469394291
1!
#469626083
0!
#470934583
1!
#471165833
0!
#471449000
1!
#471680500
0!
#472990500
1!
#473222791
0!
#473504958
1!
#473736166
0!
#475046041
1!
#475277500
0!
#475560250
1!
#475792833
0!
#477102333
1!
#477334166
0!
#477617541
1!
#477849583
0!
#479157750
1!
#479390625
0!
#479672625
1!
#479905375
0!
#481205333
1!
#481433875
0!
#490793375
1!
#491024333
0!
#493629250
1!
#493861583
0!
#494143208
1!
#494376208
0!
#495684708
1!
#495917916
0!
#497217166
1!
#497450416
0!
#497741041
1!
#497974208
0!
#499272875
1!
#499505666
0!
#499796500
1!
#500029541
0!
#501328083
1!
#501560708
0!
#501852333
1!
#502084500
0!
#502366166
1!
#502598333
0!
#503907625
1!
#504140458
0!
#505439500
1!
#505670958
0!
#505963250
1!
#506195208
0!
#507493666
1!
#507726000
0!
#508017125
1!
#508249583
0!
#508532416
1!
#508763750
0!
#510083458
1!
#510315875
0!
#511614875
1!
#511846291
0!
#512138208
1!
#512370083
0!
#512652583
1!
#512883791
0!
#514193541
1!
#514425583
0!
#515724875
1!
#515957458
0!
#516248750
1!
#516480541
0!
#517779833
1!
#518011750
0!
#518303125
1!
#518535208
0!
#519834708
1!
#520066166
0!
#520358375
1!
#520590375
0!
#520872833
1!
#521105041
0!
#522412833
1!
#522644750
0!
#522927583
1!
#523159541
0!
#524467875
1!
#524699875
0!
#524982250
1!
#525214500
0!
#526534416
1!
#526765666
0!
#528065458
1!
#528296791
0!
#528589166
1!
#528821791
0!
#529103916
1!
#529335541
0!
#530645000
1!
#530876208
0!
#532177666
1!
#532409625
0!
#532701541
1!
#532933833
0!
#534233625
1!
#534466166
0!
#534757333
1!
#534989000
0!
#535272125
1!
#535504083
0!
#536812583
1!
#537044208
0!
#537327208
1!
#537558916
0!
#538867541
1!
#539099000
0!
#539381666
1!
#539614041
0!
#540923166
1!
#541155541
0!
#542454458
1!
#542685416
0!
#542988916
1!
#543221541
0!
#544520750
1!
#544751666
0!
#545044625
1!
#545275958
0!
#545558750
1!
#545790083
0!
#547099083
1!
#547331500
0!
#547613375
1!
#547844375
0!
#549153125
1!
#549384458
0!
#549667125
1!
#549897500
0!
#551207291
1!
#551438041
0!
#551721625
1!
#551953458
0!
#553261750
1!
#553493250
0!
#553776541
1!
#554008583
0!
#555316625
1!
#555547791
0!
#555831125
1!
#556062625
0!
#557371291
1!
#557602333
0!
#557885958
1!
#558117500
0!
#559417000
1!
#559645708
0!
#569005791
1!
#569237666
0!
#571842625
1!
#572074916
0!
#572357791
1!
#572590625
0!
#573899708
1!
#574132000
0!
#575431750
1!
#575665125
0!
#575955125
1!
#576188291
0!
#577486500
1!
#577718500
0!
#578010916
1!
#578243166
0!
#579542375
1!
#579774416
0!
#580065875
1!
#580299416
0!
#580581000
1!
#580813708
0!
#582121083
1!
#582353875
0!
#583652291
1!
#583885333
0!
#584175958
1!
#584408791
0!
#585707750
1!
#585940375
0!
#586231750
1!
#586464166
0!
#586745416
1!
#586977833
0!
#588297208
1!
#588528875
0!
#589827750
1!
#590059875
0!
#590351000
1!
#590583166
0!
#590865458
1!
#591097583
0!
#592405500
1!
#592637666
0!
#593937000
1!
#594167958
0!
#594460083
1!
#594692833
0!
#595991541
1!
#596222875
0!
#596514916
1!
#596746208
0!
#598045875
1!
#598277875
0!
#598569583
1!
#598800791
0!
#599083541
1!
#599315666
0!
#600623416
1!
#600856333
0!
#601138083
1!
#601370500
0!
#602678541
1!
#602910208
0!
#603192458
1!
#603424458
0!
#604743583
1!
#604976000
0!
#606274083
1!
#606505416
0!
#606798041
1!
#607030458
0!
#607312541
1!
#607545166
0!
#608853750
1!
#609085166
0!
#610385208
1!
#610616791
0!
#610908458
1!
#611140875
0!
#612440791
1!
#612672333
0!
#612964875
1!
#613197125
0!
#613479125
1!
#613710708
0!
#615018958
1!
#615251333
0!
#615533083
1!
#615764625
0!
#617073208
1!
#617305041
0!
#617587625
1!
#617819333
0!
#619127750
1!
#619359000
0!
#620658458
1!
#620891000
0!
#621193250
1!
#621425125
0!
#622725000
1!
#622957166
0!
#623248916
1!
#623480875
0!
#623763541
1!
#623995583
0!
#625304333
1!
#625535666
0!
#625819000
1!
#626050416
0!
#627358750
1!
#627590250
0!
#627873500
1!
#628105000
0!
#629413916
1!
#629644916
0!
#629928541
1!
#630160416
0!
#631470708
1!
#631701541
0!
#631985041
1!
#632217458
0!
#633525708
1!
#633756791
0!
#634040375
1!
#634271291
0!
#635580625
1!
#635811708
0!
#636095208
1!
#636326083
0!
#637626083
1!
#637855208
0!
#647214125
1!
#647445916
0!
#650050000
1!
#650283000
0!
#650564333
1!
#650797125
0!
#652104875
1!
#652337333
0!
#653635666
1!
#653869583
0!
#654159500
1!
#654392375
0!
#655691166
1!
#655924958
0!
#656214916
1!
#656447958
0!
#657746666
1!
#657979583
0!
#658270333
1!
#658503458
0!
#658785250
1!
#659018375
0!
#660326125
1!
#660558666
0!
#661858041
1!
#662090875
0!
#662382458
1!
#662614666
0!
#663914333
1!
#664147416
0!
#664438500
1!
#664671083
0!
#664953833
1!
#665186500
0!
#666506791
1!
#666739416
0!
#668039666
1!
#668272500
0!
#668563750
1!
#668796791
0!
#669078541
1!
#669311333
0!
#670620583
1!
#670853416
0!
#672152833
1!
#672385833
0!
#672676958
1!
#672909375
0!
#674209291
1!
#674442291
0!
#674733083
1!
#674965750
0!
#676265625
1!
#676498875
0!
#676790291
1!
#677022416
0!
#677304750
1!
#677537416
0!
#678846916
1!
#679078625
0!
#679361375
1!
#679593666
0!
#680903583
1!
#681136583
0!
#681419083
1!
#681651125
0!
#682971583
1!
#683203250
0!
#684504708
1!
#684736625
0!
#685028666
1!
#685260208
0!
#685543583
1!
#685775875
0!
#687084833
1!
#687317208
0!
#688616375
1!
#688849541
0!
#689140458
1!
#689373041
0!
#690674125
1!
#690906208
0!
#691197791
1!
#691429708
0!
#691712958
1!
#691944416
0!
#693253708
1!
#693486541
0!
#693768416
1!
#694000000
0!
#695309083
1!
#695541000
0!
#695823541
1!
#696055625
0!
#697363750
1!
#697596000
0!
#698895416
1!
#699127125
0!
#699430083
1!
#699662250
0!
#700962208
1!
#701194041
0!
#701485541
1!
#701717500
0!
#702000250
1!
#702231500
0!
#703540333
1!
#703771041
0!
#704054208
1!
#704286625
0!
#705594250
1!
#705825875
0!
#706108708
1!
#706339916
0!
#707649041
1!
#707881250
0!
#708164000
1!
#708396041
0!
#709704458
1!
#709936750
0!
#710219708
1!
#710451250
0!
#711760791
1!
#711992916
0!
#712274916
1!
#712506541
0!
#713816583
1!
#714047708
0!
#714331041
1!
#714562791
0!
#715862166
1!
#716090500
0!
#725450375
1!
#725682416
0!
#728288666
1!
#728521416
0!
#728803458
1!
#729036916
0!
#730344291
1!
#730577583
0!
#731877750
1!
#732110333
0!
#732401833
1!
#732633958
0!
#733934166
1!
#734167916
0!
#734458666
1!
#734691291
0!
#735990708
1!
#736223708
0!
#736514208
1!
#736746750
0!
#737029166
1!
#737261541
0!
#738570333
1!
#738802000
0!
#740102625
1!
#740334583
0!
#740626250
1!
#740859333
0!
#742158000
1!
#742390041
0!
#742681916
1!
#742913791
0!
#743196250
1!
#743429208
0!
#744749541
1!
#744982458
0!
#746281833
1!
#746514083
0!
#746805750
1!
#747038166
0!
#747320708
1!
#747553000
0!
#748862041
1!
#749093708
0!
#750395250
1!
#750627166
0!
#750919625
1!
#751153000
0!
#752454000
1!
#752686625
0!
#752978583
1!
#753211041
0!
#754510708
1!
#754742458
0!
#755034583
1!
#755266500
0!
#755549041
1!
#755780791
0!
#757090000
1!
#757321166
0!
#757604416
1!
#757835791
0!
#759144708
1!
#759375833
0!
#759659375
1!
#759890291
0!
#761211000
1!
#761443208
0!
#762742375
1!
#762973916
0!
#763266208
1!
#763497791
0!
#763780458
1!
#764011916
0!
#765319916
1!
#765551958
0!
#766850541
1!
#767081666
0!
#767373625
1!
#767605416
0!
#768904750
1!
#769135583
0!
#769428583
1!
#769660458
0!
#769943083
1!
#770174708
0!
#771483500
1!
#771715458
0!
#771998041
1!
#772229333
0!
#773537833
1!
#773769791
0!
#774052500
1!
#774284791
0!
#775592666
1!
#775824875
0!
#777124458
1!
#777356416
0!
#777659041
1!
#777890375
0!
#779189625
1!
#779421000
0!
#779713583
1!
#779945166
0!
#780228041
1!
#780460250
0!
#781767458
1!
#781999000
0!
#782282125
1!
#782513375
0!
#783821625
1!
#784053333
0!
#784336125
1!
#784566916
0!
#785876208
1!
#786108500
0!
#786390833
1!
#786621833
0!
#787931791
1!
#788162583
0!
#788446041
1!
#788677458
0!
#789986250
1!
#790218041
0!
#790500458
1!
#790731458
0!
#792040791
1!
#792271625
0!
#792555208
1!
#792786541
0!
#794085708
1!
#794314791
0!
#803668083
1!
#803900000
0!
#806504041
1!
#806736583
0!
#807018333
1!
#807250750
0!
#808559000
1!
#808792166
0!
#810089291
1!
#810322291
0!
#810613000
1!
#810845875
0!
#812144791
1!
#812378166
0!
#812668625
1!
#812901416
0!
#814200666
1!
#814433666
0!
#814724166
1!
#814957041
0!
#815238583
1!
#815471833
0!
#816779291
1!
#817012125
0!
#818310458
1!
#818543291
0!
#818834458
1!
#819067041
0!
#820365041
1!
#820597125
0!
#820888583
1!
#821120541
0!
#821403416
1!
#821635875
0!
#822954541
1!
#823187916
0!
#824486375
1!
#824719625
0!
#825010791
1!
#825242166
0!
#825525375
1!
#825757833
0!
#827066666
1!
#827298916
0!
#828599125
1!
#828831500
0!
#829122500
1!
#829354875
0!
#830653291
1!
#830885625
0!
#831176791
1!
#831408375
0!
#832709708
1!
#832942625
0!
#833233458
1!
#833465916
0!
#833748583
1!
#833981125
0!
#835291250
1!
#835523166
0!
#835805750
1!
#836038041
0!
#837348083
1!
#837580250
0!
#837863500
1!
#838095416
0!
#839416333
1!
#839647666
0!
#840949375
1!
#841181958
0!
#841473958
1!
#841706458
0!
#841989250
1!
#842221541
0!
#843532375
1!
#843764291
0!
#845066333
1!
#845298250
0!
#845591000
1!
#845822583
0!
#847123750
1!
#847355708
0!
#847648458
1!
#847881416
0!
#848163708
1!
#848396666
0!
#849706000
1!
#849937375
0!
#850221875
1!
#850453583
0!
#851763750
1!
#851995666
0!
#852278791
1!
#852510875
0!
#853821708
1!
#854052833
0!
#855354166
1!
#855586833
0!
#855889583
1!
#856120666
0!
#857421375
1!
#857653500
0!
#857945416
1!
#858177291
0!
#858460375
1!
#858692833
0!
#860002750
1!
#860234666
0!
#860517666
1!
#860750083
0!
#862060166
1!
#862293208
0!
#862575833
1!
#862806791
0!
#864117333
1!
#864348250
0!
#864632875
1!
#864864166
0!
#866175000
1!
#866406750
0!
#866690500
1!
#866922041
0!
#868233291
1!
#868464166
0!
#868748041
1!
#868980625
0!
#870290666
1!
#870521541
0!
#870805541
1!
#871037708
0!
#872336541
1!
#872565666
0!
#881916666
1!
#882147583
0!
#884751541
1!
#884984375
0!
#885265041
1!
#885497500
0!
#886804625
1!
#887036875
0!
#888335041
1!
#888567541
0!
#888858375
1!
#889091250
0!
#890388333
1!
#890620958
0!
#890912208
1!
#891144000
0!
#892442583
1!
#892674291
0!
#892965208
1!
#893197791
0!
#893479333
1!
#893711791
0!
#895018458
1!
#895250791
0!
#896548541
1!
#896780750
0!
#897071833
1!
#897304958
0!
#898602291
1!
#898834666
0!
#899126041
1!
#899358333
0!
#899640291
1!
#899872416
0!
#901190791
1!
#901422750
0!
#902721458
1!
#902953500
0!
#903244375
1!
#903476916
0!
#903758958
1!
#903990583
0!
#905298458
1!
#905531125
0!
#906828500
1!
#907060208
0!
#907351291
1!
#907584208
0!
#908881416
1!
#909112708
0!
#909404958
1!
#909636666
0!
#910935083
1!
#911166041
0!
#911458291
1!
#911690250
0!
#911972666
1!
#912203916
0!
#913512166
1!
#913743916
0!
#914027208
1!
#914259000
0!
#915566625
1!
#915798500
0!
#916081458
1!
#916313125
0!
#917632375
1!
#917863958
0!
#919162875
1!
#919395208
0!
#919686375
1!
#919918583
0!
#920200375
1!
#920432375
0!
#921739083
1!
#921970000
0!
#923268458
1!
#923500500
0!
#923791250
1!
#924022083
0!
#925321041
1!
#925552791
0!
#925844541
1!
#926075375
0!
#926358916
1!
#926590000
0!
#927897708
1!
#928128708
0!
#928411500
1!
#928642291
0!
#929950500
1!
#930182041
0!
#930464416
1!
#930696125
0!
#932003708
1!
#932235041
0!
#933533833
1!
#933766000
0!
#934068500
1!
#934299541
0!
#935598250
1!
#935829083
0!
#936121833
1!
#936353666
0!
#936635458
1!
#936867041
0!
#938174458
1!
#938405791
0!
#938688166
1!
#938919000
0!
#940227291
1!
#940459291
0!
#940741416
1!
#940972416
0!
#942281125
1!
#942512250
0!
#942795250
1!
#943027250
0!
#944334916
1!
#944567583
0!
#944849166
1!
#945080750
0!
#946388916
1!
#946619583
0!
#946903083
1!
#947134833
0!
#948442791
1!
#948675083
0!
#948957500
1!
#949188125
0!
#950488291
1!
#950717166
0!
#960075625
1!
#960307958
0!
#962912291
1!
#963145416
0!
#963427166
1!
#963659583
0!
#964968166
1!
#965200750
0!
#966500250
1!
#966733208
0!
#967024083
1!
#967256625
0!
#968554916
1!
#968787708
0!
#969078750
1!
#969311041
0!
#970610458
1!
#970842791
0!
#971134000
1!
#971366291
0!
#971648791
1!
#971881208
0!
#973189708
1!
#973422791
0!
#974720500
1!
#974953291
0!
#975244291
1!
#975476875
0!
#976775333
1!
#977007708
0!
#977298958
1!
#977531666
0!
#977812916
1!
#978045541
0!
#979363583
1!
#979595791
0!
#980895125
1!
#981127250
0!
#981418625
1!
#981650583
0!
#981934000
1!
#982166791
0!
#983474250
1!
#983706583
0!
#985005583
1!
#985237833
0!
#985529416
1!
#985762208
0!
#987061666
1!
#987294250
0!
#987586208
1!
#987818166
0!
#989118041
1!
#989350666
0!
#989641416
1!
#989872708
0!
#990156625
1!
#990387750
0!
#991697500
1!
#991928333
0!
#992212458
1!
#992444625
0!
#993752583
1!
#993985291
0!
#994267625
1!
#994499000
0!
#995820041
1!
#996051125
0!
#997351125
1!
#997583208
0!
#997875416
1!
#998106916
0!
#998389250
1!
#998621250
0!
#999929625
1!
#1000161666
0!
#1001460666
1!
#1001691833
0!
#1001984125
1!
#1002215750
0!
#1003515166
1!
#1003747125
0!
#1004038500
1!
#1004269750
0!
#1004552541
1!
#1004783666
0!
#1006092541
1!
#1006324958
0!
#1006606958
1!
#1006838166
0!
#1008147083
1!
#1008378291
0!
#1008660958
1!
#1008892625
0!
#1010201083
1!
#1010431916
0!
#1011731625
1!
#1011962833
0!
#1012266166
1!
#1012497083
0!
#1013796291
1!
#1014028125
0!
#1014320000
1!
#1014551750
0!
#1014834458
1!
#1015065875
0!
#1016373916
1!
#1016606333
0!
#1016888083
1!
#1017119958
0!
#1018428333
1!
#1018660166
0!
#1018942625
1!
#1019174208
0!
#1020481958
1!
#1020713291
0!
#1020996375
1!
#1021227625
0!
#1022537041
1!
#1022768125
0!
#1023050583
1!
#1023281500
0!
#1024591625
1!
#1024822416
0!
#1025105666
1!
#1025336833
0!
#1026644583
1!
#1026876416
0!
#1027159416
1!
#1027390458
0!
#1028691291
1!
#1028919291
0!
#1038281666
1!
#1038513541
0!
#1041122333
1!
#1041355875
0!
#1041637333
1!
#1041871083
0!
#1043179708
1!
#1043413375
0!
#1044713541
1!
#1044947041
0!
#1045237750
1!
#1045469916
0!
#1046772083
1!
#1047005375
0!
#1047296208
1!
#1047529916
0!
#1048829500
1!
#1049062875
0!
#1049353708
1!
#1049585541
0!
#1049868500
1!
#1050101000
0!
#1051411041
1!
#1051643375
0!
#1052944250
1!
#1053177791
0!
#1053468458
1!
#1053701791
0!
#1055002916
1!
#1055235666
0!
#1055527708
1!
#1055760333
0!
#1056042958
1!
#1056276416
0!
#1057597125
1!
#1057829500
0!
#1059131333
1!
#1059364041
0!
#1059655458
1!
#1059887708
0!
#1060171041
1!
#1060403875
0!
#1061713583
1!
#1061945916
0!
#1063247208
1!
#1063479333
0!
#1063771375
1!
#1064003541
0!
#1065304125
1!
#1065537208
0!
#1065828041
1!
#1066060875
0!
#1067360000
1!
#1067592083
0!
#1067883208
1!
#1068115916
0!
#1068397416
1!
#1068628916
0!
#1069937125
1!
#1070168833
0!
#1070450208
1!
#1070682291
0!
#1071989708
1!
#1072221208
0!
#1072503416
1!
#1072735791
0!
#1074054041
1!
#1074286000
0!
#1075584833
1!
#1075817791
0!
#1076108916
1!
#1076340541
0!
#1076623500
1!
#1076854958
0!
#1078164291
1!
#1078395791
0!
#1079696125
1!
#1079928083
0!
#1080220041
1!
#1080451166
0!
#1081750708
1!
#1081982416
0!
#1082273958
1!
#1082505416
0!
#1082787916
1!
#1083019500
0!
#1084328375
1!
#1084559583
0!
#1084842583
1!
#1085073583
0!
#1086381625
1!
#1086613000
0!
#1086896000
1!
#1087128125
0!
#1088435666
1!
#1088666541
0!
#1089966125
1!
#1090198041
0!
#1090500791
1!
#1090732916
0!
#1092031875
1!
#1092263750
0!
#1092555083
1!
#1092786458
0!
#1093069166
1!
