data/1_on.vcd
$timescale 1 ns $end
$scope module top $end
$var wire 1 ! Channel_0 $end
$upscope $end
$enddefinitions $end
#0
0!
#67747958
1!
#67985375
0!
#70588208
1!
#70827791
0!
#71103625
1!
#71341625
0!
#72645833
1!
#72883916
0!
#74179083
1!
#74417750
0!
#74703833
1!
#74940083
0!
#76236000
1!
#76474750
0!
#76759750
1!
#76997708
0!
#78293375
1!
#78531375
0!
#78817708
1!
#79056000
0!
#79333125
1!
#79570583
0!
#80876625
1!
#81116000
0!
#82409750
1!
#82648083
0!
#82935500
1!
#83172833
0!
#84469500
1!
#84708958
0!
#84994958
1!
#85231416
0!
#85511833
1!
#85749208
0!
#87063625
1!
#87300750
0!
#88597791
1!
#88833583
0!
#89122458
1!
#89359166
0!
#89637625
1!
#89874750
0!
#91181208
1!
#91418833
0!
#92716041
1!
#92954750
0!
#93240916
1!
#93478875
0!
#94776458
1!
#95013166
0!
#95302833
1!
#95540500
0!
#96834250
1!
#97071333
0!
#97359416
1!
#97595833
0!
#97873958
1!
#98112083
0!
#99417375
1!
#99654791
0!
#99933250
1!
#100172833
0!
#101475875
1!
#101712375
0!
#101992000
1!
#102228166
0!
#103545000
1!
#103781375
0!
#105079708
1!
#105316041
0!
#105604958
1!
#105841291
0!
#106117583
1!
#106353416
0!
#107659791
1!
#107896333
0!
#109194375
1!
#109430791
0!
#109719875
1!
#109957166
0!
#111255125
1!
#111491750
0!
#111779458
1!
#112016458
0!
#112296250
1!
#112532166
0!
#113840500
1!
#114077833
0!
#114356208
1!
#114591333
0!
#115901125
1!
#116136833
0!
#116415458
1!
#116652916
0!
#117958583
1!
#118196166
0!
#119493666
1!
#119730958
0!
#120029583
1!
#120266791
0!
#121564583
1!
#121800875
0!
#122089583
1!
#122326958
0!
#122605375
1!
#122840750
0!
#124150416
1!
#124386458
0!
#124665875
1!
#124903833
0!
#126209333
1!
#126444500
0!
#127745458
1!
#127982208
0!
#128269208
1!
#128505750
0!
#128785625
1!
#129022125
0!
#130331333
1!
#130568916
0!
#130846958
1!
#131083958
0!
#132390500
1!
#132626750
0!
#132905958
1!
#133141083
0!
#134448666
1!
#134683625
0!
#134964791
1!
#135202833
0!
#136498791
1!
#136730458
0!
#146106250
1!