data/2_off.vcd
$timescale 1 ns $end
$scope module top $end
$var wire 1 ! Channel_0 $end
$upscope $end
$enddefinitions $end
#0
0!
#2208166
1!
#2440875
0!
#5044666
1!
#5278666
0!
#5559625
1!
#5792916
0!
#7100000
1!
#7333583
0!
#8633291
1!
#8866833
0!
#9156791
1!
#9390166
0!
#10689333
1!
#10922583
0!
#11213041
1!
#11446625
0!
#12745000
1!
#12979666
0!
#13269666
1!
#13502750
0!
#13784583
1!
#14017708
0!
#15326583
1!
#15560458
0!
#16859333
1!
#17093000
0!
#17383041
1!
#17616416
0!
#18915958
1!
#19148750
0!
#19439750
1!
#19673708
0!
#19954083
1!
#20186500
0!
#21506625
1!
#21739500
0!
#23038250
1!
#23271666
0!
#23562625
1!
#23795791
0!
#24077791
1!
#24310791
0!
#25619166
1!
#25852333
0!
#27151791
1!
#27384625
0!
#27675166
1!
#27907833
0!
#29207375
1!
#29441000
0!
#29731250
1!
#29964750
0!
#31264458
1!
#31496791
0!
#31788625
1!
#32021583
0!
#32303458
1!
#32536250
0!
#33845375
1!
#34078541
0!
#34360000
1!
#34593541
0!
#35901416
1!
#36134416
0!
#36416166
1!
#36648041
0!
#37968291
1!
#38201291
0!
#39500750
1!
#39733916
0!
#40024958
1!
#40258208
0!
#40539916
1!
#40772625
0!
#42082416
1!
#42315000
0!
#43614666
1!
#43848291
0!
#44138708
1!
#44371958
0!
#45671750
1!
#45905250
0!
#46196041
1!
#46428333
0!
#46711416
1!
#46943958
0!
#48252250
1!
#48484583
0!
#48767041
1!
#49000416
0!
#50308125
1!
#50541500
0!
#50823083
1!
#51055041
0!
#52365500
1!
#52597875
0!
#53898750
1!
#54131708
0!
#54433875
1!
#54666541
0!
#55966916
1!
#56199666
0!
#56490666
1!
#56723416
0!
#57006000
1!
#57238708
0!
#58548208
1!
#58781250
0!
#59063416
1!
#59296000
0!
#60605875
1!
#60838458
0!
#61120458
1!
#61352333
0!
#62662500
1!
#62894458
0!
#63177083
1!
#63410208
0!
#64719166
1!
#64952708
0!
#65234791
1!
#65467750
0!
#66776958
1!
#67009541
0!
#67292250
1!
#67524416
0!
#68834625
1!
#69066958
0!
#70368041
1!
#70600041
0!
#70883250
1!
#71112500
0!
#80475416
1!