data/2_off.vcd
$timescale 1 ns $end
$scope module top $end
$var wire 1 ! Channel_0 $end
$upscope $end
$enddefinitions $end
#0
0!
#2208166
1!
#2440875
0!
#5044666
1!
#5278666
0!
#5559625
1!
#5792916
0!
#7100000
1!
#7333583
0!
#8633291
1!
#8866833
0!
#9156791
1!
#9390166
0!
#10689333
1!
#10922583
0!
#11213041
1!
#11446625
0!
#12745000
1!
#12979666
0!
#13269666
1!
#13502750
0!
#13784583
1!
#14017708
0!
#15326583
1!
#15560458
0!
#16859333
1!
#17093000
0!
#17383041
1!
#17616416
0!
#18915958
1!
#19148750
0!
#19439750
1!
#19673708
0!
#19954083
1!
#20186500
0!
#21506625
1!
#21739500
0!
#23038250
1!
#23271666
0!
#23562625
1!
#23795791
0!
#24077791
1!
#24310791
0!
#25619166
1!
#25852333
0!
#27151791
1!
#27384625
0!
#27675166
1!
#27907833
0!
#29207375
1!
#29441000
0!
#29731250
1!
#29964750
0!
#31264458
1!
#31496791
0!
#31788625
1!
#32021583
0!
#32303458
1!
#32536250
0!
#33845375
1!
#34078541
0!
#34360000
1!
#34593541
0!
#35901416
1!
#36134416
0!
#36416166
1!
#36648041
0!
#37968291
1!
#38201291
0!
#39500750
1!
#39733916
0!
#40024958
1!
#40258208
0!
#40539916
1!
#40772625
0!
#42082416
1!
#42315000
0!
#43614666
1!
#43848291
0!
#44138708
1!
#44371958
0!
#45671750
1!
#45905250
0!
#46196041
1!
#46428333
0!
#46711416
1!
#46943958
0!
#48252250
1!
#48484583
0!
#48767041
1!
#49000416
0!
#50308125
1!
#50541500
0!
#50823083
1!
#51055041
0!
#52365500
1!
#52597875
0!
#53898750
1!
#54131708
0!
#54433875
1!
#54666541
0!
#55966916
1!
#56199666
0!
#56490666
1!
#56723416
0!
#57006000
1!
#57238708
0!
#58548208
1!
#58781250
0!
#59063416
1!
#59296000
0!
#60605875
1!
#60838458
0!
#61120458
1!
#61352333
0!
#62662500
1!
#62894458
0!
#63177083
1!
#63410208
0!
#64719166
1!
#64952708
0!
#65234791
1!
#65467750
0!
#66776958
1!
#67009541
0!
#67292250
1!
#67524416
0!
#68834625
1!
#69066958
0!
#70368041
1!
#70600041
0!
#70883250
1!
#71112500
0!
#80475416
1!
#80708166
0!
#83315458
1!
#83548416
0!
#83830500
1!
#84063458
0!
#85374166
1!
#85606875
0!
#86907083
1!
#87139833
0!
#87430791
1!
#87662916
0!
#88963833
1!
#89196958
0!
#89488291
1!
#89720666
0!
#91022125
1!
#91254833
0!
#91546500
1!
#91779000
0!
#92061875
1!
#92293000
0!
#93603666
1!
#93836500
0!
#95137333
1!
#95369958
0!
#95662166
1!
#95894041
0!
#97195583
1!
#97427416
0!
#97719791
1!
#97951666
0!
#98234916
1!
#98467291
0!
#99788250
1!
#100020625
0!
#101321875
1!
#101554041
0!
#101846041
1!
#102078083
0!
#102361583
1!
#102593708
0!
#103904000
1!
#104136333
0!
#105437583
1!
#105670791
0!
#105962083
1!
#106194166
0!
#107495291
1!
#107728458
0!
#108019291
1!
#108252375
0!
#109552458
1!
#109784208
0!
#110076291
1!
#110309708
0!
#110591500
1!
#110823833
0!
#112134500
1!
#112367416
0!
#112648750
1!
#112881625
0!
#114191958
1!
#114424125
0!
#114707291
1!
#114940875
0!
#116261458
1!
#116493833
0!
#117795000
1!
#118027541
0!
#118318875
1!
#118550375
0!
#118833958
1!
#119065291
0!
#120376958
1!
#120608666
0!
#121910041
1!
#122142375
0!
#122435041
1!
#122668291
0!
#123968458
1!
#124200666
0!
#124492833
1!
#124725291
0!
#125007958
1!
#125240750
0!
#126549291
1!
#126781541
0!
#127064458
1!
#127296666
0!
#128607041
1!
#128838708
0!
#129122208
1!
#129354791
0!
#130664583
1!
#130897250
0!
#132197125
1!
#132429083
0!
#132732041
1!
#132964291
0!
#134264833
1!
#134497291
0!
#134789625
1!
#135021583
0!
#135304875
1!
#135537208
0!
#136847583
1!
#137079875
0!
#137362750
1!
#137594333
0!
#138904500
1!
#139135833
0!
#139418666
1!
#139651458
0!
#140960708
1!
#141192583
0!
#141476250
1!
#141708000
0!
#143019291
1!
#143250250
0!
#143533791
1!
#143766083
0!
#145076833
1!
#145307916
0!
#145592625
1!
#145824000
0!
#147135625
1!
#147367333
0!
#148669291
1!
#148900708
0!
#149183958
1!
#149412375
0!
#158779958
1!
#159013166
0!
#161618875
1!
#161853208
0!
#162133958
1!
#162367041
0!
#163676375
1!
#163910041
0!
#165210333
1!
#165444250
0!
#165735250
1!
#165969166
0!
#167269291
1!
#167503666
0!
#167794083
1!
#168026791
0!
#169329083
1!
#169563166
0!
#169854291
1!
#170088583
0!
#170370375
1!
#170603750
0!
#171915333
1!
#172149666
0!
#173450916
1!
#173684375
0!
#173976875
1!
#174210916
0!
#175513375
1!
#175746333
0!
#176038583
1!
#176272708
0!
#176554708
1!
#176788875
0!
#178111500
1!
#178344458
0!
#179647875
1!
#179882625
0!
#180173375
1!
#180407333
0!
#180689625
1!
#180922666
0!
#182234583
1!
#182467291
0!
#183770458
1!
#184004708
0!
#184295791
1!
#184529625
0!
#185832291
1!
#186066500
0!
#186357416
1!
#186590416
0!
#187892833
1!
#188126208
0!
#188417750
1!
#188650958
0!
#188933375
1!
#189168000
0!
#190478750
1!
#190711375
0!
#190994583
1!
#191227083
0!
#192538875
1!
#192772375
0!
#193055250
1!
#193289083
0!
#194611875
1!
#194844541
0!
#196147166
1!
#196380666
0!
#196672083
1!
#196904958
0!
#197187291
1!
#197419583
0!
#198731000
1!
#198964375
0!
#200265708
1!
#200499250
0!
#200790375
1!
#201023291
0!
#202324750
1!
#202558000
0!
#202848916
1!
#203080708
0!
#203363541
1!
#203596708
0!
#204906416
1!
#205138583
0!
#205421500
1!
#205654541
0!
#206964125
1!
#207196541
0!
#207478875
1!
#207711791
0!
#209021458
1!
#209253708
0!
#210555583
1!
#210788666
0!
#211090708
1!
#211322291
0!
#212625041
1!
#212857416
0!
#213149041
1!
#213381791
0!
#213664083
1!
#213896958
0!
#215207041
1!
#215438625
0!
#215722041
1!
#215954583
0!
#217263375
1!
#217496500
0!
#217778416
1!
#218011125
0!
#219320000
1!
#219552666
0!
#219835541
1!
#220067625
0!
#221377291
1!
#221610041
0!
#221892416
1!
#222124500
0!
#223434333
1!
#223667041
0!
#223949208
1!
#224181666
0!
#225492625
1!
#225725958
0!
#227026833
1!
#227259250
0!
#227543208
1!
#227772333
0!
#237148208
1!
#237380333
0!
#239985416
1!
#240217541
0!
#240500125
1!
#240733166
0!
#242040750
1!
#242273458
0!
#243572291
1!
#243806125
0!
#244096833
1!
#244330208
0!
#245628166
1!
#245861666
0!
#246152333
1!
#246386000
0!
#247685208
1!
#247917750
0!
#248209041
1!
#248442583
0!
#248724166
1!
#248957791
0!
#250266458
1!
#250499541
0!
#251799791
1!
#252034000
0!
#252324083
1!
#252557250
0!
#253857125
1!
#254090166
0!
#254382083
1!
#254616083
0!
#254897541
1!
#255131500
0!
#256451250
1!
#256684500
0!
#257983500
1!
#258216375
0!
#258508041
1!
#258740750
0!
#259023166
1!
#259255958
0!
#260565458
1!
#260797708
0!
#262099208
1!
#262332666
0!
#262623250
1!
#262855791
0!
#264156041
1!
#264389458
0!
#264680291
1!
#264913750
0!
#266213041
1!
#266445958
0!
#266737375
1!
#266969916
0!
#267251875
1!
#267484000
0!
#268793500
1!
#269026166
0!
#269308833
1!
#269541833
0!
#270849208
1!
#271081958
0!
#271364833
1!
#271596833
0!
#272916333
1!
#273149250
0!
#274447416
1!
#274679583
0!
#274971500
1!
#275204041
0!
#275485958
1!
#275717833
0!
#277026416
1!
#277258541
0!
#278557333
1!
#278790625
0!
#279081041
1!
#279313666
0!
#280611541
1!
#280845250
0!
#281135625
1!
#281367500
0!
#281650541
1!
#281882625
0!
#283191750
1!
#283423291
0!
#283706041
1!
#283938625
0!
#285247791
1!
#285479541
0!
#285762000
1!
#285993583
0!
#287303291
1!
#287535083
0!
#288834583
1!
#289066333
0!
#289369541
1!
#289602583
0!
#290901208
1!
#291134166
0!
#291425291
1!
#291658041
0!
#291940500
1!
#292172625
0!
#293481041
1!
#293714041
0!
#293996208
1!
#294228875
0!
#295538833
1!
#295771666
0!
#296053666
1!
#296285083
0!
#297595416
1!
#297827250
0!
#298109791
1!
#298341708
0!
#299650833
1!
#299882666
0!
#300166041
1!
#300397583
0!
#301707958
1!
#301941166
0!
#302224041
1!
#302456666
0!
#303765791
1!
#303998541
0!
#305299833
1!
#305531291
0!
#305815000
1!
#306044583
0!
#315408791
1!
#315641333
0!
#318247833
1!
#318482000
0!
#318762833
1!
#318996625
0!
#320304958
1!
#320538833
0!
#321838333
1!
#322071500
0!
#322362750
1!
#322596083
0!
#323895708
1!
#324129291
0!
#324420416
1!
#324653416
0!
#325954333
1!
#326187875
0!
#326478916
1!
#326712125
0!
#326993916
1!
#327226333
0!
#328535083
1!
#328768875
0!
#330067458
1!
#330300666
0!
#330591791
1!
#330824750
0!
#332123791
1!
#332357000
0!
#332648416
1!
#332881166
0!
#333163416
1!
#333396375
0!
#334716916
1!
#334949666
0!
#336250791
1!
#336484125
0!
#336774750
1!
#337007833
0!
#337290541
1!
#337522583
0!
#338832916
1!
#339065833
0!
#340366000
1!
#340599375
0!
#340890541
1!
#341123541
0!
#342423291
1!
#342655625
0!
#342947125
1!
#343180125
0!
#344479416
1!
#344712666
0!
#345003416
1!
#345236666
0!
#345518833
1!
#345750625
0!
#347061166
1!
#347293625
0!
#347575666
1!
#347808333
0!
#349117666
1!
#349350416
0!
#349632916
1!
#349865958
0!
#351187041
1!
#351420166
0!
#352721208
1!
#352954250
0!
#353245208
1!
#353478541
0!
#353760583
1!
#353994375
0!
#355304166
1!
#355537166
0!
#356836958
1!
#357070625
0!
#357361708
1!
#357594541
0!
#358894500
1!
#359127750
0!
#359418916
1!
#359652041
0!
#359934125
1!
#360166208
0!
#361476500
1!
#361708541
0!
#361992250
1!
#362225291
0!
#363534166
1!
#363766958
0!
#364049750
1!
#364282125
0!
#365592791
1!
#365825250
0!
#367126541
1!
#367358833
0!
#367662333
1!
#367894833
0!
#369195541
1!
#369428541
0!
#369720000
1!
#369952125
0!
#370235791
1!
#370468041
0!
#371778708
1!
#372010750
0!
#372294083
1!
#372526750
0!
#373836250
1!
#374069291
0!
#374352166
1!
#374585000
0!
#375895291
1!
#376127041
0!
#376410541
1!
#376643083
0!
#377954375
1!
#378186541
0!
#378469291
1!
#378702125
0!
#380012541
1!
#380244541
0!
#380527583
1!
#380759208
0!
#382069250
1!
#382302041
0!
#383602000
1!
#383834458
0!
#384117125
1!
#384346833
0!
#393716375
1!
#393949125
0!
#396556041
1!
#396789916
0!
#397070958
1!
#397305166
0!
#398613875
1!
#398847875
0!
#400147583
1!
#400380750
0!
#400672750
1!
#400905166
0!
#402205875
1!
#402439291
0!
#402730208
1!
#402963541
0!
#404263625
1!
#404498166
0!
#404788791
1!
#405021458
0!
#405304250
1!
#405537958
0!
#406846791
1!
#407079833
0!
#408380125
1!
#408613916
0!
#408905166
1!
#409138166
0!
#410438625
1!
#410672083
0!
#410963166
1!
#411196041
0!
#411478708
1!
#411710916
0!
#413032500
1!
#413265500
0!
#414566083
1!
#414798791
0!
#415090250
1!
#415323541
0!
#415606000
1!
#415839041
0!
#417148666
1!
#417381208
0!
#418681166
1!
#418913750
0!
#419205958
1!
#419438833
0!
#420739583
1!
#420971875
0!
#421263916
1!
#421497125
0!
#422797166
1!
#423030208
0!
#423320958
1!
#423553375
0!
#423836791
1!
#424069333
0!
#425380291
1!
#425613000
0!
#425895708
1!
#426127750
0!
#427439791
1!
#427672833
0!
#427955291
1!
#428188166
0!
#429509875
1!
#429743208
0!
#431044916
1!
#431277416
0!
#431569625
1!
#431802250
0!
#432085416
1!
#432318458
0!
#433628000
1!
#433861083
0!
#435162333
1!
#435395625
0!
#435687250
1!
#435919833
0!
#437220250
1!
#437452500
0!
#437744541
1!
#437976791
0!
#438259958
1!
#438493458
0!
#439801750
1!
#440033875
0!
#440317333
1!
#440549166
0!
#441860208
1!
#442092625
0!
#442376041
1!
#442607500
0!
#443919083
1!
#444151416
0!
#445452708
1!
#445684291
0!
#445988375
1!
#446219875
0!
#447521791
1!
#447753416
0!
#448046041
1!
#448278500
0!
#448561375
1!
#448793125
0!
#450104041
1!
#450336791
0!
#450620250
1!
#450853041
0!
#452163458
1!
#452395250
0!
#452678791
1!
#452910458
0!
#454221125
1!
#454453541
0!
#454737083
1!
#454969375
0!
#456280458
1!
#456513208
0!
#456795625
1!
#457028125
0!
#458338458
1!
#458571291
0!
#458853625
1!
#459086375
0!
#460395958
1!
#460629625
0!
#461929875
1!
#462162208
0!
#462445375
1!
#462674833
0!
#472043750
1!
#472275541
0!
#474883666
1!
#475116583
0!
#475398500
1!
#475631375
0!
#476941625
1!
#477175250
0!
#478475166
1!
#478708625
0!
#478999250
1!
#479232416
0!
#480531625
1!
#480764541
0!
#481055791
1!
#481288833
0!
#482589666
1!
#482822458
0!
#483114041
1!
#483347291
0!
#483629000
1!
#483861083
0!
#485171416
1!
#485403375
0!
#486704250
1!
#486936916
0!
#487228708
1!
#487460583
0!
#488761250
1!
#488993708
0!
#489285416
1!
#489517750
0!
#489800791
1!
#490033291
0!
#491352000
1!
#491584541
0!
#492884666
1!
#493117208
0!
#493408916
1!
#493642416
0!
#493923666
1!
#494157291
0!
#495465375
1!
#495698125
0!
#496998416
1!
#497230583
0!
#497522791
1!
#497755875
0!
#499055208
1!
#499287541
0!
#499579000
1!
#499810708
0!
#501111291
1!
#501344000
0!
#501635125
1!
#501867000
0!
#502149833
1!
#502382041
0!
#503690875
1!
#503923666
0!
#504206166
1!
#504438583
0!
#505749250
1!
#505982166
0!
#506264458
1!
#506496458
0!
#507817125
1!
#508049000
0!
#509349375
1!
#509582333
0!
#509873666
1!
#510105125
0!
#510389125
1!
#510620458
0!
#511930833
1!
#512163666
0!
#513464000
1!
#513695875
0!
#513987958
1!
#514220416
0!
#515521375
1!
#515753500
0!
#516045500
1!
#516277291
0!
#516559541
1!
#516790875
0!
#518101041
1!
#518332375
0!
#518616125
1!
#518848708
0!
#520157958
1!
#520390625
0!
#520672833
1!
#520904208
0!
#522214083
1!
#522446375
0!
#523745875
1!
#523978583
0!
#524281166
1!
#524513708
0!
#525815125
1!
#526046500
0!
#526339000
1!
#526571958
0!
#526854333
1!
#527087041
0!
#528395750
1!
#528628666
0!
#528910708
1!
#529143041
0!
#530453041
1!
#530685000
0!
#530968208
1!
#531199708
0!
#532509458
1!
#532741500
0!
#533024666
1!
#533255708
0!
#534567500
1!
#534799750
0!
#535083250
1!
#535314291
0!
#536625166
1!
#536857458
0!
#537141041
1!
#537373083
0!
#538682000
1!
#538914333
0!
#540215625
1!
#540447458
0!
#540730208
1!
#540958416
0!
#550327833
1!
#550559666
0!
#553171208
1!
#553404750
0!
#553687041
1!
#553919833
0!
#555231916
1!
#555466125
0!
#556766875
1!
#557001125
0!
#557292083
1!
#557524708
0!
#558827416
1!
#559061875
0!
#559352333
1!
#559585916
0!
#560888791
1!
#561122833
0!
#561413958
1!
#561647500
0!
#561930083
1!
#562163375
0!
#563475208
1!
#563708458
0!
#565008291
1!
#565241958
0!
#565532875
1!
#565765875
0!
#567066583
1!
#567300125
0!
#567591125
1!
#567824041
0!
#568106541
1!
#568339125
0!
#569660166
1!
#569893250
0!
#571193208
1!
#571426666
0!
#571717625
1!
#571950833
0!
#572233041
1!
#572466333
0!
#573775041
1!
#574007916
0!
#575308458
1!
#575541166
0!
#575832291
1!
#575832375
0!
#575832458
1!
#576065416
0!
#577365583
1!
#577598416
0!
#577889375
1!
#578122208
0!
#579422333
1!
#579655416
0!
#579946416
1!
#580180208
0!
#580461458
1!
#580694000
0!
#582003916
1!
#582236291
0!
#582518791
1!
#582750291
0!
#584061250
1!
#584293833
0!
#584576750
1!
#584809333
0!
#586129416
1!
#586363083
0!
#587663291
1!
#587895833
0!
#588187500
1!
#588420875
0!
#588702791
1!
#588935541
0!
#590245166
1!
#590477916
0!
#591778041
1!
#592010708
0!
#592302166
1!
#592534416
0!
#593835291
1!
#594067833
0!
#594359041
1!
#594591583
0!
#594874958
1!
#595107333
0!
#596416791
1!
#596648750
0!
#596931958
1!
#597163375
0!
#598473583
1!
#598705625
0!
#598988208
1!
#599219625
0!
#600531041
1!
#600762791
0!
#602064333
1!
#602296958
0!
#602599833
1!
#602832375
0!
#604134125
1!
#604365541
0!
#604658208
1!
#604890541
0!
#605173125
1!
#605405625
0!
#606715750
1!
#606946583
0!
#607230375
1!
#607461916
0!
#608773000
1!
#609005208
0!
#609288958
1!
#609520583
0!
#610833208
1!
#611064916
0!
#611349250
1!
#611582166
0!
#612893333
1!
#613125916
0!
#613409291
1!
#613641708
0!
#614954250
1!
#615187333
0!
#615470291
1!
#615701541
0!
#617013875
1!
#617245083
0!
#618546958
1!
#618778208
0!
#619062000
1!
#619289666
0!
#628658500
1!
#628889958
0!
#631498708
1!
#631732541
0!
#632014000
1!
#632246666
0!
#633556041
1!
#633788958
0!
#635089500
1!
#635323208
0!
#635614000
1!
#635846791
0!
#637147250
1!
#637381208
0!
#637672000
1!
#637904750
0!
#639205166
1!
#639438708
0!
#639728833
1!
#639962833
0!
#640243750
1!
#640476416
0!
#641786208
1!
#642020208
0!
#643319333
1!
#643552166
0!
#643843291
1!
#644075583
0!
#645376083
1!
#645609458
0!
#645899416
1!
#646132125
0!
#646415041
1!
#646648125
0!
#647968541
1!
#648201166
0!
#649500958
1!
#649733750
0!
#650025208
1!
#650258333
0!
#650540833
1!
#650774041
0!
#652083500
1!
#652315541
0!
#653616583
1!
#653849250
0!
#654140041
1!
#654373625
0!
#655673583
1!
#655907458
0!
#656197708
1!
#656430166
0!
#657729375
1!
#657962333
0!
#658253458
1!
#658486791
0!
#658768041
1!
#659001291
0!
#660309208
1!
#660543125
0!
#660824750
1!
#661057625
0!
#662365708
1!
#662598833
0!
#662881041
1!
#663113208
0!
#664434000
1!
#664666083
0!
#665967500
1!
#666199750
0!
#666492291
1!
#666724541
0!
#667008416
1!
#667241458
0!
#668553166
1!
#668785583
0!
#670088416
1!
#670321500
0!
#670613791
1!
#670846791
0!
#672149416
1!
#672381583
0!
#672674625
1!
#672908208
0!
#673191000
1!
#673424375
0!
#674734541
1!
#674967041
0!
#675250083
1!
#675481875
0!
#676791416
1!
#677024458
0!
#677307125
1!
#677539416
0!
#678849375
1!
#679081541
0!
#680382666
1!
#680615208
0!
#680918083
1!
#681150333
0!
#682451625
1!
#682683583
0!
#682976375
1!
#683208416
0!
#683491666
1!
#683725291
0!
#685034958
1!
#685266208
0!
#685550416
1!
#685782333
0!
#687092708
1!
#687324791
0!
#687607916
1!
#687839208
0!
#689150500
1!
#689383125
0!
#689665250
1!
#689898500
0!
#691208833
1!
#691441458
0!
#691723833
1!
#691956791
0!
#693265958
1!
#693498333
0!
#693781083
1!
#694013583
0!
#695324208
1!
#695555666
0!
#696857458
1!
#697089291
0!
#697372541
1!
#697601208
0!
#706968250
1!
#707200416
0!
#709807791
1!
#710041583
0!
#710323208
1!
#710557291
0!
#711865416
1!
#712099666
0!
#713398208
1!
#713631500
0!
#713922333
1!
#714155708
0!
#715455541
1!
#715688000
0!
#715980125
1!
#716214500
0!
#717512833
1!
#717746500
0!
#718037375
1!
#718269583
0!
#718551875
1!
#718785291
0!
#720094208
1!
#720327083
0!
#721627708
1!
#721860625
0!
#722151791
1!
#722384500
0!
#723684833
1!
#723917750
0!
#724208916
1!
#724441875
0!
#724723916
1!
#724956250
0!
#726277666
1!
#726510791
0!
#727809791
1!
#728043500
0!
#728333750
1!
#728566750
0!
#728848958
1!
#729082125
0!
#730390958
1!
#730624541
0!
#731923000
1!
#732155250
0!
#732447125
1!
#732680333
0!
#733980000
1!
#734213583
0!
#734504000
1!
#734737333
0!
#736037250
1!
#736271166
0!
#736561458
1!
#736794166
0!
#737076541
1!
#737309125
0!
#738618458
1!
#738852333
0!
#739133375
1!
#739365625
0!
#740674625
1!
#740907250
0!
#741189250
1!
#741421958
0!
#742742583
1!
#742976250
0!
#744275916
1!
#744508250
0!
#744800375
1!
#745033333
0!
#745315333
1!
#745547666
0!
#746858000
1!
#747091125
0!
#748390708
1!
#748623208
0!
#748914666
1!
#749147708
0!
#750446625
1!
#750679416
0!
#750971041
1!
#751203708
0!
#751486250
1!
#751718458
0!
#753028250
1!
#753261250
0!
#753543458
1!
#753775541
0!
#755087041
1!
#755320750
0!
#755602916
1!
#755836375
0!
#757147750
1!
#757381458
0!
#758682541
1!
#758916166
0!
#759218541
1!
#759450666
0!
#760754708
1!
#760987750
0!
#761279625
1!
#761513041
0!
#761795000
1!
#762028416
0!
#763340166
1!
#763574041
0!
#763856041
1!
#764089041
0!
#765400750
1!
#765633750
0!
#765916541
1!
#766148375
0!
#767458875
1!
#767691875
0!
#767974041
1!
#768205791
0!
#769514791
1!
#769748041
0!
#770029916
1!
#770261916
0!
#771571916
1!
#771804500
0!
#772086541
1!
#772318208
0!
#773628208
1!
#773860458
0!
#775161166
1!
#775394041
0!
#775675375
1!
#775904583
0!
#785266541
1!
#785498541
0!
#788104500
1!
#788337291
0!
#788619000
1!
#788851833
0!
#790159583
1!
#790392791
0!
#791691583
1!
#791925791
0!
#792215833
1!
#792449666
0!
#793748041
1!
#793981250
0!
#794272083
1!
#794505958
0!
#795805125
1!
#796039083
0!
#796328791
1!
#796562000
0!
#796844291
1!
#797077916
0!
#798385291
1!
#798618583
0!
#799917541
1!
#800151541
0!
#800442541
1!
#800676333
0!
#801975083
1!
#802208291
0!
#802499125
1!
#802732375
0!
#803014166
1!
#803246875
0!
#804567291
1!
#804800500
0!
#806101583
1!
#806335541
0!
#806625875
1!
#806858916
0!
#807140958
1!
#807373916
0!
#808682791
1!
#808915125
0!
#810214666
1!
#810447625
0!
#810738958
1!
#810971250
0!
#812272666
1!
#812505541
0!
#812796125
1!
#813028416
0!
#814329708
1!
#814562416
0!
#814853916
1!
#815087125
0!
#815369208
1!
#815601291
0!
#816911541
1!
#817144208
0!
#817426291
1!
#817659083
0!
#818968250
1!
#819200791
0!
#819483583
1!
#819716500
0!
#821036208
1!
#821268583
0!
#822568958
1!
#822801583
0!
#823093208
1!
#823326750
0!
#823608291
1!
#823840958
0!
#825149791
1!
#825383083
0!
#826683291
1!
#826915625
0!
#827208000
1!
#827440166
0!
#828740750
1!
#828972833
0!
#829265125
1!
#829497291
0!
#829780500
1!
#830012250
0!
#831322875
1!
#831555416
0!
#831838125
1!
#832070000
0!
#833380041
1!
#833612958
0!
#833894833
1!
#834127208
0!
#835437875
1!
#835669375
0!
#836971000
1!
#837203875
0!
#837506125
1!
#837737833
0!
#839039333
1!
#839271916
0!
#839563875
1!
#839796583
0!
#840079000
1!
#840310833
0!
#841621125
1!
#841853791
0!
#842136458
1!
#842368541
0!
#843679208
1!
#843911458
0!
#844194458
1!
#844426291
0!
#845736500
1!
#845969166
0!
#846251916
1!
#846482875
0!
#847794583
1!
#848027166
0!
#848309500
1!
#848541958
0!
#849852208
1!
#850083916
0!
#850367250
1!
#850599166
0!
#851909625
1!
#852141208
0!
#853442000
1!
#853674000
0!
#853957291
1!
#854186125
0!
#863551291
1!
#863783750
0!
#866390708
1!
#866624500
0!
#866905541
1!
#867138958
0!
#868446125
1!
#868679333
0!
#869977625
1!
#870210166
0!
#870501458
1!
#870733916
0!
#872033500
1!
#872267250
0!
#872557666
1!
#872790750
0!
#874089958
1!
#874323125
0!
#874613916
1!
#874847208
0!
#875129708
1!
#875362333
0!
#876671958
1!
#876905458
0!
#878204333
1!
#878437250
0!
#878728458
1!
#878962458
0!
#880262375
1!
#880496291
0!
#880786375
1!
#881019750
0!
#881301625
1!
#881535041
0!
#882855041
1!
#883089083
0!
#884388625
1!
#884621916
0!
#884913291
1!
#885147541
0!
#885428791
1!
#885662583
0!
#886971333
1!
#887204750
0!
#888504625
1!
#888739208
0!
#889029250
1!
#889262916
0!
#890561833
1!
#890796000
0!
#891086333
1!
#891320041
0!
#892619750
1!
#892852916
0!
#892852958
1!
#892853000
0!
#893143791
1!
#893378166
0!
#893659250
1!
#893892916
0!
#895202125
1!
#895435708
0!
#895716750
1!
#895950166
0!
#897259583
1!
#897493333
0!
#897775333
1!
#898008541
0!
#899328541
1!
#899561375
0!
#900861416
1!
#901095583
0!
#901385625
1!
#901618958
0!
#901900291
1!
#902133125
0!
#903442083
1!
#903675125
0!
#904974541
1!
#905207291
0!
#905498666
1!
#905731000
0!
#907031250
1!
#907264708
0!
#907555375
1!
#907788000
0!
#908070625
1!
#908303041
0!
#909612083
1!
#909846083
0!
#910127291
1!
#910359750
0!
#911669000
1!
#911903000
0!
#912183875
1!
#912416791
0!
#913726458
1!
#913959333
0!
#915260583
1!
#915493416
0!
#915795916
1!
#916029666
0!
#917329875
1!
#917562583
0!
#917854541
1!
#918086166
0!
#918369541
1!
#918601916
0!
#919912458
1!
#920144666
0!
#920427916
1!
#920661041
0!
#921971500
1!
#922204083
0!
#922487041
1!
#922720708
0!
#924029791
1!
#924262541
0!
#924544791
1!
#924777375
0!
#926087000
1!
#926319416
0!
#926601875
1!
#926833958
0!
#928144125
1!
#928376750
0!
#928659291
1!
#928891500
0!
#930201791
1!
#930434375
0!
#931734833
1!
#931967291
0!
#932249833
1!
#932479000
0!
#941847708
1!
#942079708
0!
#944687583
1!
#944920833
0!
#945203750
1!
#945437083
0!
#946746333
1!
#946979833
0!
#948280708
1!
#948513458
0!
#948805500
1!
#949037458
0!
#950338958
1!
#950572833
0!
#950864083
1!
#951096666
0!
#952398666
1!
#952633583
0!
#952923750
1!
#953156916
0!
#953439583
1!
#953672583
0!
#954983416
1!
#955216916
0!
#956518250
1!
#956751958
0!
#957043375
1!
#957275791
0!
#958577208
1!
#958810791
0!
#959102000
1!
#959335666
0!
#959617583
1!
#959851791
0!
#961171500
1!
#961405166
0!
#962705791
1!
#962939708
0!
#963230750
1!
#963463458
0!
#963745791
1!
#963979125
0!
#965288583
1!
#965521083
0!
#966821708
1!
#967054583
0!
#967346125
1!
#967578625
0!
#968879375
1!
#969112041
0!
#969403916
1!
#969636916
0!
#970936666
1!
#971170166
0!
#971461125
1!
#971695625
0!
#971976583
1!
#972209666
0!
#973519291
1!
#973753208
0!
#974034333
1!
#974266583
0!
#975576500
1!
#975809250
0!
#976091875
1!
#976325875
0!
#977645791
1!
#977879333
0!
#979178083
1!
#979410625
0!
#979702666
1!
#979935541
0!
#980217416
1!
#980449583
0!
#981759416
1!
#981991416
0!
#983291666
1!
#983523416
0!
#983815875
1!
#984048291
0!
#985348708
1!
#985581291
0!
#985872875
1!
#986105000
0!
#986388208
1!
#986619833
0!
#987930375
1!
#988161875
0!
#988445541
1!
#988677666
0!
#989987583
1!
#990219958
0!
#990502708
1!
#990734458
0!
#992044916
1!
#992276708
0!
#993576500
1!
#993808208
0!
#994111583
1!
#994342791
0!
#995644291
1!
#995876666
0!
#996168291
1!
#996399375
0!
#996682958
1!
#996914416
0!
#998224375
1!
#998455958
0!
#998738875
1!
#998971541
0!
#1000279750
1!
#1000512500
0!
#1000794250
1!
#1001027541
0!
#1002335750
1!
#1002567625
0!
#1002850291
1!
#1003083166
0!
#1004391750
1!
#1004625000
0!
#1004907250
1!
#1005140166
0!
#1006449833
1!
#1006681458
0!
#1006964708
1!
#1007195958
0!
#1008506208
1!
#1008737500
0!
#1010038458
1!
#1010270083
0!
#1010553541
1!
#1010782750
0!
#1020150416
1!
#1020381791
0!
#1022989791
1!
#1023223541
0!
#1023505333
1!
#1023738250
0!
#1025047750
1!
#1025281416
0!
#1026581750
1!
#1026814625
0!
#1027106125
1!
#1027338625
0!
#1028638958
1!
#1028872250
0!
#1029163166
1!
#1029396750
0!
#1030696000
1!
#1030928875
0!
#1031220208
1!
#1031453000
0!
#1031734791
1!
#1031968250
0!
#1033275416
1!
#1033507791
0!
#1034807166
1!
#1035039750
0!
#1035331208
1!
#1035563666
0!
#1036863208
1!
#1037096208
0!
#1037387416
1!
#1037620041
0!
#1037902000
1!
#1038134375
0!
#1039453833
1!
#1039686958
0!
#1040985250
1!
#1041218166
0!
#1041509291
1!
#1041740958
0!
#1042024125
1!
#1042256708
0!
#1043564833
1!
#1043796291
0!
#1045097041
1!
#1045329000
0!
#1045620875
1!
#1045853666
0!
#1047152958
1!
#1047385666
0!
#1047677291
1!
#1047909541
0!
#1049209541
1!
#1049443000
0!
#1049734708
1!
#1049967375
0!
#1050249958
1!
#1050482500
0!
#1051791833
1!
#1052024000
0!
#1052307250
1!
#1052539875
0!
#1053849041
1!
#1054081083
0!
#1054363791
1!
#1054596750
0!
#1055917666
1!
#1056149333
0!
#1057451000
1!
#1057683333
0!
#1057975916
1!
#1058208000
0!
#1058490875
1!
#1058723000
0!
#1060033166
1!
#1060266208
0!
#1061567125
1!
#1061800208
0!
#1062091416
1!
#1062323958
0!
#1063625833
1!
#1063859000
0!
#1064150666
1!
#1064383333
0!
#1064665625
1!
#1064898541
0!
#1066209666
1!
#1066441875
0!
#1066724583
1!
#1066956833
0!
#1068267041
1!
#1068499750
0!
#1068782250
1!
#1069014166
0!
#1070324583
1!
#1070555958
0!
#1071858583
1!
#1072090541
0!
#1072393625
1!
#1072626125
0!
#1073927458
1!
#1074159291
0!
#1074451625
1!
#1074684041
0!
#1074966208
1!
#1075199250
0!
#1076508791
1!
#1076741833
0!
#1077024125
1!
#1077256041
0!
#1078565666
1!
#1078798666
0!
#1079081125
1!
#1079313166
0!
#1080622833
1!
#1080854666
0!
#1081138208
1!
#1081370416
0!
#1082680041
1!
#1082912416
0!
#1083195041
1!
#1083427250
0!
#1084737333
1!
#1084969208
0!
#1085252583
1!
#1085485333
0!
#1086795166
1!
