data/2_on.vcd
$timescale 1 ns $end
$scope module top $end
$var wire 1 ! Channel_0 $end
$upscope $end
$enddefinitions $end
#0
0!
#73209166
1!
#73446000
0!
#76048166
1!
#76287791
0!
#76563458
1!
#76801833
0!
#78109750
1!
#78346458
0!
#79641250
1!
#79880916
0!
#80166458
1!
#80405166
0!
#81701708
1!
#81940791
0!
#82226541
1!
#82465500
0!
#83763041
1!
#84001291
0!
#84286666
1!
#84526250
0!
#84803583
1!
#85042458
0!
#86347500
1!
#86586333
0!
#87882125
1!
#88119000
0!
#88410375
1!
#88647875
0!
#89941750
1!
#90180083
0!
#90466791
1!
#90704416
0!
#90982291
1!
#91220500
0!
#92538083
1!
#92776291
0!
#94070708
1!
#94308958
0!
#94594541
1!
#94833916
0!
#95109625
1!
#95346750
0!
#96651291
1!
#96889333
0!
#98184125
1!
#98421666
0!
#98708333
1!
#98944166
0!
#100237875
1!
#100475208
0!
#100761333
1!
#100999333
0!
#102294291
1!
#102533333
0!
#102817958
1!
#103054666
0!
#103333541
1!
#103571083
0!
#104874250
1!
#105111375
0!
#105388625
1!
#105625583
0!
#106931125
1!
#107167125
0!
#107445708
1!
#107680333
0!
#108997125
1!
#109233833
0!
#110527750
1!
#110766250
0!
#111051958
1!
#111288458
0!
#111566416
1!
#111802875
0!
#113106916
1!
#113342458
0!
#114638208
1!
#114874750
0!
#115161333
1!
#115398416
0!
#116692333
1!
#116928750
0!
#117216875
1!
#117453916
0!
#117731333
1!
#117968041
0!
#119272000
1!
#119507833
0!
#119786041
1!
#120023083
0!
#121326250
1!
#121562458
0!
#121841041
1!
#122078625
0!
#123382000
1!
#123619208
0!
#124914375
1!
#125151041
0!
#125449250
1!
#125686791
0!
#126979750
1!
#127215708
0!
#127503958
1!
#127739666
0!
#128019291
1!
#128254875
0!
#129557833
1!
#129794083
0!
#130072291
1!
#130308041
0!
#131612833
1!
#131848916
0!
#133145208
1!
#133382208
0!
#133668458
1!
#133905541
0!
#134182916
1!
#134420083
0!
#135723250
1!
#135959958
0!
#136237958
1!
#136474083
0!
#137777791
1!
#138014208
0!
#138294083
1!
#138528500
0!
#139832375
1!
#140068916
0!
#141363541
1!
#141599750
0!
#141878583
1!
#142110291
0!
#151460333
1!