data/3_off.vcd
$timescale 1 ns $end
$scope module top $end
$var wire 1 ! Channel_0 $end
$upscope $end
$enddefinitions $end
#0
0!
#7458333
1!
#7691000
0!
#10298333
1!
#10530958
0!
#10813583
1!
#11046250
0!
#12355666
1!
#12588416
0!
#13888041
1!
#14121250
0!
#14412041
1!
#14644291
0!
#15944750
1!
#16178416
0!
#16468875
1!
#16701000
0!
#18001666
1!
#18233958
0!
#18525416
1!
#18758750
0!
#19041041
1!
#19273750
0!
#20583250
1!
#20816125
0!
#22118458
1!
#22350833
0!
#22642916
1!
#22875833
0!
#24176958
1!
#24409708
0!
#24701250
1!
#24934208
0!
#25216750
1!
#25449958
0!
#26770916
1!
#27002750
0!
#28303791
1!
#28536375
0!
#28828041
1!
#29060541
0!
#29343416
1!
#29575416
0!
#30885125
1!
#31117875
0!
#32419291
1!
#32652333
0!
#32944333
1!
#33177458
0!
#34479250
1!
#34712666
0!
#35004833
1!
#35237416
0!
#36540750
1!
#36774458
0!
#37066083
1!
#37298291
0!
#37582458
1!
#37815416
0!
#39127416
1!
#39360625
0!
#39643666
1!
#39877000
0!
#41189375
1!
#41422625
0!
#41705000
1!
#41937416
0!
#43261458
1!
#43492958
0!
#44796583
1!
#45029416
0!
#45321583
1!
#45555083
0!
#45838333
1!
#46071416
0!
#47383541
1!
#47616750
0!
#48919333
1!
#49151958
0!
#49444875
1!
#49677125
0!
#50980333
1!
#51212958
0!
#51505708
1!
#51737750
0!
#52021708
1!
#52254875
0!
#53566500
1!
#53799583
0!
#54082916
1!
#54314250
0!
#55627416
1!
#55859541
0!
#56143625
1!
#56376416
0!
#57688583
1!
#57920916
0!
#59221708
1!
#59454041
0!
#59756791
1!
#59988875
0!
#61289708
1!
#61522541
0!
#61813708
1!
#62045208
0!
#62329666
1!
#62562000
0!
#63872000
1!
#64103166
0!
#64386750
1!
#64619333
0!
#65929916
1!
#66162250
0!
#66445208
1!
#66678291
0!
#67988666
1!
#68220333
0!
#68504416
1!
#68736625
0!
#70047583
1!
#70279500
0!
#70563208
1!
#70795166
0!
#72106458
1!
#72339041
0!
#73640250
1!
#73872541
0!
#74164958
1!
#74397166
0!
#74680291
1!
#74911708
0!
#76214666
1!
#76443416
0!
#85817958
1!