data/3_on.vcd
$timescale 1 ns $end
$scope module top $end
$var wire 1 ! Channel_0 $end
$upscope $end
$enddefinitions $end
#0
0!
#58737041
1!
#58970250
0!
#61576250
1!
#61811500
0!
#62091125
1!
#62324833
0!
#63630833
1!
#63866083
0!
#65163000
1!
#65398291
0!
#65686791
1!
#65921208
0!
#67219000
1!
#67452791
0!
#67742416
1!
#67976416
0!
#69274125
1!
#69508000
0!
#69798625
1!
#70032666
0!
#70312791
1!
#70546541
0!
#71853833
1!
#72087333
0!
#73383500
1!
#73618000
0!
#73906958
1!
#74140958
0!
#75439291
1!
#75673708
0!
#75962333
1!
#76196500
0!
#76477833
1!
#76711833
0!
#78028291
1!
#78262875
0!
#79559750
1!
#79794416
0!
#80084083
1!
#80318000
0!
#80598250
1!
#80831250
0!
#82138291
1!
#82371416
0!
#83667625
1!
#83902208
0!
#84190916
1!
#84424916
0!
#85721583
1!
#85957208
0!
#86244833
1!
#86479958
0!
#87775666
1!
#88008791
0!
#88298791
1!
#88532708
0!
#88812583
1!
#89046500
0!
#90354000
1!
#90588916
0!
#90868291
1!
#91102291
0!
#92409291
1!
#92642458
0!
#92923333
1!
#93158041
0!
#94473916
1!
#94706416
0!
#96005708
1!
#96240541
0!
#96528958
1!
#96762750
0!
#97044708
1!
#97278250
0!
#98584666
1!
#98818875
0!
#100117166
1!
#100350125
0!
#100640625
1!
#100875125
0!
#102172958
1!
#102406291
0!
#102697291
1!
#102930916
0!
#103211333
1!
#103444625
0!
#104752333
1!
#104985000
0!
#105266708
1!
#105501333
0!
#106808791
1!
#107042458
0!
#107324166
1!
#107557791
0!
#108865208
1!
#109098833
0!
#110399625
1!
#110632791
0!
#110934250
1!
#111168541
0!
#112467541
1!
#112700083
0!
#112991916
1!
#113225250
0!
#113506083
1!
#113739166
0!
#115047916
1!
#115281666
0!
#115563291
1!
#115797458
0!
#117105250
1!
#117338083
0!
#118637041
1!
#118870958
0!
#119160708
1!
#119394291
0!
#119676458
1!
#119909708
0!
#121218541
1!
#121451458
0!
#121733166
1!
#121966083
0!
#123275291
1!
#123510166
0!
#124806333
1!
#125039541
0!
#125330666
1!
#125563708
0!
#125845583
1!
#126079541
0!
#127378375
1!
#127609041
0!
#136973625
1!