data/all_off.vcd
$timescale 1 ns $end
$scope module top $end
$var wire 1 ! Channel_0 $end
$upscope $end
$enddefinitions $end
#0
0!
#60019958
1!
#60249500
0!
#62857833
1!
#63089458
0!
#63372916
1!
#63604666
0!
#64914833
1!
#65146833
0!
#66447000
1!
#66678500
0!
#66971208
1!
#67203458
0!
#68503875
1!
#68736083
0!
#69028125
1!
#69259125
0!
#70560958
1!
#70792041
0!
#71084708
1!
#71316083
0!
#71600208
1!
#71831250
0!
#73140666
1!
#73371583
0!
#74673416
1!
#74905166
0!
#75197000
1!
#75428000
0!
#76729458
1!
#76960125
0!
#77253750
1!
#77484875
0!
#77768541
1!
#77999625
0!
#79322416
1!
#79553166
0!
#80855208
1!
#81086208
0!
#81379250
1!
#81610833
0!
#81894583
1!
#82125375
0!
#83435666
1!
#83666083
0!
#84969250
1!
#85201291
0!
#85493708
1!
#85725208
0!
#87026958
1!
#87257750
0!
#87551750
1!
#87782458
0!
#89085416
1!
#89315375
0!
#89609291
1!
#89840708
0!
#90124416
1!
#90355250
0!
#91666125
1!
#91896666
0!
#92181041
1!
#92412125
0!
#93722833
1!
#93954166
0!
#94238791
1!
#94469041
0!
#95791708
1!
#96023208
0!
#97324333
1!
#97555000
0!
#97849041
1!
#98080875
0!
#98364583
1!
#98595583
0!
#99906958
1!
#100137416
0!
#101440666
1!
#101672083
0!
#101964833
1!
#102195041
0!
#103498500
1!
#103728791
0!
#104023166
1!
#104253625
0!
#104538125
1!
#104767958
0!
#106080625
1!
#106312000
0!
#106596000
1!
#106827708
0!
#108138791
1!
#108369333
0!
#108654000
1!
#108885333
0!
#110197041
1!
#110426833
0!
#111730916
1!
#111961750
0!
#112266458
1!
#112497125
0!
#113800125
1!
#114030916
0!
#114325625
1!
#114556000
0!
#114840625
1!
#115071041
0!
#116382666
1!
#116613500
0!
#117915000
1!
#118146208
0!
#118439750
1!
#118670083
0!
#118955291
1!
#119185750
0!
#120497125
1!
#120728083
0!
#121012583
1!
#121243333
0!
#122555125
1!
#122785166
0!
#123069958
1!
#123299958
0!
#124613291
1!
#124844250
0!
#125128708
1!
#125359875
0!
#126671541
1!
#126901833
0!
#127186791
1!
#127417708
0!
#128720833
1!
#128947958
0!
#138317958
1!